2.826185226750246e+15,5.133915149583482e-01,3.098398843221366e+00,4.736005410086364e-09,0.000000000000000e+00,0.000000000000000e+00,0.000000000000000e+00,0.000000000000000e+00
9.574769990600368e+15,1.508568468301092e+00,-1.663729434972629e+00,3.721526715671644e-09,0.000000000000000e+00,0.000000000000000e+00,0.000000000000000e+00,0.000000000000000e+00
7.599440382405967e+15,2.296454712748528e+00,2.482706817332656e-01,3.293183072237298e-09,0.000000000000000e+00,0.000000000000000e+00,0.000000000000000e+00,0.000000000000000e+00
5.196725954284326e+15,2.495605315465946e+00,-1.143046746309847e+00,8.428621094208211e-10,0.000000000000000e+00,0.000000000000000e+00,0.000000000000000e+00,0.000000000000000e+00
2.216684655081082e+15,1.222250241464935e+00,-1.517156720161439e-01,1.065952294738963e-09,0.000000000000000e+00,0.000000000000000e+00,0.000000000000000e+00,0.000000000000000e+00
1.941496564783929e+15,1.040636282009073e+00,-2.911921733897179e+00,4.718583903741092e-09,0.000000000000000e+00,0.000000000000000e+00,0.000000000000000e+00,0.000000000000000e+00
6.655642658919042e+15,2.785762010538019e+00,4.955763849429786e-01,2.493051548954099e-09,0.000000000000000e+00,0.000000000000000e+00,0.000000000000000e+00,0.000000000000000e+00
2.965262342244012e+15,5.732595546054654e-01,3.758951948024332e-01,5.870446667540818e-10,0.000000000000000e+00,0.000000000000000e+00,0.000000000000000e+00,0.000000000000000e+00
7.254188031233940e+15,2.012708025795873e+00,-2.709910471970216e+00,3.185655791312456e-09,0.000000000000000e+00,0.000000000000000e+00,0.000000000000000e+00,0.000000000000000e+00
6.992674969689820e+15,3.176905914861709e-01,1.326087386719883e+00,5.390623491257429e-10,0.000000000000000e+00,0.000000000000000e+00,0.000000000000000e+00,0.000000000000000e+00
2.077806986773836e+15,1.562425389131531e+00,-2.298694942053408e+00,1.444551529129967e-09,0.000000000000000e+00,0.000000000000000e+00,0.000000000000000e+00,0.000000000000000e+00
5.473718636261735e+15,4.059038256085478e-01,-2.584316274430603e+00,4.115979978814721e-10,0.000000000000000e+00,0.000000000000000e+00,0.000000000000000e+00,0.000000000000000e+00
2.271186119186704e+15,2.765117347508203e+00,-1.288723155157641e+00,2.159227313240990e-09,0.000000000000000e+00,0.000000000000000e+00,0.000000000000000e+00,0.000000000000000e+00
6.869472140802122e+15,1.247211696861778e+00,-2.227455394901335e+00,8.533545525278897e-10,0.000000000000000e+00,0.000000000000000e+00,0.000000000000000e+00,0.000000000000000e+00
3.112971025890156e+15,1.500899858586490e-01,-3.669106204994024e-01,2.530905257444829e-09,0.000000000000000e+00,0.000000000000000e+00,0.000000000000000e+00,0.000000000000000e+00
7.407884645057332e+15,1.589088927332778e+00,-1.969052792340517e+00,1.829943134216592e-09,0.000000000000000e+00,0.000000000000000e+00,0.000000000000000e+00,0.000000000000000e+00
6.278368438198657e+15,1.431729966194835e+00,-2.102985211787745e+00,3.388018440455198e-09,0.000000000000000e+00,0.000000000000000e+00,0.000000000000000e+00,0.000000000000000e+00
9.010850404345570e+14,1.488678921407554e+00,1.228818440483883e+00,1.693642608588561e-09,0.000000000000000e+00,0.000000000000000e+00,0.000000000000000e+00,0.000000000000000e+00
