2.826185226750246e+15,5.133915149583482e-01,3.098398843221366e+00,4.736005410086364e-09,0.000000000000000e+00,0.000000000000000e+00,0.000000000000000e+00,0.000000000000000e+00
9.574769990600368e+15,1.508568468301092e+00,-1.663729434972629e+00,3.721526715671644e-09,0.000000000000000e+00,0.000000000000000e+00,0.000000000000000e+00,0.000000000000000e+00
7.599440382405967e+15,2.296454712748528e+00,2.482706817332656e-01,3.293183072237298e-09,0.000000000000000e+00,0.000000000000000e+00,0.000000000000000e+00,0.000000000000000e+00
5.196725954284326e+15,2.495605315465946e+00,-1.143046746309847e+00,8.428621094208211e-10,0.000000000000000e+00,0.000000000000000e+00,0.000000000000000e+00,0.000000000000000e+00
2.216684655081082e+15,1.222250241464935e+00,-1.517156720161439e-01,1.065952294738963e-09,0.000000000000000e+00,0.000000000000000e+00,0.000000000000000e+00,0.000000000000000e+00
1.941496564783929e+15,1.040636282009073e+00,-2.911921733897179e+00,4.718583903741092e-09,0.000000000000000e+00,0.000000000000000e+00,0.000000000000000e+00,0.000000000000000e+00
6.655642658919042e+15,2.785762010538019e+00,4.955763849429786e-01,2.493051548954099e-09,0.000000000000000e+00,0.000000000000000e+00,0.000000000000000e+00,0.000000000000000e+00
2.965262342244012e+15,5.732595546054654e-01,3.758951948024332e-01,5.870446667540818e-10,0.000000000000000e+00,0.000000000000000e+00,0.000000000000000e+00,0.000000000000000e+00
7.254188031233940e+15,2.012708025795873e+00,-2.709910471970216e+00,3.185655791312456e-09,0.000000000000000e+00,0.000000000000000e+00,0.000000000000000e+00,0.000000000000000e+00
6.992674969689820e+15,3.176905914861709e-01,1.326087386719883e+00,5.390623491257429e-10,0.000000000000000e+00,0.000000000000000e+00,0.000000000000000e+00,0.000000000000000e+00
2.077806986773836e+15,1.562425389131531e+00,-2.298694942053408e+00,1.444551529129967e-09,0.000000000000000e+00,0.000000000000000e+00,0.000000000000000e+00,0.000000000000000e+00
5.473718636261735e+15,4.059038256085478e-01,-2.584316274430603e+00,4.115979978814721e-10,0.000000000000000e+00,0.000000000000000e+00,0.000000000000000e+00,0.000000000000000e+00
2.271186119186704e+15,2.765117347508203e+00,-1.288723155157641e+00,2.159227313240990e-09,0.000000000000000e+00,0.000000000000000e+00,0.000000000000000e+00,0.000000000000000e+00
6.869472140802122e+15,1.247211696861778e+00,-2.227455394901335e+00,8.533545525278897e-10,0.000000000000000e+00,0.000000000000000e+00,0.000000000000000e+00,0.000000000000000e+00
3.112971025890156e+15,1.500899858586490e-01,-3.669106204994024e-01,2.530905257444829e-09,0.000000000000000e+00,0.000000000000000e+00,0.000000000000000e+00,0.000000000000000e+00
7.407884645057332e+15,1.589088927332778e+00,-1.969052792340517e+00,1.829943134216592e-09,0.000000000000000e+00,0.000000000000000e+00,0.000000000000000e+00,0.000000000000000e+00
6.278368438198657e+15,1.431729966194835e+00,-2.102985211787745e+00,3.388018440455198e-09,0.000000000000000e+00,0.000000000000000e+00,0.000000000000000e+00,0.000000000000000e+00
9.010850404345570e+14,1.488678921407554e+00,1.228818440483883e+00,1.693642608588561e-09,0.000000000000000e+00,0.000000000000000e+00,0.000000000000000e+00,0.000000000000000e+00
4.746738777637414e+15,1.358914668248035e+00,-2.509674460394308e+00,2.096229632152245e-09,0.000000000000000e+00,0.000000000000000e+00,0.000000000000000e+00,0.000000000000000e+00
9.804365693182636e+15,1.940046644834802e+00,1.720728482725099e+00,1.852151006460190e-09,0.000000000000000e+00,0.000000000000000e+00,0.000000000000000e+00,0.000000000000000e+00
7.440855633805587e+15,4.450919227185660e-01,2.051038345042616e+00,4.148698399076238e-09,0.000000000000000e+00,0.000000000000000e+00,0.000000000000000e+00,0.000000000000000e+00
3.467001309395716e+15,1.931845251151826e+00,-6.751532257068904e-01,2.308476227335632e-10,0.000000000000000e+00,0.000000000000000e+00,0.000000000000000e+00,0.000000000000000e+00
4.988945269104491e+15,1.763185808493290e+00,7.010111931245775e-01,3.619010393740609e-09,0.000000000000000e+00,0.000000000000000e+00,0.000000000000000e+00,0.000000000000000e+00
3.107877117924388e+15,1.407167746755295e-01,-2.203786745714024e+00,6.082057685125619e-10,0.000000000000000e+00,0.000000000000000e+00,0.000000000000000e+00,0.000000000000000e+00
4.401290969992110e+15,1.187471863334067e+00,-1.599168040230870e+00,2.998979508411139e-09,0.000000000000000e+00,0.000000000000000e+00,0.000000000000000e+00,0.000000000000000e+00
5.559687060540991e+15,1.346815009517595e+00,8.963628551457079e-01,3.584205840015784e-09,0.000000000000000e+00,0.000000000000000e+00,0.000000000000000e+00,0.000000000000000e+00
9.615905000157724e+14,2.129050081521273e+00,8.826475914102048e-01,6.146673182956875e-10,0.000000000000000e+00,0.000000000000000e+00,0.000000000000000e+00,0.000000000000000e+00
1.255401602900049e+15,2.544022617151495e+00,-2.746616026107222e+00,1.578725354047492e-09,0.000000000000000e+00,0.000000000000000e+00,0.000000000000000e+00,0.000000000000000e+00
6.644299487266310e+15,4.494821080006660e-01,-1.980485065886751e+00,3.425946114584804e-09,0.000000000000000e+00,0.000000000000000e+00,0.000000000000000e+00,0.000000000000000e+00
9.644592601448456e+15,1.358299927671906e+00,-1.915788017865270e+00,4.340817951597274e-09,0.000000000000000e+00,0.000000000000000e+00,0.000000000000000e+00,0.000000000000000e+00
3.746550764978586e+15,1.506926644193009e+00,-2.288544214656576e+00,4.502375611336902e-09,0.000000000000000e+00,0.000000000000000e+00,0.000000000000000e+00,0.000000000000000e+00
6.228746871330088e+15,2.110072553453501e+00,-1.992327921139076e+00,4.918279747944325e-09,0.000000000000000e+00,0.000000000000000e+00,0.000000000000000e+00,0.000000000000000e+00
9.948450660194026e+15,2.496638186946512e+00,-3.675683653913437e-01,2.707754806615412e-09,0.000000000000000e+00,0.000000000000000e+00,0.000000000000000e+00,0.000000000000000e+00
5.759106945366410e+15,1.984342013411224e+00,-1.513386176247150e+00,1.293607098050415e-09,0.000000000000000e+00,0.000000000000000e+00,0.000000000000000e+00,0.000000000000000e+00
1.492673600727040e+15,1.387098814581987e+00,-1.912123392987996e+00,4.983618445694446e-09,0.000000000000000e+00,0.000000000000000e+00,0.000000000000000e+00,0.000000000000000e+00
2.779606999556068e+14,2.023256374006160e+00,-2.345074222702533e+00,1.949888011440635e-09,0.000000000000000e+00,0.000000000000000e+00,0.000000000000000e+00,0.000000000000000e+00
