0,0.000000000000000e+00
0,1.209600000000000e+06
0,2.419200000000000e+06
0,3.628800000000000e+06
0,4.838400000000000e+06
0,6.048000000000000e+06
0,7.257600000000000e+06
0,8.467200000000000e+06
0,9.676800000000000e+06
0,1.088640000000000e+07
0,1.209600000000000e+07
0,1.330560000000000e+07
0,1.451520000000000e+07
0,1.572480000000000e+07
0,1.693440000000000e+07
0,1.814400000000000e+07
0,1.935360000000000e+07
0,2.056320000000000e+07
0,2.177280000000000e+07
0,2.298240000000000e+07
0,2.419200000000000e+07
0,2.540160000000000e+07
0,2.661120000000000e+07
0,2.782080000000000e+07
0,2.903040000000000e+07
0,3.024000000000000e+07
0,3.144960000000000e+07
0,3.265920000000000e+07
0,3.386880000000000e+07
0,3.507840000000000e+07
0,3.628800000000000e+07
0,3.749760000000000e+07
0,3.870720000000000e+07
0,3.991680000000000e+07
0,4.112640000000000e+07
0,4.233600000000000e+07
0,4.354560000000000e+07
0,4.475520000000000e+07
0,4.596480000000000e+07
0,4.717440000000000e+07
0,4.838400000000000e+07
0,4.959360000000000e+07
0,5.080320000000000e+07
0,5.201280000000000e+07
0,5.322240000000000e+07
0,5.443200000000000e+07
0,5.564160000000000e+07
0,5.685120000000000e+07
0,5.806080000000000e+07
0,5.927040000000000e+07
0,6.048000000000000e+07
0,6.168960000000000e+07
0,6.289920000000000e+07
0,6.410880000000000e+07
0,6.531840000000000e+07
0,6.652800000000000e+07
0,6.773760000000000e+07
0,6.894720000000000e+07
0,7.015680000000000e+07
0,7.136640000000000e+07
0,7.257600000000000e+07
0,7.378560000000000e+07
0,7.499520000000000e+07
0,7.620480000000000e+07
0,7.741440000000000e+07
0,7.862400000000000e+07
0,7.983360000000000e+07
0,8.104320000000000e+07
0,8.225280000000000e+07
0,8.346240000000000e+07
0,8.467200000000000e+07
0,8.588160000000000e+07
0,8.709120000000000e+07
0,8.830080000000000e+07
0,8.951040000000000e+07
0,9.072000000000000e+07
0,9.192960000000000e+07
0,9.313920000000000e+07
0,9.434880000000000e+07
0,9.555840000000000e+07
0,9.676800000000000e+07
0,9.797760000000000e+07
0,9.918720000000000e+07
0,1.003968000000000e+08
0,1.016064000000000e+08
0,1.028160000000000e+08
0,1.040256000000000e+08
0,1.052352000000000e+08
0,1.064448000000000e+08
0,1.076544000000000e+08
0,1.088640000000000e+08
0,1.100736000000000e+08
0,1.112832000000000e+08
0,1.124928000000000e+08
0,1.137024000000000e+08
0,1.149120000000000e+08
0,1.161216000000000e+08
0,1.173312000000000e+08
0,1.185408000000000e+08
0,1.197504000000000e+08
0,1.209600000000000e+08
0,1.221696000000000e+08
0,1.233792000000000e+08
0,1.245888000000000e+08
0,1.257984000000000e+08
0,1.270080000000000e+08
0,1.282176000000000e+08
0,1.294272000000000e+08
0,1.306368000000000e+08
0,1.318464000000000e+08
0,1.330560000000000e+08
0,1.342656000000000e+08
0,1.354752000000000e+08
0,1.366848000000000e+08
0,1.378944000000000e+08
0,1.391040000000000e+08
0,1.403136000000000e+08
0,1.415232000000000e+08
0,1.427328000000000e+08
0,1.439424000000000e+08
0,1.451520000000000e+08
0,1.463616000000000e+08
0,1.475712000000000e+08
0,1.487808000000000e+08
0,1.499904000000000e+08
0,1.512000000000000e+08
0,1.524096000000000e+08
0,1.536192000000000e+08
0,1.548288000000000e+08
0,1.560384000000000e+08
1,0.000000000000000e+00
1,1.209600000000000e+06
1,2.419200000000000e+06
1,3.628800000000000e+06
1,4.838400000000000e+06
1,6.048000000000000e+06
1,7.257600000000000e+06
1,8.467200000000000e+06
1,9.676800000000000e+06
1,1.088640000000000e+07
1,1.209600000000000e+07
1,1.330560000000000e+07
1,1.451520000000000e+07
1,1.572480000000000e+07
1,1.693440000000000e+07
1,1.814400000000000e+07
1,1.935360000000000e+07
1,2.056320000000000e+07
1,2.177280000000000e+07
1,2.298240000000000e+07
1,2.419200000000000e+07
1,2.540160000000000e+07
1,2.661120000000000e+07
1,2.782080000000000e+07
1,2.903040000000000e+07
1,3.024000000000000e+07
1,3.144960000000000e+07
1,3.265920000000000e+07
1,3.386880000000000e+07
1,3.507840000000000e+07
1,3.628800000000000e+07
1,3.749760000000000e+07
1,3.870720000000000e+07
1,3.991680000000000e+07
1,4.112640000000000e+07
1,4.233600000000000e+07
1,4.354560000000000e+07
1,4.475520000000000e+07
1,4.596480000000000e+07
1,4.717440000000000e+07
1,4.838400000000000e+07
1,4.959360000000000e+07
1,5.080320000000000e+07
1,5.201280000000000e+07
1,5.322240000000000e+07
1,5.443200000000000e+07
1,5.564160000000000e+07
1,5.685120000000000e+07
1,5.806080000000000e+07
1,5.927040000000000e+07
1,6.048000000000000e+07
1,6.168960000000000e+07
1,6.289920000000000e+07
1,6.410880000000000e+07
1,6.531840000000000e+07
1,6.652800000000000e+07
1,6.773760000000000e+07
1,6.894720000000000e+07
1,7.015680000000000e+07
1,7.136640000000000e+07
1,7.257600000000000e+07
1,7.378560000000000e+07
1,7.499520000000000e+07
1,7.620480000000000e+07
1,7.741440000000000e+07
1,7.862400000000000e+07
1,7.983360000000000e+07
1,8.104320000000000e+07
1,8.225280000000000e+07
1,8.346240000000000e+07
1,8.467200000000000e+07
1,8.588160000000000e+07
1,8.709120000000000e+07
1,8.830080000000000e+07
1,8.951040000000000e+07
1,9.072000000000000e+07
1,9.192960000000000e+07
1,9.313920000000000e+07
1,9.434880000000000e+07
1,9.555840000000000e+07
1,9.676800000000000e+07
1,9.797760000000000e+07
1,9.918720000000000e+07
1,1.003968000000000e+08
1,1.016064000000000e+08
1,1.028160000000000e+08
1,1.040256000000000e+08
1,1.052352000000000e+08
1,1.064448000000000e+08
1,1.076544000000000e+08
1,1.088640000000000e+08
1,1.100736000000000e+08
1,1.112832000000000e+08
1,1.124928000000000e+08
1,1.137024000000000e+08
1,1.149120000000000e+08
1,1.161216000000000e+08
1,1.173312000000000e+08
1,1.185408000000000e+08
1,1.197504000000000e+08
1,1.209600000000000e+08
1,1.221696000000000e+08
1,1.233792000000000e+08
1,1.245888000000000e+08
1,1.257984000000000e+08
1,1.270080000000000e+08
1,1.282176000000000e+08
1,1.294272000000000e+08
1,1.306368000000000e+08
1,1.318464000000000e+08
1,1.330560000000000e+08
1,1.342656000000000e+08
1,1.354752000000000e+08
1,1.366848000000000e+08
1,1.378944000000000e+08
1,1.391040000000000e+08
1,1.403136000000000e+08
1,1.415232000000000e+08
1,1.427328000000000e+08
1,1.439424000000000e+08
1,1.451520000000000e+08
1,1.463616000000000e+08
1,1.475712000000000e+08
1,1.487808000000000e+08
1,1.499904000000000e+08
1,1.512000000000000e+08
1,1.524096000000000e+08
1,1.536192000000000e+08
1,1.548288000000000e+08
1,1.560384000000000e+08
2,0.000000000000000e+00
2,1.209600000000000e+06
2,2.419200000000000e+06
2,3.628800000000000e+06
2,4.838400000000000e+06
2,6.048000000000000e+06
2,7.257600000000000e+06
2,8.467200000000000e+06
2,9.676800000000000e+06
2,1.088640000000000e+07
2,1.209600000000000e+07
2,1.330560000000000e+07
2,1.451520000000000e+07
2,1.572480000000000e+07
2,1.693440000000000e+07
2,1.814400000000000e+07
2,1.935360000000000e+07
2,2.056320000000000e+07
2,2.177280000000000e+07
2,2.298240000000000e+07
2,2.419200000000000e+07
2,2.540160000000000e+07
2,2.661120000000000e+07
2,2.782080000000000e+07
2,2.903040000000000e+07
2,3.024000000000000e+07
2,3.144960000000000e+07
2,3.265920000000000e+07
2,3.386880000000000e+07
2,3.507840000000000e+07
2,3.628800000000000e+07
2,3.749760000000000e+07
2,3.870720000000000e+07
2,3.991680000000000e+07
2,4.112640000000000e+07
2,4.233600000000000e+07
2,4.354560000000000e+07
2,4.475520000000000e+07
2,4.596480000000000e+07
2,4.717440000000000e+07
2,4.838400000000000e+07
2,4.959360000000000e+07
2,5.080320000000000e+07
2,5.201280000000000e+07
2,5.322240000000000e+07
2,5.443200000000000e+07
2,5.564160000000000e+07
2,5.685120000000000e+07
2,5.806080000000000e+07
2,5.927040000000000e+07
2,6.048000000000000e+07
2,6.168960000000000e+07
2,6.289920000000000e+07
2,6.410880000000000e+07
2,6.531840000000000e+07
2,6.652800000000000e+07
2,6.773760000000000e+07
2,6.894720000000000e+07
2,7.015680000000000e+07
2,7.136640000000000e+07
2,7.257600000000000e+07
2,7.378560000000000e+07
2,7.499520000000000e+07
2,7.620480000000000e+07
2,7.741440000000000e+07
2,7.862400000000000e+07
2,7.983360000000000e+07
2,8.104320000000000e+07
2,8.225280000000000e+07
2,8.346240000000000e+07
2,8.467200000000000e+07
2,8.588160000000000e+07
2,8.709120000000000e+07
2,8.830080000000000e+07
2,8.951040000000000e+07
2,9.072000000000000e+07
2,9.192960000000000e+07
2,9.313920000000000e+07
2,9.434880000000000e+07
2,9.555840000000000e+07
2,9.676800000000000e+07
2,9.797760000000000e+07
2,9.918720000000000e+07
2,1.003968000000000e+08
2,1.016064000000000e+08
2,1.028160000000000e+08
2,1.040256000000000e+08
2,1.052352000000000e+08
2,1.064448000000000e+08
2,1.076544000000000e+08
2,1.088640000000000e+08
2,1.100736000000000e+08
2,1.112832000000000e+08
2,1.124928000000000e+08
2,1.137024000000000e+08
2,1.149120000000000e+08
2,1.161216000000000e+08
2,1.173312000000000e+08
2,1.185408000000000e+08
2,1.197504000000000e+08
2,1.209600000000000e+08
2,1.221696000000000e+08
2,1.233792000000000e+08
2,1.245888000000000e+08
2,1.257984000000000e+08
2,1.270080000000000e+08
2,1.282176000000000e+08
2,1.294272000000000e+08
2,1.306368000000000e+08
2,1.318464000000000e+08
2,1.330560000000000e+08
2,1.342656000000000e+08
2,1.354752000000000e+08
2,1.366848000000000e+08
2,1.378944000000000e+08
2,1.391040000000000e+08
2,1.403136000000000e+08
2,1.415232000000000e+08
2,1.427328000000000e+08
2,1.439424000000000e+08
2,1.451520000000000e+08
2,1.463616000000000e+08
2,1.475712000000000e+08
2,1.487808000000000e+08
2,1.499904000000000e+08
2,1.512000000000000e+08
2,1.524096000000000e+08
2,1.536192000000000e+08
2,1.548288000000000e+08
2,1.560384000000000e+08
3,0.000000000000000e+00
3,1.209600000000000e+06
3,2.419200000000000e+06
3,3.628800000000000e+06
3,4.838400000000000e+06
3,6.048000000000000e+06
3,7.257600000000000e+06
3,8.467200000000000e+06
3,9.676800000000000e+06
3,1.088640000000000e+07
3,1.209600000000000e+07
3,1.330560000000000e+07
3,1.451520000000000e+07
3,1.572480000000000e+07
3,1.693440000000000e+07
3,1.814400000000000e+07
3,1.935360000000000e+07
3,2.056320000000000e+07
3,2.177280000000000e+07
3,2.298240000000000e+07
3,2.419200000000000e+07
3,2.540160000000000e+07
3,2.661120000000000e+07
3,2.782080000000000e+07
3,2.903040000000000e+07
3,3.024000000000000e+07
3,3.144960000000000e+07
3,3.265920000000000e+07
3,3.386880000000000e+07
3,3.507840000000000e+07
3,3.628800000000000e+07
3,3.749760000000000e+07
3,3.870720000000000e+07
3,3.991680000000000e+07
3,4.112640000000000e+07
3,4.233600000000000e+07
3,4.354560000000000e+07
3,4.475520000000000e+07
3,4.596480000000000e+07
3,4.717440000000000e+07
3,4.838400000000000e+07
3,4.959360000000000e+07
3,5.080320000000000e+07
3,5.201280000000000e+07
3,5.322240000000000e+07
3,5.443200000000000e+07
3,5.564160000000000e+07
3,5.685120000000000e+07
3,5.806080000000000e+07
3,5.927040000000000e+07
3,6.048000000000000e+07
3,6.168960000000000e+07
3,6.289920000000000e+07
3,6.410880000000000e+07
3,6.531840000000000e+07
3,6.652800000000000e+07
3,6.773760000000000e+07
3,6.894720000000000e+07
3,7.015680000000000e+07
3,7.136640000000000e+07
3,7.257600000000000e+07
3,7.378560000000000e+07
3,7.499520000000000e+07
3,7.620480000000000e+07
3,7.741440000000000e+07
3,7.862400000000000e+07
3,7.983360000000000e+07
3,8.104320000000000e+07
3,8.225280000000000e+07
3,8.346240000000000e+07
3,8.467200000000000e+07
3,8.588160000000000e+07
3,8.709120000000000e+07
3,8.830080000000000e+07
3,8.951040000000000e+07
3,9.072000000000000e+07
3,9.192960000000000e+07
3,9.313920000000000e+07
3,9.434880000000000e+07
3,9.555840000000000e+07
3,9.676800000000000e+07
3,9.797760000000000e+07
3,9.918720000000000e+07
3,1.003968000000000e+08
3,1.016064000000000e+08
3,1.028160000000000e+08
3,1.040256000000000e+08
3,1.052352000000000e+08
3,1.064448000000000e+08
3,1.076544000000000e+08
3,1.088640000000000e+08
3,1.100736000000000e+08
3,1.112832000000000e+08
3,1.124928000000000e+08
3,1.137024000000000e+08
3,1.149120000000000e+08
3,1.161216000000000e+08
3,1.173312000000000e+08
3,1.185408000000000e+08
3,1.197504000000000e+08
3,1.209600000000000e+08
3,1.221696000000000e+08
3,1.233792000000000e+08
3,1.245888000000000e+08
3,1.257984000000000e+08
3,1.270080000000000e+08
3,1.282176000000000e+08
3,1.294272000000000e+08
3,1.306368000000000e+08
3,1.318464000000000e+08
3,1.330560000000000e+08
3,1.342656000000000e+08
3,1.354752000000000e+08
3,1.366848000000000e+08
3,1.378944000000000e+08
3,1.391040000000000e+08
3,1.403136000000000e+08
3,1.415232000000000e+08
3,1.427328000000000e+08
3,1.439424000000000e+08
3,1.451520000000000e+08
3,1.463616000000000e+08
3,1.475712000000000e+08
3,1.487808000000000e+08
3,1.499904000000000e+08
3,1.512000000000000e+08
3,1.524096000000000e+08
3,1.536192000000000e+08
3,1.548288000000000e+08
3,1.560384000000000e+08
4,0.000000000000000e+00
4,1.209600000000000e+06
4,2.419200000000000e+06
4,3.628800000000000e+06
4,4.838400000000000e+06
4,6.048000000000000e+06
4,7.257600000000000e+06
4,8.467200000000000e+06
4,9.676800000000000e+06
4,1.088640000000000e+07
4,1.209600000000000e+07
4,1.330560000000000e+07
4,1.451520000000000e+07
4,1.572480000000000e+07
4,1.693440000000000e+07
4,1.814400000000000e+07
4,1.935360000000000e+07
4,2.056320000000000e+07
4,2.177280000000000e+07
4,2.298240000000000e+07
4,2.419200000000000e+07
4,2.540160000000000e+07
4,2.661120000000000e+07
4,2.782080000000000e+07
4,2.903040000000000e+07
4,3.024000000000000e+07
4,3.144960000000000e+07
4,3.265920000000000e+07
4,3.386880000000000e+07
4,3.507840000000000e+07
4,3.628800000000000e+07
4,3.749760000000000e+07
4,3.870720000000000e+07
4,3.991680000000000e+07
4,4.112640000000000e+07
4,4.233600000000000e+07
4,4.354560000000000e+07
4,4.475520000000000e+07
4,4.596480000000000e+07
4,4.717440000000000e+07
4,4.838400000000000e+07
4,4.959360000000000e+07
4,5.080320000000000e+07
4,5.201280000000000e+07
4,5.322240000000000e+07
4,5.443200000000000e+07
4,5.564160000000000e+07
4,5.685120000000000e+07
4,5.806080000000000e+07
4,5.927040000000000e+07
4,6.048000000000000e+07
4,6.168960000000000e+07
4,6.289920000000000e+07
4,6.410880000000000e+07
4,6.531840000000000e+07
4,6.652800000000000e+07
4,6.773760000000000e+07
4,6.894720000000000e+07
4,7.015680000000000e+07
4,7.136640000000000e+07
4,7.257600000000000e+07
4,7.378560000000000e+07
4,7.499520000000000e+07
4,7.620480000000000e+07
4,7.741440000000000e+07
4,7.862400000000000e+07
4,7.983360000000000e+07
4,8.104320000000000e+07
4,8.225280000000000e+07
4,8.346240000000000e+07
4,8.467200000000000e+07
4,8.588160000000000e+07
4,8.709120000000000e+07
4,8.830080000000000e+07
4,8.951040000000000e+07
4,9.072000000000000e+07
4,9.192960000000000e+07
4,9.313920000000000e+07
4,9.434880000000000e+07
4,9.555840000000000e+07
4,9.676800000000000e+07
4,9.797760000000000e+07
4,9.918720000000000e+07
4,1.003968000000000e+08
4,1.016064000000000e+08
4,1.028160000000000e+08
4,1.040256000000000e+08
4,1.052352000000000e+08
4,1.064448000000000e+08
4,1.076544000000000e+08
4,1.088640000000000e+08
4,1.100736000000000e+08
4,1.112832000000000e+08
4,1.124928000000000e+08
4,1.137024000000000e+08
4,1.149120000000000e+08
4,1.161216000000000e+08
4,1.173312000000000e+08
4,1.185408000000000e+08
4,1.197504000000000e+08
4,1.209600000000000e+08
4,1.221696000000000e+08
4,1.233792000000000e+08
4,1.245888000000000e+08
4,1.257984000000000e+08
4,1.270080000000000e+08
4,1.282176000000000e+08
4,1.294272000000000e+08
4,1.306368000000000e+08
4,1.318464000000000e+08
4,1.330560000000000e+08
4,1.342656000000000e+08
4,1.354752000000000e+08
4,1.366848000000000e+08
4,1.378944000000000e+08
4,1.391040000000000e+08
4,1.403136000000000e+08
4,1.415232000000000e+08
4,1.427328000000000e+08
4,1.439424000000000e+08
4,1.451520000000000e+08
4,1.463616000000000e+08
4,1.475712000000000e+08
4,1.487808000000000e+08
4,1.499904000000000e+08
4,1.512000000000000e+08
4,1.524096000000000e+08
4,1.536192000000000e+08
4,1.548288000000000e+08
4,1.560384000000000e+08
5,0.000000000000000e+00
5,1.209600000000000e+06
5,2.419200000000000e+06
5,3.628800000000000e+06
5,4.838400000000000e+06
5,6.048000000000000e+06
5,7.257600000000000e+06
5,8.467200000000000e+06
5,9.676800000000000e+06
5,1.088640000000000e+07
5,1.209600000000000e+07
5,1.330560000000000e+07
5,1.451520000000000e+07
5,1.572480000000000e+07
5,1.693440000000000e+07
5,1.814400000000000e+07
5,1.935360000000000e+07
5,2.056320000000000e+07
5,2.177280000000000e+07
5,2.298240000000000e+07
5,2.419200000000000e+07
5,2.540160000000000e+07
5,2.661120000000000e+07
5,2.782080000000000e+07
5,2.903040000000000e+07
5,3.024000000000000e+07
5,3.144960000000000e+07
5,3.265920000000000e+07
5,3.386880000000000e+07
5,3.507840000000000e+07
5,3.628800000000000e+07
5,3.749760000000000e+07
5,3.870720000000000e+07
5,3.991680000000000e+07
5,4.112640000000000e+07
5,4.233600000000000e+07
5,4.354560000000000e+07
5,4.475520000000000e+07
5,4.596480000000000e+07
5,4.717440000000000e+07
5,4.838400000000000e+07
5,4.959360000000000e+07
5,5.080320000000000e+07
5,5.201280000000000e+07
5,5.322240000000000e+07
5,5.443200000000000e+07
5,5.564160000000000e+07
5,5.685120000000000e+07
5,5.806080000000000e+07
5,5.927040000000000e+07
5,6.048000000000000e+07
5,6.168960000000000e+07
5,6.289920000000000e+07
5,6.410880000000000e+07
5,6.531840000000000e+07
5,6.652800000000000e+07
5,6.773760000000000e+07
5,6.894720000000000e+07
5,7.015680000000000e+07
5,7.136640000000000e+07
5,7.257600000000000e+07
5,7.378560000000000e+07
5,7.499520000000000e+07
5,7.620480000000000e+07
5,7.741440000000000e+07
5,7.862400000000000e+07
5,7.983360000000000e+07
5,8.104320000000000e+07
5,8.225280000000000e+07
5,8.346240000000000e+07
5,8.467200000000000e+07
5,8.588160000000000e+07
5,8.709120000000000e+07
5,8.830080000000000e+07
5,8.951040000000000e+07
5,9.072000000000000e+07
5,9.192960000000000e+07
5,9.313920000000000e+07
5,9.434880000000000e+07
5,9.555840000000000e+07
5,9.676800000000000e+07
5,9.797760000000000e+07
5,9.918720000000000e+07
5,1.003968000000000e+08
5,1.016064000000000e+08
5,1.028160000000000e+08
5,1.040256000000000e+08
5,1.052352000000000e+08
5,1.064448000000000e+08
5,1.076544000000000e+08
5,1.088640000000000e+08
5,1.100736000000000e+08
5,1.112832000000000e+08
5,1.124928000000000e+08
5,1.137024000000000e+08
5,1.149120000000000e+08
5,1.161216000000000e+08
5,1.173312000000000e+08
5,1.185408000000000e+08
5,1.197504000000000e+08
5,1.209600000000000e+08
5,1.221696000000000e+08
5,1.233792000000000e+08
5,1.245888000000000e+08
5,1.257984000000000e+08
5,1.270080000000000e+08
5,1.282176000000000e+08
5,1.294272000000000e+08
5,1.306368000000000e+08
5,1.318464000000000e+08
5,1.330560000000000e+08
5,1.342656000000000e+08
5,1.354752000000000e+08
5,1.366848000000000e+08
5,1.378944000000000e+08
5,1.391040000000000e+08
5,1.403136000000000e+08
5,1.415232000000000e+08
5,1.427328000000000e+08
5,1.439424000000000e+08
5,1.451520000000000e+08
5,1.463616000000000e+08
5,1.475712000000000e+08
5,1.487808000000000e+08
5,1.499904000000000e+08
5,1.512000000000000e+08
5,1.524096000000000e+08
5,1.536192000000000e+08
5,1.548288000000000e+08
5,1.560384000000000e+08
6,0.000000000000000e+00
6,1.209600000000000e+06
6,2.419200000000000e+06
6,3.628800000000000e+06
6,4.838400000000000e+06
6,6.048000000000000e+06
6,7.257600000000000e+06
6,8.467200000000000e+06
6,9.676800000000000e+06
6,1.088640000000000e+07
6,1.209600000000000e+07
6,1.330560000000000e+07
6,1.451520000000000e+07
6,1.572480000000000e+07
6,1.693440000000000e+07
6,1.814400000000000e+07
6,1.935360000000000e+07
6,2.056320000000000e+07
6,2.177280000000000e+07
6,2.298240000000000e+07
6,2.419200000000000e+07
6,2.540160000000000e+07
6,2.661120000000000e+07
6,2.782080000000000e+07
6,2.903040000000000e+07
6,3.024000000000000e+07
6,3.144960000000000e+07
6,3.265920000000000e+07
6,3.386880000000000e+07
6,3.507840000000000e+07
6,3.628800000000000e+07
6,3.749760000000000e+07
6,3.870720000000000e+07
6,3.991680000000000e+07
6,4.112640000000000e+07
6,4.233600000000000e+07
6,4.354560000000000e+07
6,4.475520000000000e+07
6,4.596480000000000e+07
6,4.717440000000000e+07
6,4.838400000000000e+07
6,4.959360000000000e+07
6,5.080320000000000e+07
6,5.201280000000000e+07
6,5.322240000000000e+07
6,5.443200000000000e+07
6,5.564160000000000e+07
6,5.685120000000000e+07
6,5.806080000000000e+07
6,5.927040000000000e+07
6,6.048000000000000e+07
6,6.168960000000000e+07
6,6.289920000000000e+07
6,6.410880000000000e+07
6,6.531840000000000e+07
6,6.652800000000000e+07
6,6.773760000000000e+07
6,6.894720000000000e+07
6,7.015680000000000e+07
6,7.136640000000000e+07
6,7.257600000000000e+07
6,7.378560000000000e+07
6,7.499520000000000e+07
6,7.620480000000000e+07
6,7.741440000000000e+07
6,7.862400000000000e+07
6,7.983360000000000e+07
6,8.104320000000000e+07
6,8.225280000000000e+07
6,8.346240000000000e+07
6,8.467200000000000e+07
6,8.588160000000000e+07
6,8.709120000000000e+07
6,8.830080000000000e+07
6,8.951040000000000e+07
6,9.072000000000000e+07
6,9.192960000000000e+07
6,9.313920000000000e+07
6,9.434880000000000e+07
6,9.555840000000000e+07
6,9.676800000000000e+07
6,9.797760000000000e+07
6,9.918720000000000e+07
6,1.003968000000000e+08
6,1.016064000000000e+08
6,1.028160000000000e+08
6,1.040256000000000e+08
6,1.052352000000000e+08
6,1.064448000000000e+08
6,1.076544000000000e+08
6,1.088640000000000e+08
6,1.100736000000000e+08
6,1.112832000000000e+08
6,1.124928000000000e+08
6,1.137024000000000e+08
6,1.149120000000000e+08
6,1.161216000000000e+08
6,1.173312000000000e+08
6,1.185408000000000e+08
6,1.197504000000000e+08
6,1.209600000000000e+08
6,1.221696000000000e+08
6,1.233792000000000e+08
6,1.245888000000000e+08
6,1.257984000000000e+08
6,1.270080000000000e+08
6,1.282176000000000e+08
6,1.294272000000000e+08
6,1.306368000000000e+08
6,1.318464000000000e+08
6,1.330560000000000e+08
6,1.342656000000000e+08
6,1.354752000000000e+08
6,1.366848000000000e+08
6,1.378944000000000e+08
6,1.391040000000000e+08
6,1.403136000000000e+08
6,1.415232000000000e+08
6,1.427328000000000e+08
6,1.439424000000000e+08
6,1.451520000000000e+08
6,1.463616000000000e+08
6,1.475712000000000e+08
6,1.487808000000000e+08
6,1.499904000000000e+08
6,1.512000000000000e+08
6,1.524096000000000e+08
6,1.536192000000000e+08
6,1.548288000000000e+08
6,1.560384000000000e+08
7,0.000000000000000e+00
7,1.209600000000000e+06
7,2.419200000000000e+06
7,3.628800000000000e+06
7,4.838400000000000e+06
7,6.048000000000000e+06
7,7.257600000000000e+06
7,8.467200000000000e+06
7,9.676800000000000e+06
7,1.088640000000000e+07
7,1.209600000000000e+07
7,1.330560000000000e+07
7,1.451520000000000e+07
7,1.572480000000000e+07
7,1.693440000000000e+07
7,1.814400000000000e+07
7,1.935360000000000e+07
7,2.056320000000000e+07
7,2.177280000000000e+07
7,2.298240000000000e+07
7,2.419200000000000e+07
7,2.540160000000000e+07
7,2.661120000000000e+07
7,2.782080000000000e+07
7,2.903040000000000e+07
7,3.024000000000000e+07
7,3.144960000000000e+07
7,3.265920000000000e+07
7,3.386880000000000e+07
7,3.507840000000000e+07
7,3.628800000000000e+07
7,3.749760000000000e+07
7,3.870720000000000e+07
7,3.991680000000000e+07
7,4.112640000000000e+07
7,4.233600000000000e+07
7,4.354560000000000e+07
7,4.475520000000000e+07
7,4.596480000000000e+07
7,4.717440000000000e+07
7,4.838400000000000e+07
7,4.959360000000000e+07
7,5.080320000000000e+07
7,5.201280000000000e+07
7,5.322240000000000e+07
7,5.443200000000000e+07
7,5.564160000000000e+07
7,5.685120000000000e+07
7,5.806080000000000e+07
7,5.927040000000000e+07
7,6.048000000000000e+07
7,6.168960000000000e+07
7,6.289920000000000e+07
7,6.410880000000000e+07
7,6.531840000000000e+07
7,6.652800000000000e+07
7,6.773760000000000e+07
7,6.894720000000000e+07
7,7.015680000000000e+07
7,7.136640000000000e+07
7,7.257600000000000e+07
7,7.378560000000000e+07
7,7.499520000000000e+07
7,7.620480000000000e+07
7,7.741440000000000e+07
7,7.862400000000000e+07
7,7.983360000000000e+07
7,8.104320000000000e+07
7,8.225280000000000e+07
7,8.346240000000000e+07
7,8.467200000000000e+07
7,8.588160000000000e+07
7,8.709120000000000e+07
7,8.830080000000000e+07
7,8.951040000000000e+07
7,9.072000000000000e+07
7,9.192960000000000e+07
7,9.313920000000000e+07
7,9.434880000000000e+07
7,9.555840000000000e+07
7,9.676800000000000e+07
7,9.797760000000000e+07
7,9.918720000000000e+07
7,1.003968000000000e+08
7,1.016064000000000e+08
7,1.028160000000000e+08
7,1.040256000000000e+08
7,1.052352000000000e+08
7,1.064448000000000e+08
7,1.076544000000000e+08
7,1.088640000000000e+08
7,1.100736000000000e+08
7,1.112832000000000e+08
7,1.124928000000000e+08
7,1.137024000000000e+08
7,1.149120000000000e+08
7,1.161216000000000e+08
7,1.173312000000000e+08
7,1.185408000000000e+08
7,1.197504000000000e+08
7,1.209600000000000e+08
7,1.221696000000000e+08
7,1.233792000000000e+08
7,1.245888000000000e+08
7,1.257984000000000e+08
7,1.270080000000000e+08
7,1.282176000000000e+08
7,1.294272000000000e+08
7,1.306368000000000e+08
7,1.318464000000000e+08
7,1.330560000000000e+08
7,1.342656000000000e+08
7,1.354752000000000e+08
7,1.366848000000000e+08
7,1.378944000000000e+08
7,1.391040000000000e+08
7,1.403136000000000e+08
7,1.415232000000000e+08
7,1.427328000000000e+08
7,1.439424000000000e+08
7,1.451520000000000e+08
7,1.463616000000000e+08
7,1.475712000000000e+08
7,1.487808000000000e+08
7,1.499904000000000e+08
7,1.512000000000000e+08
7,1.524096000000000e+08
7,1.536192000000000e+08
7,1.548288000000000e+08
7,1.560384000000000e+08
8,0.000000000000000e+00
8,1.209600000000000e+06
8,2.419200000000000e+06
8,3.628800000000000e+06
8,4.838400000000000e+06
8,6.048000000000000e+06
8,7.257600000000000e+06
8,8.467200000000000e+06
8,9.676800000000000e+06
8,1.088640000000000e+07
8,1.209600000000000e+07
8,1.330560000000000e+07
8,1.451520000000000e+07
8,1.572480000000000e+07
8,1.693440000000000e+07
8,1.814400000000000e+07
8,1.935360000000000e+07
8,2.056320000000000e+07
8,2.177280000000000e+07
8,2.298240000000000e+07
8,2.419200000000000e+07
8,2.540160000000000e+07
8,2.661120000000000e+07
8,2.782080000000000e+07
8,2.903040000000000e+07
8,3.024000000000000e+07
8,3.144960000000000e+07
8,3.265920000000000e+07
8,3.386880000000000e+07
8,3.507840000000000e+07
8,3.628800000000000e+07
8,3.749760000000000e+07
8,3.870720000000000e+07
8,3.991680000000000e+07
8,4.112640000000000e+07
8,4.233600000000000e+07
8,4.354560000000000e+07
8,4.475520000000000e+07
8,4.596480000000000e+07
8,4.717440000000000e+07
8,4.838400000000000e+07
8,4.959360000000000e+07
8,5.080320000000000e+07
8,5.201280000000000e+07
8,5.322240000000000e+07
8,5.443200000000000e+07
8,5.564160000000000e+07
8,5.685120000000000e+07
8,5.806080000000000e+07
8,5.927040000000000e+07
8,6.048000000000000e+07
8,6.168960000000000e+07
8,6.289920000000000e+07
8,6.410880000000000e+07
8,6.531840000000000e+07
8,6.652800000000000e+07
8,6.773760000000000e+07
8,6.894720000000000e+07
8,7.015680000000000e+07
8,7.136640000000000e+07
8,7.257600000000000e+07
8,7.378560000000000e+07
8,7.499520000000000e+07
8,7.620480000000000e+07
8,7.741440000000000e+07
8,7.862400000000000e+07
8,7.983360000000000e+07
8,8.104320000000000e+07
8,8.225280000000000e+07
8,8.346240000000000e+07
8,8.467200000000000e+07
8,8.588160000000000e+07
8,8.709120000000000e+07
8,8.830080000000000e+07
8,8.951040000000000e+07
8,9.072000000000000e+07
8,9.192960000000000e+07
8,9.313920000000000e+07
8,9.434880000000000e+07
8,9.555840000000000e+07
8,9.676800000000000e+07
8,9.797760000000000e+07
8,9.918720000000000e+07
8,1.003968000000000e+08
8,1.016064000000000e+08
8,1.028160000000000e+08
8,1.040256000000000e+08
8,1.052352000000000e+08
8,1.064448000000000e+08
8,1.076544000000000e+08
8,1.088640000000000e+08
8,1.100736000000000e+08
8,1.112832000000000e+08
8,1.124928000000000e+08
8,1.137024000000000e+08
8,1.149120000000000e+08
8,1.161216000000000e+08
8,1.173312000000000e+08
8,1.185408000000000e+08
8,1.197504000000000e+08
8,1.209600000000000e+08
8,1.221696000000000e+08
8,1.233792000000000e+08
8,1.245888000000000e+08
8,1.257984000000000e+08
8,1.270080000000000e+08
8,1.282176000000000e+08
8,1.294272000000000e+08
8,1.306368000000000e+08
8,1.318464000000000e+08
8,1.330560000000000e+08
8,1.342656000000000e+08
8,1.354752000000000e+08
8,1.366848000000000e+08
8,1.378944000000000e+08
8,1.391040000000000e+08
8,1.403136000000000e+08
8,1.415232000000000e+08
8,1.427328000000000e+08
8,1.439424000000000e+08
8,1.451520000000000e+08
8,1.463616000000000e+08
8,1.475712000000000e+08
8,1.487808000000000e+08
8,1.499904000000000e+08
8,1.512000000000000e+08
8,1.524096000000000e+08
8,1.536192000000000e+08
8,1.548288000000000e+08
8,1.560384000000000e+08
9,0.000000000000000e+00
9,1.209600000000000e+06
9,2.419200000000000e+06
9,3.628800000000000e+06
9,4.838400000000000e+06
9,6.048000000000000e+06
9,7.257600000000000e+06
9,8.467200000000000e+06
9,9.676800000000000e+06
9,1.088640000000000e+07
9,1.209600000000000e+07
9,1.330560000000000e+07
9,1.451520000000000e+07
9,1.572480000000000e+07
9,1.693440000000000e+07
9,1.814400000000000e+07
9,1.935360000000000e+07
9,2.056320000000000e+07
9,2.177280000000000e+07
9,2.298240000000000e+07
9,2.419200000000000e+07
9,2.540160000000000e+07
9,2.661120000000000e+07
9,2.782080000000000e+07
9,2.903040000000000e+07
9,3.024000000000000e+07
9,3.144960000000000e+07
9,3.265920000000000e+07
9,3.386880000000000e+07
9,3.507840000000000e+07
9,3.628800000000000e+07
9,3.749760000000000e+07
9,3.870720000000000e+07
9,3.991680000000000e+07
9,4.112640000000000e+07
9,4.233600000000000e+07
9,4.354560000000000e+07
9,4.475520000000000e+07
9,4.596480000000000e+07
9,4.717440000000000e+07
9,4.838400000000000e+07
9,4.959360000000000e+07
9,5.080320000000000e+07
9,5.201280000000000e+07
9,5.322240000000000e+07
9,5.443200000000000e+07
9,5.564160000000000e+07
9,5.685120000000000e+07
9,5.806080000000000e+07
9,5.927040000000000e+07
9,6.048000000000000e+07
9,6.168960000000000e+07
9,6.289920000000000e+07
9,6.410880000000000e+07
9,6.531840000000000e+07
9,6.652800000000000e+07
9,6.773760000000000e+07
9,6.894720000000000e+07
9,7.015680000000000e+07
9,7.136640000000000e+07
9,7.257600000000000e+07
9,7.378560000000000e+07
9,7.499520000000000e+07
9,7.620480000000000e+07
9,7.741440000000000e+07
9,7.862400000000000e+07
9,7.983360000000000e+07
9,8.104320000000000e+07
9,8.225280000000000e+07
9,8.346240000000000e+07
9,8.467200000000000e+07
9,8.588160000000000e+07
9,8.709120000000000e+07
9,8.830080000000000e+07
9,8.951040000000000e+07
9,9.072000000000000e+07
9,9.192960000000000e+07
9,9.313920000000000e+07
9,9.434880000000000e+07
9,9.555840000000000e+07
9,9.676800000000000e+07
9,9.797760000000000e+07
9,9.918720000000000e+07
9,1.003968000000000e+08
9,1.016064000000000e+08
9,1.028160000000000e+08
9,1.040256000000000e+08
9,1.052352000000000e+08
9,1.064448000000000e+08
9,1.076544000000000e+08
9,1.088640000000000e+08
9,1.100736000000000e+08
9,1.112832000000000e+08
9,1.124928000000000e+08
9,1.137024000000000e+08
9,1.149120000000000e+08
9,1.161216000000000e+08
9,1.173312000000000e+08
9,1.185408000000000e+08
9,1.197504000000000e+08
9,1.209600000000000e+08
9,1.221696000000000e+08
9,1.233792000000000e+08
9,1.245888000000000e+08
9,1.257984000000000e+08
9,1.270080000000000e+08
9,1.282176000000000e+08
9,1.294272000000000e+08
9,1.306368000000000e+08
9,1.318464000000000e+08
9,1.330560000000000e+08
9,1.342656000000000e+08
9,1.354752000000000e+08
9,1.366848000000000e+08
9,1.378944000000000e+08
9,1.391040000000000e+08
9,1.403136000000000e+08
9,1.415232000000000e+08
9,1.427328000000000e+08
9,1.439424000000000e+08
9,1.451520000000000e+08
9,1.463616000000000e+08
9,1.475712000000000e+08
9,1.487808000000000e+08
9,1.499904000000000e+08
9,1.512000000000000e+08
9,1.524096000000000e+08
9,1.536192000000000e+08
9,1.548288000000000e+08
9,1.560384000000000e+08
10,0.000000000000000e+00
10,1.209600000000000e+06
10,2.419200000000000e+06
10,3.628800000000000e+06
10,4.838400000000000e+06
10,6.048000000000000e+06
10,7.257600000000000e+06
10,8.467200000000000e+06
10,9.676800000000000e+06
10,1.088640000000000e+07
10,1.209600000000000e+07
10,1.330560000000000e+07
10,1.451520000000000e+07
10,1.572480000000000e+07
10,1.693440000000000e+07
10,1.814400000000000e+07
10,1.935360000000000e+07
10,2.056320000000000e+07
10,2.177280000000000e+07
10,2.298240000000000e+07
10,2.419200000000000e+07
10,2.540160000000000e+07
10,2.661120000000000e+07
10,2.782080000000000e+07
10,2.903040000000000e+07
10,3.024000000000000e+07
10,3.144960000000000e+07
10,3.265920000000000e+07
10,3.386880000000000e+07
10,3.507840000000000e+07
10,3.628800000000000e+07
10,3.749760000000000e+07
10,3.870720000000000e+07
10,3.991680000000000e+07
10,4.112640000000000e+07
10,4.233600000000000e+07
10,4.354560000000000e+07
10,4.475520000000000e+07
10,4.596480000000000e+07
10,4.717440000000000e+07
10,4.838400000000000e+07
10,4.959360000000000e+07
10,5.080320000000000e+07
10,5.201280000000000e+07
10,5.322240000000000e+07
10,5.443200000000000e+07
10,5.564160000000000e+07
10,5.685120000000000e+07
10,5.806080000000000e+07
10,5.927040000000000e+07
10,6.048000000000000e+07
10,6.168960000000000e+07
10,6.289920000000000e+07
10,6.410880000000000e+07
10,6.531840000000000e+07
10,6.652800000000000e+07
10,6.773760000000000e+07
10,6.894720000000000e+07
10,7.015680000000000e+07
10,7.136640000000000e+07
10,7.257600000000000e+07
10,7.378560000000000e+07
10,7.499520000000000e+07
10,7.620480000000000e+07
10,7.741440000000000e+07
10,7.862400000000000e+07
10,7.983360000000000e+07
10,8.104320000000000e+07
10,8.225280000000000e+07
10,8.346240000000000e+07
10,8.467200000000000e+07
10,8.588160000000000e+07
10,8.709120000000000e+07
10,8.830080000000000e+07
10,8.951040000000000e+07
10,9.072000000000000e+07
10,9.192960000000000e+07
10,9.313920000000000e+07
10,9.434880000000000e+07
10,9.555840000000000e+07
10,9.676800000000000e+07
10,9.797760000000000e+07
10,9.918720000000000e+07
10,1.003968000000000e+08
10,1.016064000000000e+08
10,1.028160000000000e+08
10,1.040256000000000e+08
10,1.052352000000000e+08
10,1.064448000000000e+08
10,1.076544000000000e+08
10,1.088640000000000e+08
10,1.100736000000000e+08
10,1.112832000000000e+08
10,1.124928000000000e+08
10,1.137024000000000e+08
10,1.149120000000000e+08
10,1.161216000000000e+08
10,1.173312000000000e+08
10,1.185408000000000e+08
10,1.197504000000000e+08
10,1.209600000000000e+08
10,1.221696000000000e+08
10,1.233792000000000e+08
10,1.245888000000000e+08
10,1.257984000000000e+08
10,1.270080000000000e+08
10,1.282176000000000e+08
10,1.294272000000000e+08
10,1.306368000000000e+08
10,1.318464000000000e+08
10,1.330560000000000e+08
10,1.342656000000000e+08
10,1.354752000000000e+08
10,1.366848000000000e+08
10,1.378944000000000e+08
10,1.391040000000000e+08
10,1.403136000000000e+08
10,1.415232000000000e+08
10,1.427328000000000e+08
10,1.439424000000000e+08
10,1.451520000000000e+08
10,1.463616000000000e+08
10,1.475712000000000e+08
10,1.487808000000000e+08
10,1.499904000000000e+08
10,1.512000000000000e+08
10,1.524096000000000e+08
10,1.536192000000000e+08
10,1.548288000000000e+08
10,1.560384000000000e+08
11,0.000000000000000e+00
11,1.209600000000000e+06
11,2.419200000000000e+06
11,3.628800000000000e+06
11,4.838400000000000e+06
11,6.048000000000000e+06
11,7.257600000000000e+06
11,8.467200000000000e+06
11,9.676800000000000e+06
11,1.088640000000000e+07
11,1.209600000000000e+07
11,1.330560000000000e+07
11,1.451520000000000e+07
11,1.572480000000000e+07
11,1.693440000000000e+07
11,1.814400000000000e+07
11,1.935360000000000e+07
11,2.056320000000000e+07
11,2.177280000000000e+07
11,2.298240000000000e+07
11,2.419200000000000e+07
11,2.540160000000000e+07
11,2.661120000000000e+07
11,2.782080000000000e+07
11,2.903040000000000e+07
11,3.024000000000000e+07
11,3.144960000000000e+07
11,3.265920000000000e+07
11,3.386880000000000e+07
11,3.507840000000000e+07
11,3.628800000000000e+07
11,3.749760000000000e+07
11,3.870720000000000e+07
11,3.991680000000000e+07
11,4.112640000000000e+07
11,4.233600000000000e+07
11,4.354560000000000e+07
11,4.475520000000000e+07
11,4.596480000000000e+07
11,4.717440000000000e+07
11,4.838400000000000e+07
11,4.959360000000000e+07
11,5.080320000000000e+07
11,5.201280000000000e+07
11,5.322240000000000e+07
11,5.443200000000000e+07
11,5.564160000000000e+07
11,5.685120000000000e+07
11,5.806080000000000e+07
11,5.927040000000000e+07
11,6.048000000000000e+07
11,6.168960000000000e+07
11,6.289920000000000e+07
11,6.410880000000000e+07
11,6.531840000000000e+07
11,6.652800000000000e+07
11,6.773760000000000e+07
11,6.894720000000000e+07
11,7.015680000000000e+07
11,7.136640000000000e+07
11,7.257600000000000e+07
11,7.378560000000000e+07
11,7.499520000000000e+07
11,7.620480000000000e+07
11,7.741440000000000e+07
11,7.862400000000000e+07
11,7.983360000000000e+07
11,8.104320000000000e+07
11,8.225280000000000e+07
11,8.346240000000000e+07
11,8.467200000000000e+07
11,8.588160000000000e+07
11,8.709120000000000e+07
11,8.830080000000000e+07
11,8.951040000000000e+07
11,9.072000000000000e+07
11,9.192960000000000e+07
11,9.313920000000000e+07
11,9.434880000000000e+07
11,9.555840000000000e+07
11,9.676800000000000e+07
11,9.797760000000000e+07
11,9.918720000000000e+07
11,1.003968000000000e+08
11,1.016064000000000e+08
11,1.028160000000000e+08
11,1.040256000000000e+08
11,1.052352000000000e+08
11,1.064448000000000e+08
11,1.076544000000000e+08
11,1.088640000000000e+08
11,1.100736000000000e+08
11,1.112832000000000e+08
11,1.124928000000000e+08
11,1.137024000000000e+08
11,1.149120000000000e+08
11,1.161216000000000e+08
11,1.173312000000000e+08
11,1.185408000000000e+08
11,1.197504000000000e+08
11,1.209600000000000e+08
11,1.221696000000000e+08
11,1.233792000000000e+08
11,1.245888000000000e+08
11,1.257984000000000e+08
11,1.270080000000000e+08
11,1.282176000000000e+08
11,1.294272000000000e+08
11,1.306368000000000e+08
11,1.318464000000000e+08
11,1.330560000000000e+08
11,1.342656000000000e+08
11,1.354752000000000e+08
11,1.366848000000000e+08
11,1.378944000000000e+08
11,1.391040000000000e+08
11,1.403136000000000e+08
11,1.415232000000000e+08
11,1.427328000000000e+08
11,1.439424000000000e+08
11,1.451520000000000e+08
11,1.463616000000000e+08
11,1.475712000000000e+08
11,1.487808000000000e+08
11,1.499904000000000e+08
11,1.512000000000000e+08
11,1.524096000000000e+08
11,1.536192000000000e+08
11,1.548288000000000e+08
11,1.560384000000000e+08
12,0.000000000000000e+00
12,1.209600000000000e+06
12,2.419200000000000e+06
12,3.628800000000000e+06
12,4.838400000000000e+06
12,6.048000000000000e+06
12,7.257600000000000e+06
12,8.467200000000000e+06
12,9.676800000000000e+06
12,1.088640000000000e+07
12,1.209600000000000e+07
12,1.330560000000000e+07
12,1.451520000000000e+07
12,1.572480000000000e+07
12,1.693440000000000e+07
12,1.814400000000000e+07
12,1.935360000000000e+07
12,2.056320000000000e+07
12,2.177280000000000e+07
12,2.298240000000000e+07
12,2.419200000000000e+07
12,2.540160000000000e+07
12,2.661120000000000e+07
12,2.782080000000000e+07
12,2.903040000000000e+07
12,3.024000000000000e+07
12,3.144960000000000e+07
12,3.265920000000000e+07
12,3.386880000000000e+07
12,3.507840000000000e+07
12,3.628800000000000e+07
12,3.749760000000000e+07
12,3.870720000000000e+07
12,3.991680000000000e+07
12,4.112640000000000e+07
12,4.233600000000000e+07
12,4.354560000000000e+07
12,4.475520000000000e+07
12,4.596480000000000e+07
12,4.717440000000000e+07
12,4.838400000000000e+07
12,4.959360000000000e+07
12,5.080320000000000e+07
12,5.201280000000000e+07
12,5.322240000000000e+07
12,5.443200000000000e+07
12,5.564160000000000e+07
12,5.685120000000000e+07
12,5.806080000000000e+07
12,5.927040000000000e+07
12,6.048000000000000e+07
12,6.168960000000000e+07
12,6.289920000000000e+07
12,6.410880000000000e+07
12,6.531840000000000e+07
12,6.652800000000000e+07
12,6.773760000000000e+07
12,6.894720000000000e+07
12,7.015680000000000e+07
12,7.136640000000000e+07
12,7.257600000000000e+07
12,7.378560000000000e+07
12,7.499520000000000e+07
12,7.620480000000000e+07
12,7.741440000000000e+07
12,7.862400000000000e+07
12,7.983360000000000e+07
12,8.104320000000000e+07
12,8.225280000000000e+07
12,8.346240000000000e+07
12,8.467200000000000e+07
12,8.588160000000000e+07
12,8.709120000000000e+07
12,8.830080000000000e+07
12,8.951040000000000e+07
12,9.072000000000000e+07
12,9.192960000000000e+07
12,9.313920000000000e+07
12,9.434880000000000e+07
12,9.555840000000000e+07
12,9.676800000000000e+07
12,9.797760000000000e+07
12,9.918720000000000e+07
12,1.003968000000000e+08
12,1.016064000000000e+08
12,1.028160000000000e+08
12,1.040256000000000e+08
12,1.052352000000000e+08
12,1.064448000000000e+08
12,1.076544000000000e+08
12,1.088640000000000e+08
12,1.100736000000000e+08
12,1.112832000000000e+08
12,1.124928000000000e+08
12,1.137024000000000e+08
12,1.149120000000000e+08
12,1.161216000000000e+08
12,1.173312000000000e+08
12,1.185408000000000e+08
12,1.197504000000000e+08
12,1.209600000000000e+08
12,1.221696000000000e+08
12,1.233792000000000e+08
12,1.245888000000000e+08
12,1.257984000000000e+08
12,1.270080000000000e+08
12,1.282176000000000e+08
12,1.294272000000000e+08
12,1.306368000000000e+08
12,1.318464000000000e+08
12,1.330560000000000e+08
12,1.342656000000000e+08
12,1.354752000000000e+08
12,1.366848000000000e+08
12,1.378944000000000e+08
12,1.391040000000000e+08
12,1.403136000000000e+08
12,1.415232000000000e+08
12,1.427328000000000e+08
12,1.439424000000000e+08
12,1.451520000000000e+08
12,1.463616000000000e+08
12,1.475712000000000e+08
12,1.487808000000000e+08
12,1.499904000000000e+08
12,1.512000000000000e+08
12,1.524096000000000e+08
12,1.536192000000000e+08
12,1.548288000000000e+08
12,1.560384000000000e+08
13,0.000000000000000e+00
13,1.209600000000000e+06
13,2.419200000000000e+06
13,3.628800000000000e+06
13,4.838400000000000e+06
13,6.048000000000000e+06
13,7.257600000000000e+06
13,8.467200000000000e+06
13,9.676800000000000e+06
13,1.088640000000000e+07
13,1.209600000000000e+07
13,1.330560000000000e+07
13,1.451520000000000e+07
13,1.572480000000000e+07
13,1.693440000000000e+07
13,1.814400000000000e+07
13,1.935360000000000e+07
13,2.056320000000000e+07
13,2.177280000000000e+07
13,2.298240000000000e+07
13,2.419200000000000e+07
13,2.540160000000000e+07
13,2.661120000000000e+07
13,2.782080000000000e+07
13,2.903040000000000e+07
13,3.024000000000000e+07
13,3.144960000000000e+07
13,3.265920000000000e+07
13,3.386880000000000e+07
13,3.507840000000000e+07
13,3.628800000000000e+07
13,3.749760000000000e+07
13,3.870720000000000e+07
13,3.991680000000000e+07
13,4.112640000000000e+07
13,4.233600000000000e+07
13,4.354560000000000e+07
13,4.475520000000000e+07
13,4.596480000000000e+07
13,4.717440000000000e+07
13,4.838400000000000e+07
13,4.959360000000000e+07
13,5.080320000000000e+07
13,5.201280000000000e+07
13,5.322240000000000e+07
13,5.443200000000000e+07
13,5.564160000000000e+07
13,5.685120000000000e+07
13,5.806080000000000e+07
13,5.927040000000000e+07
13,6.048000000000000e+07
13,6.168960000000000e+07
13,6.289920000000000e+07
13,6.410880000000000e+07
13,6.531840000000000e+07
13,6.652800000000000e+07
13,6.773760000000000e+07
13,6.894720000000000e+07
13,7.015680000000000e+07
13,7.136640000000000e+07
13,7.257600000000000e+07
13,7.378560000000000e+07
13,7.499520000000000e+07
13,7.620480000000000e+07
13,7.741440000000000e+07
13,7.862400000000000e+07
13,7.983360000000000e+07
13,8.104320000000000e+07
13,8.225280000000000e+07
13,8.346240000000000e+07
13,8.467200000000000e+07
13,8.588160000000000e+07
13,8.709120000000000e+07
13,8.830080000000000e+07
13,8.951040000000000e+07
13,9.072000000000000e+07
13,9.192960000000000e+07
13,9.313920000000000e+07
13,9.434880000000000e+07
13,9.555840000000000e+07
13,9.676800000000000e+07
13,9.797760000000000e+07
13,9.918720000000000e+07
13,1.003968000000000e+08
13,1.016064000000000e+08
13,1.028160000000000e+08
13,1.040256000000000e+08
13,1.052352000000000e+08
13,1.064448000000000e+08
13,1.076544000000000e+08
13,1.088640000000000e+08
13,1.100736000000000e+08
13,1.112832000000000e+08
13,1.124928000000000e+08
13,1.137024000000000e+08
13,1.149120000000000e+08
13,1.161216000000000e+08
13,1.173312000000000e+08
13,1.185408000000000e+08
13,1.197504000000000e+08
13,1.209600000000000e+08
13,1.221696000000000e+08
13,1.233792000000000e+08
13,1.245888000000000e+08
13,1.257984000000000e+08
13,1.270080000000000e+08
13,1.282176000000000e+08
13,1.294272000000000e+08
13,1.306368000000000e+08
13,1.318464000000000e+08
13,1.330560000000000e+08
13,1.342656000000000e+08
13,1.354752000000000e+08
13,1.366848000000000e+08
13,1.378944000000000e+08
13,1.391040000000000e+08
13,1.403136000000000e+08
13,1.415232000000000e+08
13,1.427328000000000e+08
13,1.439424000000000e+08
13,1.451520000000000e+08
13,1.463616000000000e+08
13,1.475712000000000e+08
13,1.487808000000000e+08
13,1.499904000000000e+08
13,1.512000000000000e+08
13,1.524096000000000e+08
13,1.536192000000000e+08
13,1.548288000000000e+08
13,1.560384000000000e+08
14,0.000000000000000e+00
14,1.209600000000000e+06
14,2.419200000000000e+06
14,3.628800000000000e+06
14,4.838400000000000e+06
14,6.048000000000000e+06
14,7.257600000000000e+06
14,8.467200000000000e+06
14,9.676800000000000e+06
14,1.088640000000000e+07
14,1.209600000000000e+07
14,1.330560000000000e+07
14,1.451520000000000e+07
14,1.572480000000000e+07
14,1.693440000000000e+07
14,1.814400000000000e+07
14,1.935360000000000e+07
14,2.056320000000000e+07
14,2.177280000000000e+07
14,2.298240000000000e+07
14,2.419200000000000e+07
14,2.540160000000000e+07
14,2.661120000000000e+07
14,2.782080000000000e+07
14,2.903040000000000e+07
14,3.024000000000000e+07
14,3.144960000000000e+07
14,3.265920000000000e+07
14,3.386880000000000e+07
14,3.507840000000000e+07
14,3.628800000000000e+07
14,3.749760000000000e+07
14,3.870720000000000e+07
14,3.991680000000000e+07
14,4.112640000000000e+07
14,4.233600000000000e+07
14,4.354560000000000e+07
14,4.475520000000000e+07
14,4.596480000000000e+07
14,4.717440000000000e+07
14,4.838400000000000e+07
14,4.959360000000000e+07
14,5.080320000000000e+07
14,5.201280000000000e+07
14,5.322240000000000e+07
14,5.443200000000000e+07
14,5.564160000000000e+07
14,5.685120000000000e+07
14,5.806080000000000e+07
14,5.927040000000000e+07
14,6.048000000000000e+07
14,6.168960000000000e+07
14,6.289920000000000e+07
14,6.410880000000000e+07
14,6.531840000000000e+07
14,6.652800000000000e+07
14,6.773760000000000e+07
14,6.894720000000000e+07
14,7.015680000000000e+07
14,7.136640000000000e+07
14,7.257600000000000e+07
14,7.378560000000000e+07
14,7.499520000000000e+07
14,7.620480000000000e+07
14,7.741440000000000e+07
14,7.862400000000000e+07
14,7.983360000000000e+07
14,8.104320000000000e+07
14,8.225280000000000e+07
14,8.346240000000000e+07
14,8.467200000000000e+07
14,8.588160000000000e+07
14,8.709120000000000e+07
14,8.830080000000000e+07
14,8.951040000000000e+07
14,9.072000000000000e+07
14,9.192960000000000e+07
14,9.313920000000000e+07
14,9.434880000000000e+07
14,9.555840000000000e+07
14,9.676800000000000e+07
14,9.797760000000000e+07
14,9.918720000000000e+07
14,1.003968000000000e+08
14,1.016064000000000e+08
14,1.028160000000000e+08
14,1.040256000000000e+08
14,1.052352000000000e+08
14,1.064448000000000e+08
14,1.076544000000000e+08
14,1.088640000000000e+08
14,1.100736000000000e+08
14,1.112832000000000e+08
14,1.124928000000000e+08
14,1.137024000000000e+08
14,1.149120000000000e+08
14,1.161216000000000e+08
14,1.173312000000000e+08
14,1.185408000000000e+08
14,1.197504000000000e+08
14,1.209600000000000e+08
14,1.221696000000000e+08
14,1.233792000000000e+08
14,1.245888000000000e+08
14,1.257984000000000e+08
14,1.270080000000000e+08
14,1.282176000000000e+08
14,1.294272000000000e+08
14,1.306368000000000e+08
14,1.318464000000000e+08
14,1.330560000000000e+08
14,1.342656000000000e+08
14,1.354752000000000e+08
14,1.366848000000000e+08
14,1.378944000000000e+08
14,1.391040000000000e+08
14,1.403136000000000e+08
14,1.415232000000000e+08
14,1.427328000000000e+08
14,1.439424000000000e+08
14,1.451520000000000e+08
14,1.463616000000000e+08
14,1.475712000000000e+08
14,1.487808000000000e+08
14,1.499904000000000e+08
14,1.512000000000000e+08
14,1.524096000000000e+08
14,1.536192000000000e+08
14,1.548288000000000e+08
14,1.560384000000000e+08
15,0.000000000000000e+00
15,1.209600000000000e+06
15,2.419200000000000e+06
15,3.628800000000000e+06
15,4.838400000000000e+06
15,6.048000000000000e+06
15,7.257600000000000e+06
15,8.467200000000000e+06
15,9.676800000000000e+06
15,1.088640000000000e+07
15,1.209600000000000e+07
15,1.330560000000000e+07
15,1.451520000000000e+07
15,1.572480000000000e+07
15,1.693440000000000e+07
15,1.814400000000000e+07
15,1.935360000000000e+07
15,2.056320000000000e+07
15,2.177280000000000e+07
15,2.298240000000000e+07
15,2.419200000000000e+07
15,2.540160000000000e+07
15,2.661120000000000e+07
15,2.782080000000000e+07
15,2.903040000000000e+07
15,3.024000000000000e+07
15,3.144960000000000e+07
15,3.265920000000000e+07
15,3.386880000000000e+07
15,3.507840000000000e+07
15,3.628800000000000e+07
15,3.749760000000000e+07
15,3.870720000000000e+07
15,3.991680000000000e+07
15,4.112640000000000e+07
15,4.233600000000000e+07
15,4.354560000000000e+07
15,4.475520000000000e+07
15,4.596480000000000e+07
15,4.717440000000000e+07
15,4.838400000000000e+07
15,4.959360000000000e+07
15,5.080320000000000e+07
15,5.201280000000000e+07
15,5.322240000000000e+07
15,5.443200000000000e+07
15,5.564160000000000e+07
15,5.685120000000000e+07
15,5.806080000000000e+07
15,5.927040000000000e+07
15,6.048000000000000e+07
15,6.168960000000000e+07
15,6.289920000000000e+07
15,6.410880000000000e+07
15,6.531840000000000e+07
15,6.652800000000000e+07
15,6.773760000000000e+07
15,6.894720000000000e+07
15,7.015680000000000e+07
15,7.136640000000000e+07
15,7.257600000000000e+07
15,7.378560000000000e+07
15,7.499520000000000e+07
15,7.620480000000000e+07
15,7.741440000000000e+07
15,7.862400000000000e+07
15,7.983360000000000e+07
15,8.104320000000000e+07
15,8.225280000000000e+07
15,8.346240000000000e+07
15,8.467200000000000e+07
15,8.588160000000000e+07
15,8.709120000000000e+07
15,8.830080000000000e+07
15,8.951040000000000e+07
15,9.072000000000000e+07
15,9.192960000000000e+07
15,9.313920000000000e+07
15,9.434880000000000e+07
15,9.555840000000000e+07
15,9.676800000000000e+07
15,9.797760000000000e+07
15,9.918720000000000e+07
15,1.003968000000000e+08
15,1.016064000000000e+08
15,1.028160000000000e+08
15,1.040256000000000e+08
15,1.052352000000000e+08
15,1.064448000000000e+08
15,1.076544000000000e+08
15,1.088640000000000e+08
15,1.100736000000000e+08
15,1.112832000000000e+08
15,1.124928000000000e+08
15,1.137024000000000e+08
15,1.149120000000000e+08
15,1.161216000000000e+08
15,1.173312000000000e+08
15,1.185408000000000e+08
15,1.197504000000000e+08
15,1.209600000000000e+08
15,1.221696000000000e+08
15,1.233792000000000e+08
15,1.245888000000000e+08
15,1.257984000000000e+08
15,1.270080000000000e+08
15,1.282176000000000e+08
15,1.294272000000000e+08
15,1.306368000000000e+08
15,1.318464000000000e+08
15,1.330560000000000e+08
15,1.342656000000000e+08
15,1.354752000000000e+08
15,1.366848000000000e+08
15,1.378944000000000e+08
15,1.391040000000000e+08
15,1.403136000000000e+08
15,1.415232000000000e+08
15,1.427328000000000e+08
15,1.439424000000000e+08
15,1.451520000000000e+08
15,1.463616000000000e+08
15,1.475712000000000e+08
15,1.487808000000000e+08
15,1.499904000000000e+08
15,1.512000000000000e+08
15,1.524096000000000e+08
15,1.536192000000000e+08
15,1.548288000000000e+08
15,1.560384000000000e+08
16,0.000000000000000e+00
16,1.209600000000000e+06
16,2.419200000000000e+06
16,3.628800000000000e+06
16,4.838400000000000e+06
16,6.048000000000000e+06
16,7.257600000000000e+06
16,8.467200000000000e+06
16,9.676800000000000e+06
16,1.088640000000000e+07
16,1.209600000000000e+07
16,1.330560000000000e+07
16,1.451520000000000e+07
16,1.572480000000000e+07
16,1.693440000000000e+07
16,1.814400000000000e+07
16,1.935360000000000e+07
16,2.056320000000000e+07
16,2.177280000000000e+07
16,2.298240000000000e+07
16,2.419200000000000e+07
16,2.540160000000000e+07
16,2.661120000000000e+07
16,2.782080000000000e+07
16,2.903040000000000e+07
16,3.024000000000000e+07
16,3.144960000000000e+07
16,3.265920000000000e+07
16,3.386880000000000e+07
16,3.507840000000000e+07
16,3.628800000000000e+07
16,3.749760000000000e+07
16,3.870720000000000e+07
16,3.991680000000000e+07
16,4.112640000000000e+07
16,4.233600000000000e+07
16,4.354560000000000e+07
16,4.475520000000000e+07
16,4.596480000000000e+07
16,4.717440000000000e+07
16,4.838400000000000e+07
16,4.959360000000000e+07
16,5.080320000000000e+07
16,5.201280000000000e+07
16,5.322240000000000e+07
16,5.443200000000000e+07
16,5.564160000000000e+07
16,5.685120000000000e+07
16,5.806080000000000e+07
16,5.927040000000000e+07
16,6.048000000000000e+07
16,6.168960000000000e+07
16,6.289920000000000e+07
16,6.410880000000000e+07
16,6.531840000000000e+07
16,6.652800000000000e+07
16,6.773760000000000e+07
16,6.894720000000000e+07
16,7.015680000000000e+07
16,7.136640000000000e+07
16,7.257600000000000e+07
16,7.378560000000000e+07
16,7.499520000000000e+07
16,7.620480000000000e+07
16,7.741440000000000e+07
16,7.862400000000000e+07
16,7.983360000000000e+07
16,8.104320000000000e+07
16,8.225280000000000e+07
16,8.346240000000000e+07
16,8.467200000000000e+07
16,8.588160000000000e+07
16,8.709120000000000e+07
16,8.830080000000000e+07
16,8.951040000000000e+07
16,9.072000000000000e+07
16,9.192960000000000e+07
16,9.313920000000000e+07
16,9.434880000000000e+07
16,9.555840000000000e+07
16,9.676800000000000e+07
16,9.797760000000000e+07
16,9.918720000000000e+07
16,1.003968000000000e+08
16,1.016064000000000e+08
16,1.028160000000000e+08
16,1.040256000000000e+08
16,1.052352000000000e+08
16,1.064448000000000e+08
16,1.076544000000000e+08
16,1.088640000000000e+08
16,1.100736000000000e+08
16,1.112832000000000e+08
16,1.124928000000000e+08
16,1.137024000000000e+08
16,1.149120000000000e+08
16,1.161216000000000e+08
16,1.173312000000000e+08
16,1.185408000000000e+08
16,1.197504000000000e+08
16,1.209600000000000e+08
16,1.221696000000000e+08
16,1.233792000000000e+08
16,1.245888000000000e+08
16,1.257984000000000e+08
16,1.270080000000000e+08
16,1.282176000000000e+08
16,1.294272000000000e+08
16,1.306368000000000e+08
16,1.318464000000000e+08
16,1.330560000000000e+08
16,1.342656000000000e+08
16,1.354752000000000e+08
16,1.366848000000000e+08
16,1.378944000000000e+08
16,1.391040000000000e+08
16,1.403136000000000e+08
16,1.415232000000000e+08
16,1.427328000000000e+08
16,1.439424000000000e+08
16,1.451520000000000e+08
16,1.463616000000000e+08
16,1.475712000000000e+08
16,1.487808000000000e+08
16,1.499904000000000e+08
16,1.512000000000000e+08
16,1.524096000000000e+08
16,1.536192000000000e+08
16,1.548288000000000e+08
16,1.560384000000000e+08
17,0.000000000000000e+00
17,1.209600000000000e+06
17,2.419200000000000e+06
17,3.628800000000000e+06
17,4.838400000000000e+06
17,6.048000000000000e+06
17,7.257600000000000e+06
17,8.467200000000000e+06
17,9.676800000000000e+06
17,1.088640000000000e+07
17,1.209600000000000e+07
17,1.330560000000000e+07
17,1.451520000000000e+07
17,1.572480000000000e+07
17,1.693440000000000e+07
17,1.814400000000000e+07
17,1.935360000000000e+07
17,2.056320000000000e+07
17,2.177280000000000e+07
17,2.298240000000000e+07
17,2.419200000000000e+07
17,2.540160000000000e+07
17,2.661120000000000e+07
17,2.782080000000000e+07
17,2.903040000000000e+07
17,3.024000000000000e+07
17,3.144960000000000e+07
17,3.265920000000000e+07
17,3.386880000000000e+07
17,3.507840000000000e+07
17,3.628800000000000e+07
17,3.749760000000000e+07
17,3.870720000000000e+07
17,3.991680000000000e+07
17,4.112640000000000e+07
17,4.233600000000000e+07
17,4.354560000000000e+07
17,4.475520000000000e+07
17,4.596480000000000e+07
17,4.717440000000000e+07
17,4.838400000000000e+07
17,4.959360000000000e+07
17,5.080320000000000e+07
17,5.201280000000000e+07
17,5.322240000000000e+07
17,5.443200000000000e+07
17,5.564160000000000e+07
17,5.685120000000000e+07
17,5.806080000000000e+07
17,5.927040000000000e+07
17,6.048000000000000e+07
17,6.168960000000000e+07
17,6.289920000000000e+07
17,6.410880000000000e+07
17,6.531840000000000e+07
17,6.652800000000000e+07
17,6.773760000000000e+07
17,6.894720000000000e+07
17,7.015680000000000e+07
17,7.136640000000000e+07
17,7.257600000000000e+07
17,7.378560000000000e+07
17,7.499520000000000e+07
17,7.620480000000000e+07
17,7.741440000000000e+07
17,7.862400000000000e+07
17,7.983360000000000e+07
17,8.104320000000000e+07
17,8.225280000000000e+07
17,8.346240000000000e+07
17,8.467200000000000e+07
17,8.588160000000000e+07
17,8.709120000000000e+07
17,8.830080000000000e+07
17,8.951040000000000e+07
17,9.072000000000000e+07
17,9.192960000000000e+07
17,9.313920000000000e+07
17,9.434880000000000e+07
17,9.555840000000000e+07
17,9.676800000000000e+07
17,9.797760000000000e+07
17,9.918720000000000e+07
17,1.003968000000000e+08
17,1.016064000000000e+08
17,1.028160000000000e+08
17,1.040256000000000e+08
17,1.052352000000000e+08
17,1.064448000000000e+08
17,1.076544000000000e+08
17,1.088640000000000e+08
17,1.100736000000000e+08
17,1.112832000000000e+08
17,1.124928000000000e+08
17,1.137024000000000e+08
17,1.149120000000000e+08
17,1.161216000000000e+08
17,1.173312000000000e+08
17,1.185408000000000e+08
17,1.197504000000000e+08
17,1.209600000000000e+08
17,1.221696000000000e+08
17,1.233792000000000e+08
17,1.245888000000000e+08
17,1.257984000000000e+08
17,1.270080000000000e+08
17,1.282176000000000e+08
17,1.294272000000000e+08
17,1.306368000000000e+08
17,1.318464000000000e+08
17,1.330560000000000e+08
17,1.342656000000000e+08
17,1.354752000000000e+08
17,1.366848000000000e+08
17,1.378944000000000e+08
17,1.391040000000000e+08
17,1.403136000000000e+08
17,1.415232000000000e+08
17,1.427328000000000e+08
17,1.439424000000000e+08
17,1.451520000000000e+08
17,1.463616000000000e+08
17,1.475712000000000e+08
17,1.487808000000000e+08
17,1.499904000000000e+08
17,1.512000000000000e+08
17,1.524096000000000e+08
17,1.536192000000000e+08
17,1.548288000000000e+08
17,1.560384000000000e+08
18,0.000000000000000e+00
18,1.209600000000000e+06
18,2.419200000000000e+06
18,3.628800000000000e+06
18,4.838400000000000e+06
18,6.048000000000000e+06
18,7.257600000000000e+06
18,8.467200000000000e+06
18,9.676800000000000e+06
18,1.088640000000000e+07
18,1.209600000000000e+07
18,1.330560000000000e+07
18,1.451520000000000e+07
18,1.572480000000000e+07
18,1.693440000000000e+07
18,1.814400000000000e+07
18,1.935360000000000e+07
18,2.056320000000000e+07
18,2.177280000000000e+07
18,2.298240000000000e+07
18,2.419200000000000e+07
18,2.540160000000000e+07
18,2.661120000000000e+07
18,2.782080000000000e+07
18,2.903040000000000e+07
18,3.024000000000000e+07
18,3.144960000000000e+07
18,3.265920000000000e+07
18,3.386880000000000e+07
18,3.507840000000000e+07
18,3.628800000000000e+07
18,3.749760000000000e+07
18,3.870720000000000e+07
18,3.991680000000000e+07
18,4.112640000000000e+07
18,4.233600000000000e+07
18,4.354560000000000e+07
18,4.475520000000000e+07
18,4.596480000000000e+07
18,4.717440000000000e+07
18,4.838400000000000e+07
18,4.959360000000000e+07
18,5.080320000000000e+07
18,5.201280000000000e+07
18,5.322240000000000e+07
18,5.443200000000000e+07
18,5.564160000000000e+07
18,5.685120000000000e+07
18,5.806080000000000e+07
18,5.927040000000000e+07
18,6.048000000000000e+07
18,6.168960000000000e+07
18,6.289920000000000e+07
18,6.410880000000000e+07
18,6.531840000000000e+07
18,6.652800000000000e+07
18,6.773760000000000e+07
18,6.894720000000000e+07
18,7.015680000000000e+07
18,7.136640000000000e+07
18,7.257600000000000e+07
18,7.378560000000000e+07
18,7.499520000000000e+07
18,7.620480000000000e+07
18,7.741440000000000e+07
18,7.862400000000000e+07
18,7.983360000000000e+07
18,8.104320000000000e+07
18,8.225280000000000e+07
18,8.346240000000000e+07
18,8.467200000000000e+07
18,8.588160000000000e+07
18,8.709120000000000e+07
18,8.830080000000000e+07
18,8.951040000000000e+07
18,9.072000000000000e+07
18,9.192960000000000e+07
18,9.313920000000000e+07
18,9.434880000000000e+07
18,9.555840000000000e+07
18,9.676800000000000e+07
18,9.797760000000000e+07
18,9.918720000000000e+07
18,1.003968000000000e+08
18,1.016064000000000e+08
18,1.028160000000000e+08
18,1.040256000000000e+08
18,1.052352000000000e+08
18,1.064448000000000e+08
18,1.076544000000000e+08
18,1.088640000000000e+08
18,1.100736000000000e+08
18,1.112832000000000e+08
18,1.124928000000000e+08
18,1.137024000000000e+08
18,1.149120000000000e+08
18,1.161216000000000e+08
18,1.173312000000000e+08
18,1.185408000000000e+08
18,1.197504000000000e+08
18,1.209600000000000e+08
18,1.221696000000000e+08
18,1.233792000000000e+08
18,1.245888000000000e+08
18,1.257984000000000e+08
18,1.270080000000000e+08
18,1.282176000000000e+08
18,1.294272000000000e+08
18,1.306368000000000e+08
18,1.318464000000000e+08
18,1.330560000000000e+08
18,1.342656000000000e+08
18,1.354752000000000e+08
18,1.366848000000000e+08
18,1.378944000000000e+08
18,1.391040000000000e+08
18,1.403136000000000e+08
18,1.415232000000000e+08
18,1.427328000000000e+08
18,1.439424000000000e+08
18,1.451520000000000e+08
18,1.463616000000000e+08
18,1.475712000000000e+08
18,1.487808000000000e+08
18,1.499904000000000e+08
18,1.512000000000000e+08
18,1.524096000000000e+08
18,1.536192000000000e+08
18,1.548288000000000e+08
18,1.560384000000000e+08
19,0.000000000000000e+00
19,1.209600000000000e+06
19,2.419200000000000e+06
19,3.628800000000000e+06
19,4.838400000000000e+06
19,6.048000000000000e+06
19,7.257600000000000e+06
19,8.467200000000000e+06
19,9.676800000000000e+06
19,1.088640000000000e+07
19,1.209600000000000e+07
19,1.330560000000000e+07
19,1.451520000000000e+07
19,1.572480000000000e+07
19,1.693440000000000e+07
19,1.814400000000000e+07
19,1.935360000000000e+07
19,2.056320000000000e+07
19,2.177280000000000e+07
19,2.298240000000000e+07
19,2.419200000000000e+07
19,2.540160000000000e+07
19,2.661120000000000e+07
19,2.782080000000000e+07
19,2.903040000000000e+07
19,3.024000000000000e+07
19,3.144960000000000e+07
19,3.265920000000000e+07
19,3.386880000000000e+07
19,3.507840000000000e+07
19,3.628800000000000e+07
19,3.749760000000000e+07
19,3.870720000000000e+07
19,3.991680000000000e+07
19,4.112640000000000e+07
19,4.233600000000000e+07
19,4.354560000000000e+07
19,4.475520000000000e+07
19,4.596480000000000e+07
19,4.717440000000000e+07
19,4.838400000000000e+07
19,4.959360000000000e+07
19,5.080320000000000e+07
19,5.201280000000000e+07
19,5.322240000000000e+07
19,5.443200000000000e+07
19,5.564160000000000e+07
19,5.685120000000000e+07
19,5.806080000000000e+07
19,5.927040000000000e+07
19,6.048000000000000e+07
19,6.168960000000000e+07
19,6.289920000000000e+07
19,6.410880000000000e+07
19,6.531840000000000e+07
19,6.652800000000000e+07
19,6.773760000000000e+07
19,6.894720000000000e+07
19,7.015680000000000e+07
19,7.136640000000000e+07
19,7.257600000000000e+07
19,7.378560000000000e+07
19,7.499520000000000e+07
19,7.620480000000000e+07
19,7.741440000000000e+07
19,7.862400000000000e+07
19,7.983360000000000e+07
19,8.104320000000000e+07
19,8.225280000000000e+07
19,8.346240000000000e+07
19,8.467200000000000e+07
19,8.588160000000000e+07
19,8.709120000000000e+07
19,8.830080000000000e+07
19,8.951040000000000e+07
19,9.072000000000000e+07
19,9.192960000000000e+07
19,9.313920000000000e+07
19,9.434880000000000e+07
19,9.555840000000000e+07
19,9.676800000000000e+07
19,9.797760000000000e+07
19,9.918720000000000e+07
19,1.003968000000000e+08
19,1.016064000000000e+08
19,1.028160000000000e+08
19,1.040256000000000e+08
19,1.052352000000000e+08
19,1.064448000000000e+08
19,1.076544000000000e+08
19,1.088640000000000e+08
19,1.100736000000000e+08
19,1.112832000000000e+08
19,1.124928000000000e+08
19,1.137024000000000e+08
19,1.149120000000000e+08
19,1.161216000000000e+08
19,1.173312000000000e+08
19,1.185408000000000e+08
19,1.197504000000000e+08
19,1.209600000000000e+08
19,1.221696000000000e+08
19,1.233792000000000e+08
19,1.245888000000000e+08
19,1.257984000000000e+08
19,1.270080000000000e+08
19,1.282176000000000e+08
19,1.294272000000000e+08
19,1.306368000000000e+08
19,1.318464000000000e+08
19,1.330560000000000e+08
19,1.342656000000000e+08
19,1.354752000000000e+08
19,1.366848000000000e+08
19,1.378944000000000e+08
19,1.391040000000000e+08
19,1.403136000000000e+08
19,1.415232000000000e+08
19,1.427328000000000e+08
19,1.439424000000000e+08
19,1.451520000000000e+08
19,1.463616000000000e+08
19,1.475712000000000e+08
19,1.487808000000000e+08
19,1.499904000000000e+08
19,1.512000000000000e+08
19,1.524096000000000e+08
19,1.536192000000000e+08
19,1.548288000000000e+08
19,1.560384000000000e+08
20,0.000000000000000e+00
20,1.209600000000000e+06
20,2.419200000000000e+06
20,3.628800000000000e+06
20,4.838400000000000e+06
20,6.048000000000000e+06
20,7.257600000000000e+06
20,8.467200000000000e+06
20,9.676800000000000e+06
20,1.088640000000000e+07
20,1.209600000000000e+07
20,1.330560000000000e+07
20,1.451520000000000e+07
20,1.572480000000000e+07
20,1.693440000000000e+07
20,1.814400000000000e+07
20,1.935360000000000e+07
20,2.056320000000000e+07
20,2.177280000000000e+07
20,2.298240000000000e+07
20,2.419200000000000e+07
20,2.540160000000000e+07
20,2.661120000000000e+07
20,2.782080000000000e+07
20,2.903040000000000e+07
20,3.024000000000000e+07
20,3.144960000000000e+07
20,3.265920000000000e+07
20,3.386880000000000e+07
20,3.507840000000000e+07
20,3.628800000000000e+07
20,3.749760000000000e+07
20,3.870720000000000e+07
20,3.991680000000000e+07
20,4.112640000000000e+07
20,4.233600000000000e+07
20,4.354560000000000e+07
20,4.475520000000000e+07
20,4.596480000000000e+07
20,4.717440000000000e+07
20,4.838400000000000e+07
20,4.959360000000000e+07
20,5.080320000000000e+07
20,5.201280000000000e+07
20,5.322240000000000e+07
20,5.443200000000000e+07
20,5.564160000000000e+07
20,5.685120000000000e+07
20,5.806080000000000e+07
20,5.927040000000000e+07
20,6.048000000000000e+07
20,6.168960000000000e+07
20,6.289920000000000e+07
20,6.410880000000000e+07
20,6.531840000000000e+07
20,6.652800000000000e+07
20,6.773760000000000e+07
20,6.894720000000000e+07
20,7.015680000000000e+07
20,7.136640000000000e+07
20,7.257600000000000e+07
20,7.378560000000000e+07
20,7.499520000000000e+07
20,7.620480000000000e+07
20,7.741440000000000e+07
20,7.862400000000000e+07
20,7.983360000000000e+07
20,8.104320000000000e+07
20,8.225280000000000e+07
20,8.346240000000000e+07
20,8.467200000000000e+07
20,8.588160000000000e+07
20,8.709120000000000e+07
20,8.830080000000000e+07
20,8.951040000000000e+07
20,9.072000000000000e+07
20,9.192960000000000e+07
20,9.313920000000000e+07
20,9.434880000000000e+07
20,9.555840000000000e+07
20,9.676800000000000e+07
20,9.797760000000000e+07
20,9.918720000000000e+07
20,1.003968000000000e+08
20,1.016064000000000e+08
20,1.028160000000000e+08
20,1.040256000000000e+08
20,1.052352000000000e+08
20,1.064448000000000e+08
20,1.076544000000000e+08
20,1.088640000000000e+08
20,1.100736000000000e+08
20,1.112832000000000e+08
20,1.124928000000000e+08
20,1.137024000000000e+08
20,1.149120000000000e+08
20,1.161216000000000e+08
20,1.173312000000000e+08
20,1.185408000000000e+08
20,1.197504000000000e+08
20,1.209600000000000e+08
20,1.221696000000000e+08
20,1.233792000000000e+08
20,1.245888000000000e+08
20,1.257984000000000e+08
20,1.270080000000000e+08
20,1.282176000000000e+08
20,1.294272000000000e+08
20,1.306368000000000e+08
20,1.318464000000000e+08
20,1.330560000000000e+08
20,1.342656000000000e+08
20,1.354752000000000e+08
20,1.366848000000000e+08
20,1.378944000000000e+08
20,1.391040000000000e+08
20,1.403136000000000e+08
20,1.415232000000000e+08
20,1.427328000000000e+08
20,1.439424000000000e+08
20,1.451520000000000e+08
20,1.463616000000000e+08
20,1.475712000000000e+08
20,1.487808000000000e+08
20,1.499904000000000e+08
20,1.512000000000000e+08
20,1.524096000000000e+08
20,1.536192000000000e+08
20,1.548288000000000e+08
20,1.560384000000000e+08
21,0.000000000000000e+00
21,1.209600000000000e+06
21,2.419200000000000e+06
21,3.628800000000000e+06
21,4.838400000000000e+06
21,6.048000000000000e+06
21,7.257600000000000e+06
21,8.467200000000000e+06
21,9.676800000000000e+06
21,1.088640000000000e+07
21,1.209600000000000e+07
21,1.330560000000000e+07
21,1.451520000000000e+07
21,1.572480000000000e+07
21,1.693440000000000e+07
21,1.814400000000000e+07
21,1.935360000000000e+07
21,2.056320000000000e+07
21,2.177280000000000e+07
21,2.298240000000000e+07
21,2.419200000000000e+07
21,2.540160000000000e+07
21,2.661120000000000e+07
21,2.782080000000000e+07
21,2.903040000000000e+07
21,3.024000000000000e+07
21,3.144960000000000e+07
21,3.265920000000000e+07
21,3.386880000000000e+07
21,3.507840000000000e+07
21,3.628800000000000e+07
21,3.749760000000000e+07
21,3.870720000000000e+07
21,3.991680000000000e+07
21,4.112640000000000e+07
21,4.233600000000000e+07
21,4.354560000000000e+07
21,4.475520000000000e+07
21,4.596480000000000e+07
21,4.717440000000000e+07
21,4.838400000000000e+07
21,4.959360000000000e+07
21,5.080320000000000e+07
21,5.201280000000000e+07
21,5.322240000000000e+07
21,5.443200000000000e+07
21,5.564160000000000e+07
21,5.685120000000000e+07
21,5.806080000000000e+07
21,5.927040000000000e+07
21,6.048000000000000e+07
21,6.168960000000000e+07
21,6.289920000000000e+07
21,6.410880000000000e+07
21,6.531840000000000e+07
21,6.652800000000000e+07
21,6.773760000000000e+07
21,6.894720000000000e+07
21,7.015680000000000e+07
21,7.136640000000000e+07
21,7.257600000000000e+07
21,7.378560000000000e+07
21,7.499520000000000e+07
21,7.620480000000000e+07
21,7.741440000000000e+07
21,7.862400000000000e+07
21,7.983360000000000e+07
21,8.104320000000000e+07
21,8.225280000000000e+07
21,8.346240000000000e+07
21,8.467200000000000e+07
21,8.588160000000000e+07
21,8.709120000000000e+07
21,8.830080000000000e+07
21,8.951040000000000e+07
21,9.072000000000000e+07
21,9.192960000000000e+07
21,9.313920000000000e+07
21,9.434880000000000e+07
21,9.555840000000000e+07
21,9.676800000000000e+07
21,9.797760000000000e+07
21,9.918720000000000e+07
21,1.003968000000000e+08
21,1.016064000000000e+08
21,1.028160000000000e+08
21,1.040256000000000e+08
21,1.052352000000000e+08
21,1.064448000000000e+08
21,1.076544000000000e+08
21,1.088640000000000e+08
21,1.100736000000000e+08
21,1.112832000000000e+08
21,1.124928000000000e+08
21,1.137024000000000e+08
21,1.149120000000000e+08
21,1.161216000000000e+08
21,1.173312000000000e+08
21,1.185408000000000e+08
21,1.197504000000000e+08
21,1.209600000000000e+08
21,1.221696000000000e+08
21,1.233792000000000e+08
21,1.245888000000000e+08
21,1.257984000000000e+08
21,1.270080000000000e+08
21,1.282176000000000e+08
21,1.294272000000000e+08
21,1.306368000000000e+08
21,1.318464000000000e+08
21,1.330560000000000e+08
21,1.342656000000000e+08
21,1.354752000000000e+08
21,1.366848000000000e+08
21,1.378944000000000e+08
21,1.391040000000000e+08
21,1.403136000000000e+08
21,1.415232000000000e+08
21,1.427328000000000e+08
21,1.439424000000000e+08
21,1.451520000000000e+08
21,1.463616000000000e+08
21,1.475712000000000e+08
21,1.487808000000000e+08
21,1.499904000000000e+08
21,1.512000000000000e+08
21,1.524096000000000e+08
21,1.536192000000000e+08
21,1.548288000000000e+08
21,1.560384000000000e+08
22,0.000000000000000e+00
22,1.209600000000000e+06
22,2.419200000000000e+06
22,3.628800000000000e+06
22,4.838400000000000e+06
22,6.048000000000000e+06
22,7.257600000000000e+06
22,8.467200000000000e+06
22,9.676800000000000e+06
22,1.088640000000000e+07
22,1.209600000000000e+07
22,1.330560000000000e+07
22,1.451520000000000e+07
22,1.572480000000000e+07
22,1.693440000000000e+07
22,1.814400000000000e+07
22,1.935360000000000e+07
22,2.056320000000000e+07
22,2.177280000000000e+07
22,2.298240000000000e+07
22,2.419200000000000e+07
22,2.540160000000000e+07
22,2.661120000000000e+07
22,2.782080000000000e+07
22,2.903040000000000e+07
22,3.024000000000000e+07
22,3.144960000000000e+07
22,3.265920000000000e+07
22,3.386880000000000e+07
22,3.507840000000000e+07
22,3.628800000000000e+07
22,3.749760000000000e+07
22,3.870720000000000e+07
22,3.991680000000000e+07
22,4.112640000000000e+07
22,4.233600000000000e+07
22,4.354560000000000e+07
22,4.475520000000000e+07
22,4.596480000000000e+07
22,4.717440000000000e+07
22,4.838400000000000e+07
22,4.959360000000000e+07
22,5.080320000000000e+07
22,5.201280000000000e+07
22,5.322240000000000e+07
22,5.443200000000000e+07
22,5.564160000000000e+07
22,5.685120000000000e+07
22,5.806080000000000e+07
22,5.927040000000000e+07
22,6.048000000000000e+07
22,6.168960000000000e+07
22,6.289920000000000e+07
22,6.410880000000000e+07
22,6.531840000000000e+07
22,6.652800000000000e+07
22,6.773760000000000e+07
22,6.894720000000000e+07
22,7.015680000000000e+07
22,7.136640000000000e+07
22,7.257600000000000e+07
22,7.378560000000000e+07
22,7.499520000000000e+07
22,7.620480000000000e+07
22,7.741440000000000e+07
22,7.862400000000000e+07
22,7.983360000000000e+07
22,8.104320000000000e+07
22,8.225280000000000e+07
22,8.346240000000000e+07
22,8.467200000000000e+07
22,8.588160000000000e+07
22,8.709120000000000e+07
22,8.830080000000000e+07
22,8.951040000000000e+07
22,9.072000000000000e+07
22,9.192960000000000e+07
22,9.313920000000000e+07
22,9.434880000000000e+07
22,9.555840000000000e+07
22,9.676800000000000e+07
22,9.797760000000000e+07
22,9.918720000000000e+07
22,1.003968000000000e+08
22,1.016064000000000e+08
22,1.028160000000000e+08
22,1.040256000000000e+08
22,1.052352000000000e+08
22,1.064448000000000e+08
22,1.076544000000000e+08
22,1.088640000000000e+08
22,1.100736000000000e+08
22,1.112832000000000e+08
22,1.124928000000000e+08
22,1.137024000000000e+08
22,1.149120000000000e+08
22,1.161216000000000e+08
22,1.173312000000000e+08
22,1.185408000000000e+08
22,1.197504000000000e+08
22,1.209600000000000e+08
22,1.221696000000000e+08
22,1.233792000000000e+08
22,1.245888000000000e+08
22,1.257984000000000e+08
22,1.270080000000000e+08
22,1.282176000000000e+08
22,1.294272000000000e+08
22,1.306368000000000e+08
22,1.318464000000000e+08
22,1.330560000000000e+08
22,1.342656000000000e+08
22,1.354752000000000e+08
22,1.366848000000000e+08
22,1.378944000000000e+08
22,1.391040000000000e+08
22,1.403136000000000e+08
22,1.415232000000000e+08
22,1.427328000000000e+08
22,1.439424000000000e+08
22,1.451520000000000e+08
22,1.463616000000000e+08
22,1.475712000000000e+08
22,1.487808000000000e+08
22,1.499904000000000e+08
22,1.512000000000000e+08
22,1.524096000000000e+08
22,1.536192000000000e+08
22,1.548288000000000e+08
22,1.560384000000000e+08
23,0.000000000000000e+00
23,1.209600000000000e+06
23,2.419200000000000e+06
23,3.628800000000000e+06
23,4.838400000000000e+06
23,6.048000000000000e+06
23,7.257600000000000e+06
23,8.467200000000000e+06
23,9.676800000000000e+06
23,1.088640000000000e+07
23,1.209600000000000e+07
23,1.330560000000000e+07
23,1.451520000000000e+07
23,1.572480000000000e+07
23,1.693440000000000e+07
23,1.814400000000000e+07
23,1.935360000000000e+07
23,2.056320000000000e+07
23,2.177280000000000e+07
23,2.298240000000000e+07
23,2.419200000000000e+07
23,2.540160000000000e+07
23,2.661120000000000e+07
23,2.782080000000000e+07
23,2.903040000000000e+07
23,3.024000000000000e+07
23,3.144960000000000e+07
23,3.265920000000000e+07
23,3.386880000000000e+07
23,3.507840000000000e+07
23,3.628800000000000e+07
23,3.749760000000000e+07
23,3.870720000000000e+07
23,3.991680000000000e+07
23,4.112640000000000e+07
23,4.233600000000000e+07
23,4.354560000000000e+07
23,4.475520000000000e+07
23,4.596480000000000e+07
23,4.717440000000000e+07
23,4.838400000000000e+07
23,4.959360000000000e+07
23,5.080320000000000e+07
23,5.201280000000000e+07
23,5.322240000000000e+07
23,5.443200000000000e+07
23,5.564160000000000e+07
23,5.685120000000000e+07
23,5.806080000000000e+07
23,5.927040000000000e+07
23,6.048000000000000e+07
23,6.168960000000000e+07
23,6.289920000000000e+07
23,6.410880000000000e+07
23,6.531840000000000e+07
23,6.652800000000000e+07
23,6.773760000000000e+07
23,6.894720000000000e+07
23,7.015680000000000e+07
23,7.136640000000000e+07
23,7.257600000000000e+07
23,7.378560000000000e+07
23,7.499520000000000e+07
23,7.620480000000000e+07
23,7.741440000000000e+07
23,7.862400000000000e+07
23,7.983360000000000e+07
23,8.104320000000000e+07
23,8.225280000000000e+07
23,8.346240000000000e+07
23,8.467200000000000e+07
23,8.588160000000000e+07
23,8.709120000000000e+07
23,8.830080000000000e+07
23,8.951040000000000e+07
23,9.072000000000000e+07
23,9.192960000000000e+07
23,9.313920000000000e+07
23,9.434880000000000e+07
23,9.555840000000000e+07
23,9.676800000000000e+07
23,9.797760000000000e+07
23,9.918720000000000e+07
23,1.003968000000000e+08
23,1.016064000000000e+08
23,1.028160000000000e+08
23,1.040256000000000e+08
23,1.052352000000000e+08
23,1.064448000000000e+08
23,1.076544000000000e+08
23,1.088640000000000e+08
23,1.100736000000000e+08
23,1.112832000000000e+08
23,1.124928000000000e+08
23,1.137024000000000e+08
23,1.149120000000000e+08
23,1.161216000000000e+08
23,1.173312000000000e+08
23,1.185408000000000e+08
23,1.197504000000000e+08
23,1.209600000000000e+08
23,1.221696000000000e+08
23,1.233792000000000e+08
23,1.245888000000000e+08
23,1.257984000000000e+08
23,1.270080000000000e+08
23,1.282176000000000e+08
23,1.294272000000000e+08
23,1.306368000000000e+08
23,1.318464000000000e+08
23,1.330560000000000e+08
23,1.342656000000000e+08
23,1.354752000000000e+08
23,1.366848000000000e+08
23,1.378944000000000e+08
23,1.391040000000000e+08
23,1.403136000000000e+08
23,1.415232000000000e+08
23,1.427328000000000e+08
23,1.439424000000000e+08
23,1.451520000000000e+08
23,1.463616000000000e+08
23,1.475712000000000e+08
23,1.487808000000000e+08
23,1.499904000000000e+08
23,1.512000000000000e+08
23,1.524096000000000e+08
23,1.536192000000000e+08
23,1.548288000000000e+08
23,1.560384000000000e+08
24,0.000000000000000e+00
24,1.209600000000000e+06
24,2.419200000000000e+06
24,3.628800000000000e+06
24,4.838400000000000e+06
24,6.048000000000000e+06
24,7.257600000000000e+06
24,8.467200000000000e+06
24,9.676800000000000e+06
24,1.088640000000000e+07
24,1.209600000000000e+07
24,1.330560000000000e+07
24,1.451520000000000e+07
24,1.572480000000000e+07
24,1.693440000000000e+07
24,1.814400000000000e+07
24,1.935360000000000e+07
24,2.056320000000000e+07
24,2.177280000000000e+07
24,2.298240000000000e+07
24,2.419200000000000e+07
24,2.540160000000000e+07
24,2.661120000000000e+07
24,2.782080000000000e+07
24,2.903040000000000e+07
24,3.024000000000000e+07
24,3.144960000000000e+07
24,3.265920000000000e+07
24,3.386880000000000e+07
24,3.507840000000000e+07
24,3.628800000000000e+07
24,3.749760000000000e+07
24,3.870720000000000e+07
24,3.991680000000000e+07
24,4.112640000000000e+07
24,4.233600000000000e+07
24,4.354560000000000e+07
24,4.475520000000000e+07
24,4.596480000000000e+07
24,4.717440000000000e+07
24,4.838400000000000e+07
24,4.959360000000000e+07
24,5.080320000000000e+07
24,5.201280000000000e+07
24,5.322240000000000e+07
24,5.443200000000000e+07
24,5.564160000000000e+07
24,5.685120000000000e+07
24,5.806080000000000e+07
24,5.927040000000000e+07
24,6.048000000000000e+07
24,6.168960000000000e+07
24,6.289920000000000e+07
24,6.410880000000000e+07
24,6.531840000000000e+07
24,6.652800000000000e+07
24,6.773760000000000e+07
24,6.894720000000000e+07
24,7.015680000000000e+07
24,7.136640000000000e+07
24,7.257600000000000e+07
24,7.378560000000000e+07
24,7.499520000000000e+07
24,7.620480000000000e+07
24,7.741440000000000e+07
24,7.862400000000000e+07
24,7.983360000000000e+07
24,8.104320000000000e+07
24,8.225280000000000e+07
24,8.346240000000000e+07
24,8.467200000000000e+07
24,8.588160000000000e+07
24,8.709120000000000e+07
24,8.830080000000000e+07
24,8.951040000000000e+07
24,9.072000000000000e+07
24,9.192960000000000e+07
24,9.313920000000000e+07
24,9.434880000000000e+07
24,9.555840000000000e+07
24,9.676800000000000e+07
24,9.797760000000000e+07
24,9.918720000000000e+07
24,1.003968000000000e+08
24,1.016064000000000e+08
24,1.028160000000000e+08
24,1.040256000000000e+08
24,1.052352000000000e+08
24,1.064448000000000e+08
24,1.076544000000000e+08
24,1.088640000000000e+08
24,1.100736000000000e+08
24,1.112832000000000e+08
24,1.124928000000000e+08
24,1.137024000000000e+08
24,1.149120000000000e+08
24,1.161216000000000e+08
24,1.173312000000000e+08
24,1.185408000000000e+08
24,1.197504000000000e+08
24,1.209600000000000e+08
24,1.221696000000000e+08
24,1.233792000000000e+08
24,1.245888000000000e+08
24,1.257984000000000e+08
24,1.270080000000000e+08
24,1.282176000000000e+08
24,1.294272000000000e+08
24,1.306368000000000e+08
24,1.318464000000000e+08
24,1.330560000000000e+08
24,1.342656000000000e+08
24,1.354752000000000e+08
24,1.366848000000000e+08
24,1.378944000000000e+08
24,1.391040000000000e+08
24,1.403136000000000e+08
24,1.415232000000000e+08
24,1.427328000000000e+08
24,1.439424000000000e+08
24,1.451520000000000e+08
24,1.463616000000000e+08
24,1.475712000000000e+08
24,1.487808000000000e+08
24,1.499904000000000e+08
24,1.512000000000000e+08
24,1.524096000000000e+08
24,1.536192000000000e+08
24,1.548288000000000e+08
24,1.560384000000000e+08
25,0.000000000000000e+00
25,1.209600000000000e+06
25,2.419200000000000e+06
25,3.628800000000000e+06
25,4.838400000000000e+06
25,6.048000000000000e+06
25,7.257600000000000e+06
25,8.467200000000000e+06
25,9.676800000000000e+06
25,1.088640000000000e+07
25,1.209600000000000e+07
25,1.330560000000000e+07
25,1.451520000000000e+07
25,1.572480000000000e+07
25,1.693440000000000e+07
25,1.814400000000000e+07
25,1.935360000000000e+07
25,2.056320000000000e+07
25,2.177280000000000e+07
25,2.298240000000000e+07
25,2.419200000000000e+07
25,2.540160000000000e+07
25,2.661120000000000e+07
25,2.782080000000000e+07
25,2.903040000000000e+07
25,3.024000000000000e+07
25,3.144960000000000e+07
25,3.265920000000000e+07
25,3.386880000000000e+07
25,3.507840000000000e+07
25,3.628800000000000e+07
25,3.749760000000000e+07
25,3.870720000000000e+07
25,3.991680000000000e+07
25,4.112640000000000e+07
25,4.233600000000000e+07
25,4.354560000000000e+07
25,4.475520000000000e+07
25,4.596480000000000e+07
25,4.717440000000000e+07
25,4.838400000000000e+07
25,4.959360000000000e+07
25,5.080320000000000e+07
25,5.201280000000000e+07
25,5.322240000000000e+07
25,5.443200000000000e+07
25,5.564160000000000e+07
25,5.685120000000000e+07
25,5.806080000000000e+07
25,5.927040000000000e+07
25,6.048000000000000e+07
25,6.168960000000000e+07
25,6.289920000000000e+07
25,6.410880000000000e+07
25,6.531840000000000e+07
25,6.652800000000000e+07
25,6.773760000000000e+07
25,6.894720000000000e+07
25,7.015680000000000e+07
25,7.136640000000000e+07
25,7.257600000000000e+07
25,7.378560000000000e+07
25,7.499520000000000e+07
25,7.620480000000000e+07
25,7.741440000000000e+07
25,7.862400000000000e+07
25,7.983360000000000e+07
25,8.104320000000000e+07
25,8.225280000000000e+07
25,8.346240000000000e+07
25,8.467200000000000e+07
25,8.588160000000000e+07
25,8.709120000000000e+07
25,8.830080000000000e+07
25,8.951040000000000e+07
25,9.072000000000000e+07
25,9.192960000000000e+07
25,9.313920000000000e+07
25,9.434880000000000e+07
25,9.555840000000000e+07
25,9.676800000000000e+07
25,9.797760000000000e+07
25,9.918720000000000e+07
25,1.003968000000000e+08
25,1.016064000000000e+08
25,1.028160000000000e+08
25,1.040256000000000e+08
25,1.052352000000000e+08
25,1.064448000000000e+08
25,1.076544000000000e+08
25,1.088640000000000e+08
25,1.100736000000000e+08
25,1.112832000000000e+08
25,1.124928000000000e+08
25,1.137024000000000e+08
25,1.149120000000000e+08
25,1.161216000000000e+08
25,1.173312000000000e+08
25,1.185408000000000e+08
25,1.197504000000000e+08
25,1.209600000000000e+08
25,1.221696000000000e+08
25,1.233792000000000e+08
25,1.245888000000000e+08
25,1.257984000000000e+08
25,1.270080000000000e+08
25,1.282176000000000e+08
25,1.294272000000000e+08
25,1.306368000000000e+08
25,1.318464000000000e+08
25,1.330560000000000e+08
25,1.342656000000000e+08
25,1.354752000000000e+08
25,1.366848000000000e+08
25,1.378944000000000e+08
25,1.391040000000000e+08
25,1.403136000000000e+08
25,1.415232000000000e+08
25,1.427328000000000e+08
25,1.439424000000000e+08
25,1.451520000000000e+08
25,1.463616000000000e+08
25,1.475712000000000e+08
25,1.487808000000000e+08
25,1.499904000000000e+08
25,1.512000000000000e+08
25,1.524096000000000e+08
25,1.536192000000000e+08
25,1.548288000000000e+08
25,1.560384000000000e+08
26,0.000000000000000e+00
26,1.209600000000000e+06
26,2.419200000000000e+06
26,3.628800000000000e+06
26,4.838400000000000e+06
26,6.048000000000000e+06
26,7.257600000000000e+06
26,8.467200000000000e+06
26,9.676800000000000e+06
26,1.088640000000000e+07
26,1.209600000000000e+07
26,1.330560000000000e+07
26,1.451520000000000e+07
26,1.572480000000000e+07
26,1.693440000000000e+07
26,1.814400000000000e+07
26,1.935360000000000e+07
26,2.056320000000000e+07
26,2.177280000000000e+07
26,2.298240000000000e+07
26,2.419200000000000e+07
26,2.540160000000000e+07
26,2.661120000000000e+07
26,2.782080000000000e+07
26,2.903040000000000e+07
26,3.024000000000000e+07
26,3.144960000000000e+07
26,3.265920000000000e+07
26,3.386880000000000e+07
26,3.507840000000000e+07
26,3.628800000000000e+07
26,3.749760000000000e+07
26,3.870720000000000e+07
26,3.991680000000000e+07
26,4.112640000000000e+07
26,4.233600000000000e+07
26,4.354560000000000e+07
26,4.475520000000000e+07
26,4.596480000000000e+07
26,4.717440000000000e+07
26,4.838400000000000e+07
26,4.959360000000000e+07
26,5.080320000000000e+07
26,5.201280000000000e+07
26,5.322240000000000e+07
26,5.443200000000000e+07
26,5.564160000000000e+07
26,5.685120000000000e+07
26,5.806080000000000e+07
26,5.927040000000000e+07
26,6.048000000000000e+07
26,6.168960000000000e+07
26,6.289920000000000e+07
26,6.410880000000000e+07
26,6.531840000000000e+07
26,6.652800000000000e+07
26,6.773760000000000e+07
26,6.894720000000000e+07
26,7.015680000000000e+07
26,7.136640000000000e+07
26,7.257600000000000e+07
26,7.378560000000000e+07
26,7.499520000000000e+07
26,7.620480000000000e+07
26,7.741440000000000e+07
26,7.862400000000000e+07
26,7.983360000000000e+07
26,8.104320000000000e+07
26,8.225280000000000e+07
26,8.346240000000000e+07
26,8.467200000000000e+07
26,8.588160000000000e+07
26,8.709120000000000e+07
26,8.830080000000000e+07
26,8.951040000000000e+07
26,9.072000000000000e+07
26,9.192960000000000e+07
26,9.313920000000000e+07
26,9.434880000000000e+07
26,9.555840000000000e+07
26,9.676800000000000e+07
26,9.797760000000000e+07
26,9.918720000000000e+07
26,1.003968000000000e+08
26,1.016064000000000e+08
26,1.028160000000000e+08
26,1.040256000000000e+08
26,1.052352000000000e+08
26,1.064448000000000e+08
26,1.076544000000000e+08
26,1.088640000000000e+08
26,1.100736000000000e+08
26,1.112832000000000e+08
26,1.124928000000000e+08
26,1.137024000000000e+08
26,1.149120000000000e+08
26,1.161216000000000e+08
26,1.173312000000000e+08
26,1.185408000000000e+08
26,1.197504000000000e+08
26,1.209600000000000e+08
26,1.221696000000000e+08
26,1.233792000000000e+08
26,1.245888000000000e+08
26,1.257984000000000e+08
26,1.270080000000000e+08
26,1.282176000000000e+08
26,1.294272000000000e+08
26,1.306368000000000e+08
26,1.318464000000000e+08
26,1.330560000000000e+08
26,1.342656000000000e+08
26,1.354752000000000e+08
26,1.366848000000000e+08
26,1.378944000000000e+08
26,1.391040000000000e+08
26,1.403136000000000e+08
26,1.415232000000000e+08
26,1.427328000000000e+08
26,1.439424000000000e+08
26,1.451520000000000e+08
26,1.463616000000000e+08
26,1.475712000000000e+08
26,1.487808000000000e+08
26,1.499904000000000e+08
26,1.512000000000000e+08
26,1.524096000000000e+08
26,1.536192000000000e+08
26,1.548288000000000e+08
26,1.560384000000000e+08
27,0.000000000000000e+00
27,1.209600000000000e+06
27,2.419200000000000e+06
27,3.628800000000000e+06
27,4.838400000000000e+06
27,6.048000000000000e+06
27,7.257600000000000e+06
27,8.467200000000000e+06
27,9.676800000000000e+06
27,1.088640000000000e+07
27,1.209600000000000e+07
27,1.330560000000000e+07
27,1.451520000000000e+07
27,1.572480000000000e+07
27,1.693440000000000e+07
27,1.814400000000000e+07
27,1.935360000000000e+07
27,2.056320000000000e+07
27,2.177280000000000e+07
27,2.298240000000000e+07
27,2.419200000000000e+07
27,2.540160000000000e+07
27,2.661120000000000e+07
27,2.782080000000000e+07
27,2.903040000000000e+07
27,3.024000000000000e+07
27,3.144960000000000e+07
27,3.265920000000000e+07
27,3.386880000000000e+07
27,3.507840000000000e+07
27,3.628800000000000e+07
27,3.749760000000000e+07
27,3.870720000000000e+07
27,3.991680000000000e+07
27,4.112640000000000e+07
27,4.233600000000000e+07
27,4.354560000000000e+07
27,4.475520000000000e+07
27,4.596480000000000e+07
27,4.717440000000000e+07
27,4.838400000000000e+07
27,4.959360000000000e+07
27,5.080320000000000e+07
27,5.201280000000000e+07
27,5.322240000000000e+07
27,5.443200000000000e+07
27,5.564160000000000e+07
27,5.685120000000000e+07
27,5.806080000000000e+07
27,5.927040000000000e+07
27,6.048000000000000e+07
27,6.168960000000000e+07
27,6.289920000000000e+07
27,6.410880000000000e+07
27,6.531840000000000e+07
27,6.652800000000000e+07
27,6.773760000000000e+07
27,6.894720000000000e+07
27,7.015680000000000e+07
27,7.136640000000000e+07
27,7.257600000000000e+07
27,7.378560000000000e+07
27,7.499520000000000e+07
27,7.620480000000000e+07
27,7.741440000000000e+07
27,7.862400000000000e+07
27,7.983360000000000e+07
27,8.104320000000000e+07
27,8.225280000000000e+07
27,8.346240000000000e+07
27,8.467200000000000e+07
27,8.588160000000000e+07
27,8.709120000000000e+07
27,8.830080000000000e+07
27,8.951040000000000e+07
27,9.072000000000000e+07
27,9.192960000000000e+07
27,9.313920000000000e+07
27,9.434880000000000e+07
27,9.555840000000000e+07
27,9.676800000000000e+07
27,9.797760000000000e+07
27,9.918720000000000e+07
27,1.003968000000000e+08
27,1.016064000000000e+08
27,1.028160000000000e+08
27,1.040256000000000e+08
27,1.052352000000000e+08
27,1.064448000000000e+08
27,1.076544000000000e+08
27,1.088640000000000e+08
27,1.100736000000000e+08
27,1.112832000000000e+08
27,1.124928000000000e+08
27,1.137024000000000e+08
27,1.149120000000000e+08
27,1.161216000000000e+08
27,1.173312000000000e+08
27,1.185408000000000e+08
27,1.197504000000000e+08
27,1.209600000000000e+08
27,1.221696000000000e+08
27,1.233792000000000e+08
27,1.245888000000000e+08
27,1.257984000000000e+08
27,1.270080000000000e+08
27,1.282176000000000e+08
27,1.294272000000000e+08
27,1.306368000000000e+08
27,1.318464000000000e+08
27,1.330560000000000e+08
27,1.342656000000000e+08
27,1.354752000000000e+08
27,1.366848000000000e+08
27,1.378944000000000e+08
27,1.391040000000000e+08
27,1.403136000000000e+08
27,1.415232000000000e+08
27,1.427328000000000e+08
27,1.439424000000000e+08
27,1.451520000000000e+08
27,1.463616000000000e+08
27,1.475712000000000e+08
27,1.487808000000000e+08
27,1.499904000000000e+08
27,1.512000000000000e+08
27,1.524096000000000e+08
27,1.536192000000000e+08
27,1.548288000000000e+08
27,1.560384000000000e+08
28,0.000000000000000e+00
28,1.209600000000000e+06
28,2.419200000000000e+06
28,3.628800000000000e+06
28,4.838400000000000e+06
28,6.048000000000000e+06
28,7.257600000000000e+06
28,8.467200000000000e+06
28,9.676800000000000e+06
28,1.088640000000000e+07
28,1.209600000000000e+07
28,1.330560000000000e+07
28,1.451520000000000e+07
28,1.572480000000000e+07
28,1.693440000000000e+07
28,1.814400000000000e+07
28,1.935360000000000e+07
28,2.056320000000000e+07
28,2.177280000000000e+07
28,2.298240000000000e+07
28,2.419200000000000e+07
28,2.540160000000000e+07
28,2.661120000000000e+07
28,2.782080000000000e+07
28,2.903040000000000e+07
28,3.024000000000000e+07
28,3.144960000000000e+07
28,3.265920000000000e+07
28,3.386880000000000e+07
28,3.507840000000000e+07
28,3.628800000000000e+07
28,3.749760000000000e+07
28,3.870720000000000e+07
28,3.991680000000000e+07
28,4.112640000000000e+07
28,4.233600000000000e+07
28,4.354560000000000e+07
28,4.475520000000000e+07
28,4.596480000000000e+07
28,4.717440000000000e+07
28,4.838400000000000e+07
28,4.959360000000000e+07
28,5.080320000000000e+07
28,5.201280000000000e+07
28,5.322240000000000e+07
28,5.443200000000000e+07
28,5.564160000000000e+07
28,5.685120000000000e+07
28,5.806080000000000e+07
28,5.927040000000000e+07
28,6.048000000000000e+07
28,6.168960000000000e+07
28,6.289920000000000e+07
28,6.410880000000000e+07
28,6.531840000000000e+07
28,6.652800000000000e+07
28,6.773760000000000e+07
28,6.894720000000000e+07
28,7.015680000000000e+07
28,7.136640000000000e+07
28,7.257600000000000e+07
28,7.378560000000000e+07
28,7.499520000000000e+07
28,7.620480000000000e+07
28,7.741440000000000e+07
28,7.862400000000000e+07
28,7.983360000000000e+07
28,8.104320000000000e+07
28,8.225280000000000e+07
28,8.346240000000000e+07
28,8.467200000000000e+07
28,8.588160000000000e+07
28,8.709120000000000e+07
28,8.830080000000000e+07
28,8.951040000000000e+07
28,9.072000000000000e+07
28,9.192960000000000e+07
28,9.313920000000000e+07
28,9.434880000000000e+07
28,9.555840000000000e+07
28,9.676800000000000e+07
28,9.797760000000000e+07
28,9.918720000000000e+07
28,1.003968000000000e+08
28,1.016064000000000e+08
28,1.028160000000000e+08
28,1.040256000000000e+08
28,1.052352000000000e+08
28,1.064448000000000e+08
28,1.076544000000000e+08
28,1.088640000000000e+08
28,1.100736000000000e+08
28,1.112832000000000e+08
28,1.124928000000000e+08
28,1.137024000000000e+08
28,1.149120000000000e+08
28,1.161216000000000e+08
28,1.173312000000000e+08
28,1.185408000000000e+08
28,1.197504000000000e+08
28,1.209600000000000e+08
28,1.221696000000000e+08
28,1.233792000000000e+08
28,1.245888000000000e+08
28,1.257984000000000e+08
28,1.270080000000000e+08
28,1.282176000000000e+08
28,1.294272000000000e+08
28,1.306368000000000e+08
28,1.318464000000000e+08
28,1.330560000000000e+08
28,1.342656000000000e+08
28,1.354752000000000e+08
28,1.366848000000000e+08
28,1.378944000000000e+08
28,1.391040000000000e+08
28,1.403136000000000e+08
28,1.415232000000000e+08
28,1.427328000000000e+08
28,1.439424000000000e+08
28,1.451520000000000e+08
28,1.463616000000000e+08
28,1.475712000000000e+08
28,1.487808000000000e+08
28,1.499904000000000e+08
28,1.512000000000000e+08
28,1.524096000000000e+08
28,1.536192000000000e+08
28,1.548288000000000e+08
28,1.560384000000000e+08
29,0.000000000000000e+00
29,1.209600000000000e+06
29,2.419200000000000e+06
29,3.628800000000000e+06
29,4.838400000000000e+06
29,6.048000000000000e+06
29,7.257600000000000e+06
29,8.467200000000000e+06
29,9.676800000000000e+06
29,1.088640000000000e+07
29,1.209600000000000e+07
29,1.330560000000000e+07
29,1.451520000000000e+07
29,1.572480000000000e+07
29,1.693440000000000e+07
29,1.814400000000000e+07
29,1.935360000000000e+07
29,2.056320000000000e+07
29,2.177280000000000e+07
29,2.298240000000000e+07
29,2.419200000000000e+07
29,2.540160000000000e+07
29,2.661120000000000e+07
29,2.782080000000000e+07
29,2.903040000000000e+07
29,3.024000000000000e+07
29,3.144960000000000e+07
29,3.265920000000000e+07
29,3.386880000000000e+07
29,3.507840000000000e+07
29,3.628800000000000e+07
29,3.749760000000000e+07
29,3.870720000000000e+07
29,3.991680000000000e+07
29,4.112640000000000e+07
29,4.233600000000000e+07
29,4.354560000000000e+07
29,4.475520000000000e+07
29,4.596480000000000e+07
29,4.717440000000000e+07
29,4.838400000000000e+07
29,4.959360000000000e+07
29,5.080320000000000e+07
29,5.201280000000000e+07
29,5.322240000000000e+07
29,5.443200000000000e+07
29,5.564160000000000e+07
29,5.685120000000000e+07
29,5.806080000000000e+07
29,5.927040000000000e+07
29,6.048000000000000e+07
29,6.168960000000000e+07
29,6.289920000000000e+07
29,6.410880000000000e+07
29,6.531840000000000e+07
29,6.652800000000000e+07
29,6.773760000000000e+07
29,6.894720000000000e+07
29,7.015680000000000e+07
29,7.136640000000000e+07
29,7.257600000000000e+07
29,7.378560000000000e+07
29,7.499520000000000e+07
29,7.620480000000000e+07
29,7.741440000000000e+07
29,7.862400000000000e+07
29,7.983360000000000e+07
29,8.104320000000000e+07
29,8.225280000000000e+07
29,8.346240000000000e+07
29,8.467200000000000e+07
29,8.588160000000000e+07
29,8.709120000000000e+07
29,8.830080000000000e+07
29,8.951040000000000e+07
29,9.072000000000000e+07
29,9.192960000000000e+07
29,9.313920000000000e+07
29,9.434880000000000e+07
29,9.555840000000000e+07
29,9.676800000000000e+07
29,9.797760000000000e+07
29,9.918720000000000e+07
29,1.003968000000000e+08
29,1.016064000000000e+08
29,1.028160000000000e+08
29,1.040256000000000e+08
29,1.052352000000000e+08
29,1.064448000000000e+08
29,1.076544000000000e+08
29,1.088640000000000e+08
29,1.100736000000000e+08
29,1.112832000000000e+08
29,1.124928000000000e+08
29,1.137024000000000e+08
29,1.149120000000000e+08
29,1.161216000000000e+08
29,1.173312000000000e+08
29,1.185408000000000e+08
29,1.197504000000000e+08
29,1.209600000000000e+08
29,1.221696000000000e+08
29,1.233792000000000e+08
29,1.245888000000000e+08
29,1.257984000000000e+08
29,1.270080000000000e+08
29,1.282176000000000e+08
29,1.294272000000000e+08
29,1.306368000000000e+08
29,1.318464000000000e+08
29,1.330560000000000e+08
29,1.342656000000000e+08
29,1.354752000000000e+08
29,1.366848000000000e+08
29,1.378944000000000e+08
29,1.391040000000000e+08
29,1.403136000000000e+08
29,1.415232000000000e+08
29,1.427328000000000e+08
29,1.439424000000000e+08
29,1.451520000000000e+08
29,1.463616000000000e+08
29,1.475712000000000e+08
29,1.487808000000000e+08
29,1.499904000000000e+08
29,1.512000000000000e+08
29,1.524096000000000e+08
29,1.536192000000000e+08
29,1.548288000000000e+08
29,1.560384000000000e+08
