3, 7.015680000000000e+07
3, 2.177280000000000e+07
3, 9.192960000000000e+07
3, 3.386880000000000e+07
3, 5.443200000000000e+07
3, 1.451520000000000e+07
3, 0.000000000000000e+00
3, 7.499520000000000e+07
3, 9.676800000000000e+06
3, 9.797760000000000e+07
3, 5.927040000000000e+07
3, 3.628800000000000e+07
3, 4.838400000000000e+07
3, 1.112832000000000e+08
3, 7.983360000000000e+07
3, 3.628800000000000e+06
3, 4.475520000000000e+07
3, 1.814400000000000e+07
3, 7.257600000000000e+06
3, 2.540160000000000e+07
3, 8.467200000000000e+07
3, 4.112640000000000e+07
3, 1.499904000000000e+08
3, 6.773760000000000e+07
3, 1.560384000000000e+08
3, 1.245888000000000e+08
3, 1.439424000000000e+08
3, 1.306368000000000e+08
3, 6.410880000000000e+07
3, 1.040256000000000e+08
3, 1.378944000000000e+08
3, 1.173312000000000e+08
3, 1.209600000000000e+08
3, 1.403136000000000e+08
3, 1.076544000000000e+08
3, 1.003968000000000e+08
3, 1.342656000000000e+08
3, 5.201280000000000e+07
3, 8.830080000000000e+07
2, 3.870720000000000e+07
2, 1.185408000000000e+08
3, 1.536192000000000e+08
2, 1.814400000000000e+07
2, 6.168960000000000e+07
3, 3.024000000000000e+07
3, 1.270080000000000e+08
2, 7.499520000000000e+07
2, 2.903040000000000e+07
2, 1.040256000000000e+08
2, 5.080320000000000e+07
2, 8.467200000000000e+06
2, 9.676800000000000e+07
2, 6.894720000000000e+07
2, 4.475520000000000e+07
2, 1.560384000000000e+08
2, 2.298240000000000e+07
2, 8.951040000000000e+07
2, 3.628800000000000e+06
2, 5.685120000000000e+07
2, 3.386880000000000e+07
2, 1.463616000000000e+08
2, 1.088640000000000e+08
3, 1.209600000000000e+06
2, 1.330560000000000e+07
2, 6.531840000000000e+07
2, 7.862400000000000e+07
2, 1.391040000000000e+08
2, 4.233600000000000e+07
2, 2.540160000000000e+07
2, 5.443200000000000e+07
2, 1.088640000000000e+07
2, 8.588160000000000e+07
2, 1.161216000000000e+08
3, 8.225280000000000e+07
2, 1.124928000000000e+08
2, 8.225280000000000e+07
2, 1.342656000000000e+08
2, 1.245888000000000e+08
2, 1.427328000000000e+08
2, 1.294272000000000e+08
2, 9.313920000000000e+07
3, 1.475712000000000e+08
2, 1.003968000000000e+08
2, 1.221696000000000e+08
2, 1.512000000000000e+08
1, 1.475712000000000e+08
2, 1.536192000000000e+08
1, 9.797760000000000e+07
2, 0.000000000000000e+00
4, 1.814400000000000e+07
1, 5.443200000000000e+07
4, 1.052352000000000e+08
4, 7.741440000000000e+07
1, 1.572480000000000e+07
1, 1.088640000000000e+08
1, 7.862400000000000e+07
1, 1.270080000000000e+08
1, 4.475520000000000e+07
4, 6.410880000000000e+07
1, 1.088640000000000e+07
1, 1.415232000000000e+08
2, 7.136640000000000e+07
4, 4.838400000000000e+07
1, 2.419200000000000e+06
1, 1.536192000000000e+08
3, 1.209600000000000e+07
1, 7.136640000000000e+07
1, 0.000000000000000e+00
4, 9.555840000000000e+07
1, 1.040256000000000e+08
1, 3.628800000000000e+07
1, 6.168960000000000e+07
4, 3.024000000000000e+07
4, 3.991680000000000e+07
1, 4.959360000000000e+07
4, 1.233792000000000e+08
4, 1.378944000000000e+08
1, 2.056320000000000e+07
1, 2.782080000000000e+07
1, 1.221696000000000e+08
4, 2.298240000000000e+07
2, 1.487808000000000e+08
1, 1.354752000000000e+08
4, 4.475520000000000e+07
1, 6.048000000000000e+06
1, 6.773760000000000e+07
4, 8.467200000000000e+07
1, 1.306368000000000e+08
4, 1.524096000000000e+08
1, 8.709120000000000e+07
4, 5.927040000000000e+07
4, 1.209600000000000e+07
1, 3.144960000000000e+07
4, 7.257600000000000e+07
5, 1.451520000000000e+08
1, 7.499520000000000e+07
5, 1.318464000000000e+08
1, 3.991680000000000e+07
5, 1.221696000000000e+08
1, 9.313920000000000e+07
4, 8.951040000000000e+07
4, 2.419200000000000e+06
5, 6.773760000000000e+07
1, 1.499904000000000e+08
1, 5.806080000000000e+07
5, 4.596480000000000e+07
5, 0.000000000000000e+00
5, 2.177280000000000e+07
4, 1.137024000000000e+08
5, 3.870720000000000e+07
1, 8.346240000000000e+07
1, 2.419200000000000e+07
5, 1.512000000000000e+08
1, 1.149120000000000e+08
5, 5.322240000000000e+07
1, 1.378944000000000e+08
5, 1.391040000000000e+08
4, 2.661120000000000e+07
5, 1.076544000000000e+08
5, 4.838400000000000e+06
4, 3.507840000000000e+07
5, 3.386880000000000e+07
4, 1.560384000000000e+08
5, 1.016064000000000e+08
5, 6.289920000000000e+07
4, 6.773760000000000e+07
5, 1.572480000000000e+07
1, 4.717440000000000e+07
1, 1.560384000000000e+08
1, 6.531840000000000e+07
5, 7.378560000000000e+07
4, 1.016064000000000e+08
5, 1.149120000000000e+08
4, 1.572480000000000e+07
4, 1.415232000000000e+08
5, 1.088640000000000e+07
5, 7.862400000000000e+07
4, 7.257600000000000e+06
4, 1.342656000000000e+08
4, 8.104320000000000e+07
1, 1.016064000000000e+08
4, 1.112832000000000e+08
2, 1.209600000000000e+06
4, 1.173312000000000e+08
0, 1.197504000000000e+08
4, 1.306368000000000e+08
5, 5.806080000000000e+07
1, 1.185408000000000e+08
1, 1.112832000000000e+08
5, 4.959360000000000e+07
5, 8.951040000000000e+07
4, 4.838400000000000e+06
5, 2.540160000000000e+07
0, 5.564160000000000e+07
5, 1.112832000000000e+08
4, 5.564160000000000e+07
5, 1.270080000000000e+08
4, 5.201280000000000e+07
5, 1.548288000000000e+08
4, 1.270080000000000e+08
5, 1.415232000000000e+08
5, 9.313920000000000e+07
0, 4.596480000000000e+07
5, 4.233600000000000e+07
5, 3.024000000000000e+07
4, 1.451520000000000e+08
5, 7.257600000000000e+06
3, 1.548288000000000e+08
5, 1.814400000000000e+07
5, 9.676800000000000e+07
0, 3.870720000000000e+07
0, 1.330560000000000e+07
5, 7.136640000000000e+07
0, 2.419200000000000e+07
0, 1.318464000000000e+08
0, 1.536192000000000e+08
4, 3.749760000000000e+07
5, 8.467200000000000e+07
0, 7.862400000000000e+07
0, 6.773760000000000e+07
4, 9.313920000000000e+07
0, 1.064448000000000e+08
4, 1.197504000000000e+08
0, 7.378560000000000e+07
0, 1.487808000000000e+08
5, 1.040256000000000e+08
5, 1.354752000000000e+08
0, 9.676800000000000e+07
5, 8.225280000000000e+07
0, 2.782080000000000e+07
0, 1.282176000000000e+08
5, 1.185408000000000e+08
0, 5.201280000000000e+07
4, 1.487808000000000e+08
0, 6.289920000000000e+07
0, 8.709120000000000e+07
0, 3.265920000000000e+07
0, 1.137024000000000e+08
0, 8.467200000000000e+06
0, 1.391040000000000e+08
0, 8.225280000000000e+07
0, 4.233600000000000e+07
1, 1.330560000000000e+07
0, 1.451520000000000e+08
0, 1.935360000000000e+07
0, 8.951040000000000e+07
0, 1.016064000000000e+08
0, 2.419200000000000e+06
5, 1.487808000000000e+08
0, 1.354752000000000e+08
0, 3.507840000000000e+07
0, 1.100736000000000e+08
0, 1.233792000000000e+08
0, 7.015680000000000e+07
0, 1.693440000000000e+07
4, 0.000000000000000e+00
0, 9.434880000000000e+07
4, 9.918720000000000e+07
0, 4.838400000000000e+06
0, 5.927040000000000e+07
0, 1.427328000000000e+08
0, 1.173312000000000e+08
5, 2.419200000000000e+06
5, 1.560384000000000e+08
2, 3.144960000000000e+07
0, 0.000000000000000e+00
0, 1.560384000000000e+08
1, 1.439424000000000e+08
4, 1.548288000000000e+08
3, 1.137024000000000e+08
2, 1.366848000000000e+08
5, 6.048000000000000e+07
0, 1.512000000000000e+08
1, 9.072000000000000e+07
