2761, 1.283122366152920e-14
2813, 1.181374206689117e-14
2770, 1.601497491226918e-14
2750, 2.008149527836419e-14
2842, 1.464687673826560e-14
2787, 1.304008374762337e-14
2836, 1.696862547272560e-14
2850, 1.344412649639226e-14
470, 2.134847579784627e-14
2830, 1.844746969892454e-14
2856, 2.688669143339908e-14
3597, 3.880726145969869e-14
2743, 2.245413263109640e-14
2754, 1.603861127079865e-14
2821, 1.719664434261154e-14
3521, 5.842850978523468e-14
407, 3.788333476771749e-14
2825, 1.160894365058097e-14
2816, 1.584852377991132e-14
423, 2.915625760389638e-14
3547, 5.441747189992590e-14
506, 3.377999330747880e-14
2766, 2.253342098810466e-14
3553, 5.037368750954193e-14
435, 3.087049364874337e-14
2772, 2.212367400423510e-14
2793, 1.596517296961512e-14
3610, 8.813989148472235e-14
417, 3.854193957514950e-14
390, 2.694320422869794e-14
3534, 7.996821520426345e-14
403, 5.300344512697007e-14
398, 3.018954336818548e-14
3526, 5.340132914569338e-14
3515, 4.740498018461831e-14
3539, 9.716883473433180e-14
3550, 5.253477336705075e-14
490, 4.362605399893115e-14
2845, 1.453102747606129e-14
476, 3.327551098113655e-14
2848, 1.231165698522158e-14
3531, 9.623439529289587e-14
3543, 4.178697573584168e-14
409, 4.565281237265435e-14
420, 4.422072653598234e-14
496, 2.909695308946558e-14
2859, 1.392461038796257e-14
394, 3.365245306806447e-14
502, 5.594566304482242e-14
428, 4.554690938315757e-14
3575, 4.658607715495707e-14
2740, 1.603407365040925e-14
415, 3.404337771978904e-14
518, 2.372555390685672e-14
2748, 1.001131716328671e-14
3523, 7.009420127437467e-14
3556, 9.777891137184967e-14
2764, 5.466610623097334e-15
3537, 5.657066078534261e-14
3560, 4.126406021764085e-14
2819, 1.037116425270107e-14
2806, 1.236123579558769e-14
2853, 1.298213486730548e-14
3578, 4.458647509696475e-14
2785, 9.841480180523000e-15
2804, 9.587024919219628e-15
512, 5.799086804118564e-14
2839, 1.033867641026449e-14
2758, 7.581104480601580e-15
2732, 1.648112721476155e-14
3513, 5.894573431004036e-14
2833, 2.224489096953931e-14
447, 3.701003940242024e-14
2795, 8.582159360129162e-15
2776, 1.404615354345804e-14
1584, 1.565883305777382e-14
3564, 7.093345303554808e-14
441, 2.377154817515287e-14
431, 2.868848412246609e-14
400, 3.874844468405347e-14
3591, 5.482676352967905e-14
2779, 7.335194727784045e-15
2736, 6.301742539828068e-15
2809, 1.211369154105717e-14
1625, 1.960037115534834e-14
483, 2.113639572655611e-14
2745, 1.355949279700961e-14
1058, 1.686816056849143e-14
3600, 4.828607954865548e-14
2800, 1.288096897606698e-14
3594, 3.386751373048911e-14
1648, 1.616344458025720e-14
1660, 1.748783585586170e-14
1099, 2.646227890512138e-14
3569, 4.201271088779397e-14
1572, 3.165035188057824e-14
1127, 2.062578567584547e-14
1614, 2.390794137678011e-14
1152, 1.872131919290027e-14
3619, 4.064425659064010e-14
1621, 1.719206994715509e-14
3615, 1.864384939444756e-14
1588, 2.477535035063599e-14
1673, 1.694631589903705e-14
493, 1.604288977644034e-14
1566, 3.165597411803773e-14
1092, 1.773076893905197e-14
1569, 1.594155444654908e-14
1132, 2.656356994238698e-14
2790, 5.720812479271422e-15
1044, 2.045563908921312e-14
451, 7.718906933104024e-15
1653, 2.432001174239466e-14
1076, 1.960846981883003e-14
3510, 1.796420305562730e-14
1112, 2.520773563785585e-14
1606, 1.339512670628238e-14
1139, 4.402020822920909e-14
412, 7.302446723943731e-15
1169, 2.659156488829388e-14
480, 8.867917986162020e-15
1149, 1.863033324629367e-14
1096, 3.173044322001092e-14
3572, 1.701210013199376e-14
1146, 2.843609650213773e-14
1593, 1.881250338753512e-14
456, 1.857716722530683e-14
3582, 1.653219982939816e-14
462, 6.206845011160117e-15
3587, 1.623255082277775e-14
1618, 1.621290333449886e-14
3604, 2.452832774734875e-14
1166, 2.843172409271406e-14
509, 7.049813826940806e-15
1135, 2.356335699504985e-14
3635, 1.300244570903260e-14
1576, 1.513884305101375e-14
499, 7.809741394202523e-15
515, 8.540444804249046e-15
1656, 1.911979633066797e-14
473, 9.027620291056557e-15
1581, 1.616122222045835e-14
486, 1.685964670189579e-14
3606, 1.470796666073328e-14
3518, 3.422237420522047e-14
1641, 2.234995376437442e-14
3632, 1.772887893917062e-14
1087, 2.161457179691843e-14
1563, 3.011563779027502e-14
466, 1.861652352765824e-14
1636, 2.074828555777697e-14
2730, 3.181315970146606e-15
1609, 1.246687329640765e-14
1677, 1.500504241516347e-14
444, 1.025959907297495e-14
1665, 1.873225449191613e-14
1071, 2.344179991405112e-14
3621, 1.148904611427553e-14
1084, 3.355380991458184e-14
3566, 1.147302401403227e-14
3613, 2.012856501637238e-14
292, 4.381799945886970e-15
3584, 2.118002965728613e-14
1632, 7.286992039449001e-15
1612, 1.171568065905981e-14
1591, 1.073905084790031e-14
1685, 1.149962908453033e-14
1688, 1.222388296983481e-14
1597, 1.063709925701071e-14
358, 5.639755226353478e-15
453, 5.885631302861598e-15
2858, 1.879784103895045e-15
1669, 2.292585617567237e-14
275, 6.086820127966194e-15
1682, 9.696933740955294e-15
460, 5.161953785753834e-15
1639, 1.410051363369259e-14
311, 7.802390794028947e-15
1578, 1.208523274611244e-14
3628, 1.527830071954910e-14
2782, 1.512672145340313e-15
1602, 1.472440154525557e-14
322, 5.664616182953606e-15
1162, 1.971417891095702e-14
284, 4.722393084877047e-15
3639, 8.531882170961997e-15
519, 7.144969274498257e-15
346, 6.339798191342206e-15
438, 5.785378099138915e-15
1645, 2.406908669494301e-14
302, 7.073558479075550e-15
1159, 1.564218515904662e-14
267, 8.991227071328131e-15
1123, 7.610255615319545e-15
340, 1.010206685421987e-14
3625, 4.394783211917767e-14
1629, 2.863233617811927e-14
3637, 7.932441904061972e-15
876, 1.555176485426080e-15
317, 7.172968777905217e-15
297, 5.060066652282957e-15
389, 6.370471421187777e-15
279, 1.043915879648790e-14
384, 6.933921008717643e-15
263, 9.498115101511643e-15
1063, 7.965588542209631e-15
307, 1.168986066899747e-14
381, 5.523024599949367e-15
288, 1.085437352657762e-14
1651, 7.275380311717740e-15
350, 6.899048583652966e-15
1107, 8.588957389907414e-15
271, 9.349649444989043e-15
392, 1.173294794250250e-14
314, 1.362874556559026e-14
1116, 6.633077391369867e-15
325, 1.030019133016761e-14
299, 9.813198971596217e-15
375, 7.059279404102660e-15
1679, 8.165569998006073e-15
281, 8.347772356917105e-15
331, 5.515546726613680e-15
269, 5.438721898391239e-15
294, 1.023700237224949e-14
356, 8.140528865521802e-15
1067, 7.117514320255051e-15
1080, 8.217833303786191e-15
1663, 8.319284428323655e-15
792, 1.338636928186905e-15
804, 1.772488603962710e-15
1050, 8.810674235072548e-15
328, 3.494860470304522e-15
1600, 9.185075655761709e-15
1047, 4.712938428912589e-15
365, 2.502174046154772e-15
1561, 6.298482537955475e-15
426, 1.568725753374804e-15
785, 1.300264099921681e-15
820, 1.557689539789347e-15
2734, 1.025906397317098e-15
1119, 6.929674194968683e-15
865, 2.203327946743308e-15
909, 2.569655047576826e-16
849, 2.860787941350672e-15
901, 1.957719392491390e-15
1054, 5.959157345781109e-15
370, 2.850393591562831e-15
815, 1.676165369549307e-15
1143, 4.322966546819201e-15
809, 2.772976898944163e-15
830, 3.179271803798122e-15
319, 4.181658218893110e-16
905, 2.381733581299874e-15
2891, 1.409164494396556e-16
3436, 8.189381263289978e-16
1689, 5.109001275641203e-16
1103, 2.825844428558037e-15
1157, 8.986555787102761e-15
860, 2.468266456111334e-15
3529, 2.198528717745556e-15
872, 1.413078689265007e-15
801, 2.416386887638523e-15
1060, 6.957557321583540e-15
838, 1.673250994806111e-15
336, 2.383142613422976e-15
797, 1.463510795793444e-15
1074, 3.657594090087836e-15
845, 2.224641680923548e-15
362, 1.086343940228363e-15
888, 1.069588728587152e-15
826, 1.793103434612136e-15
353, 1.241956904527458e-15
879, 1.422005254483709e-15
2442, 1.259243786428292e-16
855, 2.323255623523445e-15
378, 2.385333550688772e-15
883, 2.202779040286809e-15
1333, 9.341549511255914e-17
387, 2.540467305209891e-15
789, 2.249101596643753e-15
2827, 1.330756543507087e-15
343, 2.186772925212648e-15
893, 4.847162812747129e-16
260, 7.389931860061017e-16
1950, 1.187705749447486e-16
2054, 2.248413600509366e-16
834, 1.450508728244371e-15
3852, 1.153551557618725e-16
1560, 2.860496542658234e-15
1090, 3.600941778509514e-15
3421, 2.448515328537049e-15
782, 2.992683375278680e-15
1129, 6.716582158824002e-15
3465, 2.839557728349945e-16
146, 1.890550818496624e-16
1040, 1.540641605531970e-15
372, 2.350658142310926e-15
3388, 2.924680960436823e-16
823, 8.875076573848479e-16
3440, 5.074319193730345e-16
2033, 1.421978687778214e-16
2970, 3.556042192017104e-16
852, 1.253446015482534e-15
3428, 2.456519534312858e-16
858, 1.240786517572277e-15
2905, 2.303969621889633e-16
2879, 1.458286032148625e-16
3495, 6.196378698690729e-16
1356, 2.022140932886257e-16
1168, 2.311218312827742e-15
3471, 3.484398622601244e-16
1421, 1.930708304319546e-16
3416, 5.943226198339340e-16
3457, 3.070314064059811e-16
504, 6.545497445176655e-16
1966, 9.255921143542540e-16
3450, 2.625462520218140e-16
812, 2.722484165444018e-15
1778, 1.414320600797695e-16
3508, 3.124828892364516e-16
925, 1.453387267721527e-16
3433, 4.281084448359489e-16
1367, 1.363186075079446e-16
1488, 7.432153686270810e-17
3462, 5.600172353316348e-16
841, 2.108148688720708e-16
3490, 4.669630794086263e-16
2343, 1.398429053593491e-16
3397, 2.621789738536650e-16
1231, 2.030835068080079e-16
3402, 1.687882881433518e-15
896, 5.509732792783778e-16
3443, 1.656586352744154e-15
3411, 4.039138320507144e-16
3408, 4.082437025385542e-16
3139, 1.320375427686100e-16
886, 4.958028396068072e-16
1737, 1.396423866575983e-16
3500, 6.497781942117949e-16
1799, 1.689043042647852e-16
3480, 4.627482171604626e-16
1715, 2.046695553101916e-16
3828, 1.596046234773137e-16
2885, 1.093162871054811e-16
1154, 1.281967064266220e-15
3795, 2.162365225091921e-16
2956, 4.161476410737940e-16
1988, 2.738090834730581e-16
708, 1.470470494495305e-16
868, 9.625612908548477e-16
3380, 2.275017508817407e-16
3405, 1.198337837141172e-15
2865, 3.125782094039750e-16
2019, 2.776747857062207e-16
794, 6.604462793854168e-16
3391, 5.937933170569322e-16
3503, 2.250453591644081e-16
1691, 4.220933604690597e-16
1314, 2.558989735830486e-16
949, 2.956795516836884e-16
2061, 1.806425363237711e-16
2003, 1.485870479581295e-16
3630, 8.869217048803822e-16
1729, 1.939054906878403e-16
2988, 3.290627081361890e-16
1984, 1.349836928677439e-16
241, 1.966231092949801e-16
3511, 2.166674574967214e-16
1974, 1.801773329542376e-16
1110, 2.709454596189740e-15
899, 1.901259974197446e-15
1408, 5.912317267880539e-16
3384, 5.983456759521622e-16
3484, 7.295912313433586e-16
3845, 2.015685186387075e-16
1101, 3.842343601272807e-16
3873, 1.717526886714504e-16
2073, 2.258857638793238e-16
3813, 1.491904395902555e-16
1505, 1.844382939864643e-16
334, 1.434811169467405e-15
2068, 9.825348647857068e-16
2975, 2.796194102007532e-16
3447, 4.135117166717016e-16
2461, 3.229166334419079e-16
2077, 1.606307753842974e-16
1035, 2.110699738482223e-16
2964, 3.340528601779122e-16
2870, 1.442413215531181e-16
1543, 1.580558085712512e-16
2047, 8.661824368398072e-16
1300, 6.450719694339129e-16
1819, 2.315431520129566e-16
3487, 2.955902519121170e-16
3779, 3.028450150226854e-16
2179, 1.607165597667865e-16
3418, 2.345302571785510e-16
3171, 1.548297671237008e-16
3425, 5.419369465226454e-16
3476, 5.386052367255234e-16
3162, 2.669259863943358e-16
1343, 1.628897109244989e-16
1348, 2.138240849532213e-16
2898, 2.137779499469733e-16
686, 2.563594626016994e-16
1993, 1.573758785130347e-16
1319, 4.006087092231815e-16
2108, 2.192848642105920e-16
2099, 2.483258545557091e-16
2112, 1.162725293211574e-16
1359, 2.035174056802532e-16
973, 6.963424306736349e-16
836, 1.122865440712033e-15
1309, 1.824013173012714e-16
167, 1.990235328131256e-16
2935, 4.609838361472423e-16
2939, 1.529139643097159e-16
2914, 1.979098882699360e-16
1042, 1.472583343901889e-15
1399, 3.742413401518645e-16
207, 3.291862767744419e-16
2125, 1.926812808324496e-16
2983, 5.520137547824286e-16
3150, 7.018373643517624e-16
3007, 3.839177179232595e-16
1416, 2.508177956874051e-16
3468, 1.731258486017565e-16
1389, 2.756879984928816e-16
1015, 2.371679521697714e-16
3132, 1.955991475755580e-16
2874, 2.671679161790875e-16
3188, 4.682818565691652e-16
181, 2.848609135062973e-16
3833, 1.643271320389503e-16
818, 4.007502814787742e-16
217, 4.603440803301670e-16
2015, 2.193689717176780e-16
1363, 2.197392822994816e-16
3431, 3.253427888168975e-16
1955, 3.464493403459155e-16
2012, 2.801255792056376e-16
2918, 3.694483200059820e-16
870, 1.077677167757463e-15
2161, 1.914813068279202e-16
3454, 9.417419756466628e-16
3242, 3.371939790537218e-16
2008, 3.389904216771772e-16
1385, 3.475185246578353e-16
1404, 2.364167717759747e-16
1374, 2.848409084872316e-16
2209, 2.423180873721769e-16
1671, 6.665786827929205e-16
1709, 3.107920673779653e-16
2465, 5.296126956871134e-16
1827, 5.176170956478854e-16
194, 2.637164545967799e-16
758, 2.195782826011528e-16
1429, 2.367276116756065e-16
2042, 4.876188350822562e-16
1323, 2.335643338255904e-16
1327, 1.658682977493402e-16
2050, 1.632612825108993e-16
3198, 1.989065249770551e-16
2029, 4.216715849608473e-16
2924, 3.005607404058384e-16
3145, 2.496081946498151e-16
235, 3.608134774430632e-16
2129, 2.672489960227814e-16
1961, 6.135340651636500e-16
934, 2.125216998289093e-16
911, 3.467656356159280e-16
1958, 2.945498588295900e-16
3821, 1.845460730464376e-16
2082, 1.870315027308538e-16
1997, 6.819519820049763e-16
2137, 3.692109495879164e-16
1810, 3.038337707625563e-16
2389, 2.519891703530347e-16
162, 3.247324331983115e-16
3757, 1.275804660918079e-16
3394, 4.286393546074315e-16
2382, 2.263528555720350e-16
1338, 2.752996360806114e-16
1395, 2.416006803743993e-16
1304, 3.771787658497645e-16
1719, 3.431851285057894e-16
1351, 2.761298752416618e-16
2932, 2.781822471355794e-16
3493, 1.807554185339769e-16
1977, 4.151084646193308e-16
2167, 2.889296658990581e-16
2367, 2.435473248391023e-16
2057, 3.767351517756690e-16
3474, 2.675471972411466e-16
1380, 3.221590563107957e-16
1756, 3.771817183852141e-16
256, 3.584941583171650e-16
1443, 2.189342896126984e-16
135, 2.625165884756390e-16
2882, 2.776284629658540e-16
3120, 3.444874068202897e-16
1411, 4.521847691730257e-16
907, 4.232296477126148e-16
3791, 2.805617015369687e-16
261, 2.763582185846833e-16
2378, 2.899571846772649e-16
1772, 2.314954644034304e-16
2435, 2.234846853630149e-16
2909, 5.674128479018989e-16
2103, 3.514222645151010e-16
944, 2.256248387761887e-16
3193, 3.271190957173213e-16
2000, 2.233418019451294e-16
2037, 2.481118349628918e-16
1704, 1.554546646792634e-16
3806, 3.641542043783313e-16
141, 6.120188102952223e-16
1791, 3.900054200674048e-16
1225, 1.449432288238262e-16
2951, 3.131783022421549e-16
1207, 1.901760798222331e-16
995, 3.078953016155073e-16
2281, 2.377238663742445e-16
2960, 5.619221513229811e-16
2133, 4.223960251564840e-16
1200, 4.201884802388132e-16
1370, 2.969467803422226e-16
1377, 2.170889074811183e-16
3665, 2.488267525246924e-16
2093, 2.738187495754792e-16
1745, 2.172057995101243e-16
780, 3.803379273306348e-16
1004, 3.486729244463640e-16
2901, 5.382306981608694e-16
2116, 3.566889008797475e-16
2929, 1.961105342983868e-16
1392, 4.012976430319956e-16
1980, 5.450812606282868e-16
1245, 2.526330447834594e-16
2450, 3.455511151721591e-16
1330, 3.629507318409017e-16
3016, 4.930425937585649e-16
1725, 2.229354623027549e-16
1530, 2.298515124077004e-16
3399, 5.220837798026454e-16
3221, 4.397290394861371e-16
170, 3.407545501676625e-16
2888, 4.776958956881552e-16
2151, 2.436022552911225e-16
2086, 2.844177896891609e-16
2244, 2.129731404021650e-16
2079, 4.607342022084601e-16
1028, 2.289700008571207e-16
3809, 1.774682483152822e-16
2025, 4.958380619261072e-16
2944, 2.503997457364568e-16
2860, 3.743625314067621e-16
3784, 4.818271007103002e-16
2946, 2.459884469865421e-16
1762, 2.096263787903441e-16
2005, 3.003770097944571e-16
1785, 1.972650231944034e-16
130, 2.008865208976570e-16
3167, 1.774754846248303e-16
2415, 3.491308844600895e-16
2469, 2.180819366119636e-16
2978, 3.713744800750417e-16
1426, 4.679030882696854e-16
1316, 4.098288915168541e-16
229, 3.739228595799218e-16
1296, 2.098345726122146e-16
3669, 1.952545762112098e-16
2520, 2.468599138403397e-16
249, 2.519089658694507e-16
2203, 5.179308417841044e-16
2598, 3.094664216353418e-16
3763, 3.309343237042154e-16
2022, 1.733798061408533e-16
152, 2.742867487512135e-16
2895, 2.775948248644263e-16
190, 2.055380063452240e-16
2455, 3.205055886973235e-16
779, 2.744694923186452e-16
3459, 4.307806136043311e-16
3174, 1.895049008776312e-16
674, 3.219460658820600e-16
1172, 3.666909022397369e-16
1414, 3.485560600225745e-16
2574, 2.275557032381511e-16
175, 3.710381659572460e-16
3183, 3.541874393283217e-16
40, 2.203307684908465e-16
2264, 2.704476883478726e-16
986, 2.031103956474229e-16
2270, 1.939766045325063e-16
768, 2.285766864106341e-16
1971, 3.520268126011723e-16
3337, 2.581379508615840e-16
1010, 2.495713799457886e-16
2536, 2.879474149911746e-16
1401, 5.865970881402146e-16
201, 2.381922044379624e-16
2144, 3.300614293895454e-16
1623, 2.140032819718230e-16
1949, 1.436662239313231e-16
2473, 3.269535605218852e-16
2973, 2.762420989127174e-16
3280, 2.524149512304963e-16
2064, 3.265170584620145e-16
978, 5.771524348474386e-16
3710, 2.996912022264179e-16
1423, 2.553451577481395e-16
1455, 2.278026018515462e-16
1866, 2.263782273532127e-16
213, 2.293059558255376e-16
2430, 2.818978744574469e-16
2399, 2.003988367648194e-16
2985, 2.311003674893339e-16
1840, 1.418752353339734e-16
158, 2.308561294010507e-16
3075, 3.861925845509579e-16
2148, 3.184550526992076e-16
957, 4.209721630630020e-16
1893, 3.192358402404472e-16
1722, 4.726254478200503e-16
2967, 1.612469869426135e-16
2922, 2.613465019263122e-16
3848, 2.461186811259477e-16
2170, 1.790204706409936e-16
733, 2.560202789643356e-16
2349, 4.688769947069052e-16
1218, 3.660187735239411e-16
1768, 4.106425943652775e-16
2188, 1.822854702925253e-16
2372, 1.724573071866087e-16
1751, 4.258665708087383e-16
1775, 1.926741483497018e-16
3155, 3.179896693314939e-16
3721, 1.846755449041494e-16
3838, 3.486203498205704e-16
238, 1.751867706404187e-16
1697, 1.710701185526939e-16
1734, 7.785710179052986e-16
187, 3.378884883842355e-16
2039, 3.264448666323402e-16
3799, 2.622628629520184e-16
3862, 2.965905657184681e-16
2483, 5.393542000992170e-16
1183, 2.497048152612277e-16
2479, 3.272656539363232e-16
3859, 4.277986077498712e-16
1990, 4.610830864007606e-16
919, 4.492169149426751e-16
2120, 1.998990189834072e-16
3649, 2.219011373319202e-16
3064, 2.242463990475767e-16
3037, 3.522995728796044e-16
1795, 3.111216761228615e-16
3011, 1.854160294352326e-16
2174, 1.984231367418101e-16
3703, 3.418182838600134e-16
3887, 3.223949368935018e-16
3093, 2.701333075406476e-16
1742, 4.389301756247327e-16
3055, 2.379517493811647e-16
184, 2.889508865734547e-16
232, 2.985259693042078e-16
2322, 2.570496947617762e-16
3842, 3.256073428158985e-16
2996, 3.785929093363019e-16
210, 3.019791827527611e-16
1806, 2.967848359312639e-16
3868, 2.874854430603591e-16
3693, 2.391097208990389e-16
2290, 2.952156885913999e-16
2992, 2.364714846505484e-16
2164, 1.371592461226480e-16
930, 3.042628573896000e-16
1550, 2.326212700066317e-16
1311, 3.548717322951693e-16
1964, 1.824239996900238e-16
2301, 2.014374148083311e-16
224, 3.232154242191072e-16
2356, 2.544944055057390e-16
253, 2.912351012443430e-16
3206, 2.164778895004088e-16
3803, 2.423256253189026e-16
704, 2.242493184707654e-16
1353, 3.025905018029480e-16
1701, 3.335367839041464e-16
3774, 4.146640180577621e-16
2953, 3.179646102988527e-16
2192, 2.725998058725171e-16
968, 4.085320021459699e-16
155, 2.483020451554120e-16
2458, 2.540129263965772e-16
3233, 2.483573454906465e-16
3688, 1.796846916792313e-16
2340, 5.152500752561425e-16
2404, 3.703586615309760e-16
1264, 4.196866772875786e-16
2249, 2.408374825321467e-16
3083, 2.615608267973979e-16
3899, 1.533257309738020e-16
3643, 2.937429841399210e-16
3343, 2.193048063899024e-16
3685, 1.775846097681727e-16
2515, 3.498818801160055e-16
2070, 2.669791730661365e-16
2424, 2.932345741072790e-16
3879, 3.832048211631691e-16
2089, 1.892277477856081e-16
3894, 3.510090016458877e-16
2557, 3.530693854219646e-16
3865, 3.313138463986889e-16
3228, 5.010421889777624e-16
2140, 2.128855401484333e-16
1020, 2.906973671717778e-16
1341, 3.063018432940472e-16
1814, 2.365351267230738e-16
2590, 1.763141310417135e-16
3654, 1.253876027074401e-16
3159, 1.888810092844321e-16
3347, 2.550489134252505e-16
2158, 3.416772239671930e-16
2260, 1.981024436906190e-16
3505, 2.694256845429440e-16
2561, 2.974251813656883e-16
3236, 3.153885490554333e-16
2363, 3.263187611886575e-16
2253, 4.524683271070025e-16
3657, 2.029934073233172e-16
1477, 2.363126902365794e-16
747, 1.849654912823385e-16
2445, 3.191113260909392e-16
937, 2.109701168846424e-16
2578, 4.034347701256393e-16
2333, 3.379128395708317e-16
2316, 2.884171270669884e-16
259, 3.558075376828599e-16
739, 3.108384369708863e-16
2438, 4.263606541979762e-16
1902, 1.678213094822051e-16
2497, 2.294191515599756e-16
3024, 2.257543601046480e-16
3725, 5.303692108576881e-16
2215, 2.807483345518433e-16
1712, 2.502404748618205e-16
2304, 2.938173082777388e-16
712, 3.805144553483845e-16
3824, 2.499341873105211e-16
3129, 2.475980015300287e-16
221, 3.227801612381720e-16
2386, 4.716398647078020e-16
1292, 3.041846011393674e-16
1186, 2.434789711627779e-16
3177, 4.220133459224518e-16
2045, 2.436197485028042e-16
1952, 4.714340911117617e-16
2476, 2.567685429649656e-16
2286, 3.058065854739604e-16
2411, 3.303041270750991e-16
1847, 2.498264833430526e-16
3770, 3.593667471743754e-16
1851, 3.253089521998306e-16
2487, 3.410883995603292e-16
2862, 2.947688216244441e-16
724, 2.513365039106483e-16
1302, 1.888564308474685e-16
1052, 3.273281995375003e-16
137, 2.761478684980941e-16
2198, 2.700936029562689e-16
3249, 2.605565684633475e-16
1031, 2.859650062944427e-16
1759, 2.436354651401500e-16
2531, 3.482563755232765e-16
3239, 3.170146878275000e-16
1235, 2.260915318141077e-16
2941, 3.871045141589871e-16
2319, 2.645252353783993e-16
2096, 4.025906660594872e-16
3876, 2.017298974420104e-16
965, 3.284850953771582e-16
3028, 2.533654817145869e-16
3680, 1.616226125778601e-16
2183, 2.990496416782785e-16
1803, 3.136162781435212e-16
1912, 3.608659331159938e-16
2267, 4.251096536002589e-16
3115, 1.822053141222219e-16
245, 3.307581813566485e-16
178, 3.612307375550681e-16
1383, 2.406305034155509e-16
991, 1.914936005901302e-16
1192, 3.343673841644967e-16
3098, 1.741872604370247e-16
717, 3.472962319284170e-16
607, 2.683834724919443e-16
692, 3.222871445495993e-16
204, 2.560007922528672e-16
2346, 4.475929504588455e-16
953, 2.450099189582625e-16
2210, 4.174691447178149e-16
916, 1.829312542599740e-16
663, 2.557099105686421e-16
2551, 2.204577962045314e-16
632, 2.388036360591086e-16
3042, 2.374255665260884e-16
2308, 2.952217185373259e-16
197, 3.976689973395391e-16
1283, 2.297590066641461e-16
3108, 2.145434475622379e-16
3124, 2.995953034770181e-16
3196, 3.064352249405574e-16
2508, 2.324491278733370e-16
3890, 2.799519488570793e-16
3272, 1.593592449748856e-16
3331, 2.410803892372874e-16
1203, 2.640518125862545e-16
1039, 3.278029503826836e-16
3897, 2.148744709152977e-16
149, 3.692107618285270e-16
3089, 2.068500730777070e-16
1871, 2.809098335675872e-16
2241, 2.951865199167983e-16
658, 2.238038752100917e-16
3788, 3.014711787673377e-16
2278, 2.429082423064484e-16
1765, 3.275354657673141e-16
2541, 4.201874319313116e-16
2511, 2.622716980520799e-16
2185, 2.068012571340967e-16
2706, 3.148283087298697e-16
3218, 2.602299093858354e-16
2294, 2.641718624552996e-16
1748, 2.465544317023812e-16
654, 3.267573550172696e-16
641, 3.907421509174309e-16
1510, 3.742099817617209e-16
3147, 3.185757753026610e-16
2501, 3.112912922465163e-16
2327, 4.412564562400143e-16
2359, 2.703294979708452e-16
615, 2.960337600858275e-16
143, 4.122344559623858e-16
1289, 1.598699834523520e-16
2911, 2.560517803974157e-16
2219, 3.142947506486670e-16
1254, 2.498352257049258e-16
2565, 1.864078665996054e-16
1213, 3.553671739805018e-16
1001, 3.886425654448676e-16
165, 3.066517586736372e-16
2080, 1.638511632246689e-16
542, 2.222394888936804e-16
3881, 1.306302588561089e-16
776, 4.354686222742591e-16
2999, 2.229139139675842e-16
3291, 2.740654186139164e-16
1278, 2.308355504560087e-16
2581, 1.575513781989186e-16
574, 2.285301395369335e-16
3111, 3.280573525947570e-16
1817, 2.962826842310554e-16
1934, 3.288425792365012e-16
588, 3.713932458582974e-16
3295, 4.137339820411703e-16
3224, 2.868927854799829e-16
669, 3.292050683620573e-16
1937, 2.501177261507021e-16
677, 2.585446895334878e-16
533, 3.898495019281582e-16
1781, 2.832653860030004e-16
2232, 1.696988502847651e-16
1269, 2.638775718246212e-16
1547, 1.854635599368317e-16
3070, 3.496559848234657e-16
3136, 1.937556142325315e-16
556, 3.028815777221514e-16
2493, 3.555170410996582e-16
998, 1.885924778169720e-16
3363, 2.678444028927363e-16
3340, 2.988892191320960e-16
3366, 3.510511779215160e-16
2587, 1.545347799679282e-16
1822, 3.511450900344367e-16
2225, 5.394497657533196e-16
2176, 2.884454398792785e-16
2647, 2.184719164138840e-16
3816, 3.655863023709641e-16
3287, 2.190804019864141e-16
2505, 2.892447036775695e-16
3350, 2.610733768499490e-16
2427, 2.720276958915033e-16
2876, 2.652326426226839e-16
3257, 3.151317537474200e-16
3215, 3.782962038899563e-16
1930, 1.656372406502622e-16
2337, 5.228143949121295e-16
2546, 4.339044089898830e-16
3313, 3.747718388293264e-16
3302, 2.969153939354670e-16
743, 3.408439651216499e-16
1335, 1.434485969860763e-16
1789, 1.949944396795052e-16
721, 1.696075094363629e-16
763, 2.076203424719818e-16
3202, 2.356749123093168e-16
3357, 3.413112249681212e-16
1299, 3.832997069834823e-16
552, 1.788636903182947e-16
523, 2.389126989630161e-16
3021, 3.667926980768259e-16
2418, 3.443676499084568e-16
2702, 3.261908334273511e-16
752, 1.306927644863468e-16
568, 2.733392886864704e-16
772, 3.090871247374181e-16
2528, 3.146246934235721e-16
2396, 3.009748333391464e-16
2612, 2.539048412184176e-16
2408, 2.041559940638992e-16
2206, 3.202424858023556e-16
1197, 2.003965452550780e-16
3307, 2.208614493581092e-16
1241, 3.884412524134561e-16
581, 3.263523503818034e-16
2421, 2.541743946597289e-16
1832, 1.885825263878827e-16
1513, 2.323891520884579e-16
2570, 1.759614479922701e-16
2353, 3.530160166445138e-16
3046, 2.026069300808627e-16
2525, 2.386603460070341e-16
2105, 2.124328450066705e-16
2620, 1.772274739168173e-16
3277, 2.518561365257995e-16
226, 3.705998338282154e-16
1238, 3.907199962258295e-16
2229, 2.222247242953115e-16
981, 2.066526237759412e-16
3190, 3.544598604504486e-16
2311, 1.696425737345845e-16
2154, 4.947378532345001e-16
2393, 4.572176219406527e-16
1731, 2.025422653452518e-16
2283, 2.048128627020848e-16
3283, 2.215123923996934e-16
1261, 2.113376909132925e-16
3104, 2.584713259727678e-16
2643, 2.652478926930896e-16
1170, 2.398332688334470e-16
545, 2.474348200618578e-16
2490, 5.196807803469263e-16
3855, 2.345318136348815e-16
3080, 2.233709559834268e-16
3675, 2.613540325996246e-16
3360, 3.031583348555515e-16
1694, 6.137927486877206e-16
1854, 2.089141567990723e-16
2274, 2.003533610066021e-16
1924, 2.903053127683099e-16
3884, 3.062830331326602e-16
689, 3.227750493073800e-16
602, 2.407008100946652e-16
3782, 2.708347294997398e-16
1251, 1.612134870482565e-16
3662, 2.904646300068624e-16
3742, 2.071267325788710e-16
3268, 2.516801302396947e-16
3264, 2.488694195094699e-16
3311, 2.974157770158280e-16
1555, 1.831485582450342e-16
561, 3.354012269961094e-16
1906, 3.209288009025042e-16
1496, 2.463277542556442e-16
3718, 1.916991389389950e-16
2222, 2.465866885448836e-16
3142, 2.351932331722727e-16
2470, 4.302018761778894e-16
1533, 2.906950067610993e-16
3731, 1.719975908542308e-16
2716, 2.421509386040473e-16
913, 2.139641140969756e-16
2593, 2.656121404629708e-16
976, 1.831229405690461e-16
3051, 1.587971956689869e-16
1228, 3.672517928579362e-16
1025, 2.183190365667553e-16
564, 1.457114751649082e-16
1520, 3.603693325147621e-16
645, 4.076228942422145e-16
3715, 2.335566098999174e-16
1179, 2.903022807888919e-16
2122, 2.793195985937556e-16
3086, 2.639753257114656e-16
3327, 1.910259145965800e-16
2236, 3.322889551448826e-16
2555, 4.178053341775379e-16
1843, 3.927393613127980e-16
584, 1.424116712258453e-16
2298, 2.838955577613128e-16
2195, 2.967542132319066e-16
3322, 3.590448023835363e-16
1943, 1.779976890464910e-16
940, 2.313900318709162e-16
1883, 2.497985045207990e-16
3211, 2.258358455445256e-16
1527, 2.118056554207697e-16
3735, 2.202271182352960e-16
529, 3.060609307674531e-16
1888, 1.655056544113786e-16
1753, 3.414002006507007e-16
2452, 2.070234423737304e-16
1874, 2.170727889702655e-16
2257, 2.225018597422453e-16
1222, 3.102484406365158e-16
2467, 3.567990192427092e-16
2687, 2.633838556521212e-16
3180, 1.515617324679492e-16
3378, 4.138549511600019e-16
1859, 3.206210680531394e-16
1018, 2.880647079257833e-16
1885, 1.818549659795462e-16
660, 2.353930576863493e-16
3836, 1.836398096695624e-16
680, 3.899616791974115e-16
3101, 1.813497995168861e-16
3253, 1.913259894926816e-16
947, 2.410558892443624e-16
1879, 1.756311868534433e-16
1485, 3.723031367910367e-16
749, 1.520203454102953e-16
1706, 1.128216310351752e-16
2335, 2.460691475576033e-16
3797, 2.155243135794552e-16
1439, 2.131038230403573e-16
962, 3.350705848526412e-16
611, 2.831446131639491e-16
2201, 1.999288349497566e-16
666, 2.990840424060273e-16
727, 2.983161098099137e-16
3369, 3.200220588578501e-16
3165, 2.924666539594711e-16
1286, 2.076928478126246e-16
3246, 1.727473768065449e-16
1537, 3.552252478123879e-16
699, 2.603229003306632e-16
2601, 2.435622735055293e-16
539, 1.820063074364495e-16
536, 2.443312181182806e-16
3375, 2.840826382494655e-16
2667, 2.028790317598000e-16
1896, 2.883983348310315e-16
2595, 2.844176178185964e-16
2584, 2.699664304872852e-16
1919, 1.988968590969325e-16
247, 2.217753882389701e-16
1164, 2.612569936815755e-16
683, 2.051006145618693e-16
622, 1.444963267689056e-16
2246, 3.057805563332862e-16
2868, 2.551659793601507e-16
3002, 2.774803337753351e-16
626, 2.923863201071316e-16
2609, 2.314455761167203e-16
2627, 2.772470261941290e-16
3261, 2.395692426774749e-16
988, 2.591371655622747e-16
2314, 3.544701921142203e-16
3058, 2.355155665999884e-16
2135, 3.732259721740218e-16
3334, 1.624321346790606e-16
1915, 2.419540398406621e-16
591, 3.154287103608011e-16
2238, 1.581345870911213e-16
3320, 2.236993730451981e-16
3747, 2.180598677219768e-16
598, 2.055942496393347e-16
3672, 2.992445990957094e-16
3209, 3.167591367050467e-16
3126, 3.933711006271926e-16
3298, 1.841504322812464e-16
714, 2.271001679889481e-16
730, 2.832346122177060e-16
3230, 3.017047659534217e-16
696, 3.399944149753301e-16
3769, 4.376046649885503e-16
702, 2.570188978836771e-16
2712, 3.174351146025003e-16
2499, 1.691130896608895e-16
3707, 2.950761369840015e-16
1463, 2.327692456619154e-16
526, 1.547324193528619e-16
1909, 1.237846611028747e-16
3317, 3.505364581969687e-16
1448, 3.360583059220731e-16
3754, 2.926017059273204e-16
2375, 3.212343878908076e-16
3760, 1.607689141915863e-16
1921, 3.326516484814291e-16
520, 3.376043834247582e-16
959, 2.005857182036286e-16
2544, 2.446432647222494e-16
1007, 2.395418209299338e-16
2369, 2.683709583555447e-16
1471, 2.284114575193713e-16
3067, 1.563817965293335e-16
2605, 2.281206866037447e-16
2433, 1.546417338485674e-16
1837, 1.743638818003355e-16
19, 2.401079383632990e-16
2727, 1.977997449133741e-16
3776, 2.138146745071309e-16
736, 2.671371408082389e-16
3646, 1.490529938361774e-16
3014, 2.549505133970410e-16
3738, 2.622907313822010e-16
3372, 1.946749525441811e-16
629, 3.730462554582847e-16
1474, 1.043518059868351e-16
16, 1.502353407471139e-16
605, 2.000874570870391e-16
3819, 1.532256732569328e-16
3005, 2.502942859193972e-16
1210, 2.607055871055131e-16
549, 1.817653032634288e-16
3250, 3.173080442181444e-16
619, 2.324994086882051e-16
2402, 1.359547922323963e-16
3640, 2.772561592532851e-16
3691, 2.255949109625403e-16
651, 2.225849958058337e-16
3274, 5.876564317940850e-16
2631, 4.485468618323696e-16
64, 1.974717905264087e-16
3095, 3.167057393863099e-16
1824, 3.515217697533141e-16
3061, 1.251623080502271e-16
2549, 1.954544668623106e-16
103, 1.386877151746872e-16
1869, 4.323937579609297e-16
3766, 2.662432617898717e-16
636, 2.477141022926559e-16
806, 1.784350921490540e-16
922, 1.775246039867999e-16
571, 3.904570635713869e-16
1458, 4.962291427769524e-16
44, 1.841704573109041e-16
1863, 3.656056240326453e-16
9, 2.478383280374696e-16
2329, 2.387108280623442e-16
3118, 1.097716597086075e-16
2616, 2.196260321490133e-16
2518, 1.302894870162390e-16
648, 2.686432397174542e-16
2658, 1.716570470722130e-16
3699, 1.978909141974617e-16
1451, 2.001807508827750e-16
3382, 2.678544132705539e-16
2213, 1.639090270712860e-16
28, 1.182400190003677e-16
2662, 2.755299340351261e-16
3696, 1.190892481091567e-16
2534, 2.667781474707404e-16
2075, 2.862161864485671e-16
2640, 3.098820904709743e-16
1491, 3.957544939296831e-16
3077, 2.355608081134655e-16
1435, 1.099806701156498e-16
123, 2.475900049507064e-16
3751, 3.677886299775228e-16
1500, 1.996622339946934e-16
1468, 1.504820255032764e-16
2568, 2.411825499856334e-16
595, 2.349211737136088e-16
2689, 2.717697100739788e-16
1216, 1.848494690598436e-16
1177, 1.347987734954241e-16
2709, 2.060026600770296e-16
558, 2.229698616039175e-16
3031, 2.066402945995807e-16
1927, 2.937636039913687e-16
6, 1.794802010640340e-16
85, 1.813002381524633e-16
1946, 2.223483250612761e-16
2650, 1.481640650867239e-16
2292, 1.458715605890246e-16
2655, 2.215748094614685e-16
132, 3.142904592114882e-16
2692, 2.246169895469559e-16
2674, 1.801921656173889e-16
755, 1.118393710648823e-16
48, 2.939443261631001e-16
774, 1.716175908116548e-16
1797, 2.094377864027598e-16
1940, 2.458705218357341e-16
31, 2.636669464815811e-16
2635, 3.109015632302236e-16
3354, 1.789890541817968e-16
106, 1.109216893486270e-16
2670, 2.447414213528031e-16
3325, 2.178268723008135e-16
2624, 3.287206699983453e-16
1899, 1.764641613431845e-16
61, 1.328009704165453e-16
1248, 1.846489192315148e-16
1013, 1.963549949550677e-16
765, 3.254974152373646e-16
0, 1.160894377158834e-16
115, 4.044574398740792e-16
1540, 2.577161280187566e-16
1508, 1.195683029506687e-16
110, 1.391525562978876e-16
36, 1.092157017691052e-16
2722, 4.238213902175562e-16
2351, 1.413786760861079e-16
3304, 2.531146363665849e-16
1445, 1.927813110873943e-16
3509, 1.547688724582507e-16
22, 1.305582112494551e-16
1280, 1.590927669593726e-16
2695, 3.030605230730556e-16
57, 1.281399402322593e-16
1517, 1.628188357059664e-16
2677, 2.252670659455321e-16
1558, 3.449928810746503e-16
1482, 1.703610715101947e-16
3682, 1.598041306158169e-16
3040, 9.807258390478422e-17
3034, 2.937738978897786e-16
90, 1.187167715670688e-16
2719, 1.378737904678777e-16
67, 2.261710140273520e-16
1275, 1.165361256577545e-16
1258, 1.019079018060791e-16
2927, 2.118646417201665e-16
3259, 1.864300989753025e-16
100, 1.504485169963153e-16
1552, 1.414496890439615e-16
639, 1.468794321787481e-16
1830, 1.945245158916229e-16
2339, 8.469084925608710e-17
76, 1.122575208797897e-16
2664, 2.505284061688542e-16
52, 2.148603637657733e-16
391, 2.301760564691941e-16
97, 1.725774126048888e-16
1857, 9.528202361138668e-17
928, 2.184998607915686e-16
25, 2.178667147243383e-16
2990, 1.141484854557219e-16
3728, 1.566923658262985e-16
578, 1.898838933660331e-16
1037, 1.413680950270667e-16
3744, 1.674080126747888e-16
1461, 1.492654860365952e-16
2618, 1.845358930729309e-16
2725, 1.379856764733863e-16
80, 1.406972504112775e-16
2603, 1.317035586891570e-16
12, 1.530988923803216e-16
2682, 1.643918099682616e-16
1432, 2.456890157852005e-16
1174, 1.260534632822786e-16
120, 1.357864720284652e-16
54, 1.278876852560674e-16
1430, 1.788004427566490e-16
613, 1.780457938158822e-16
1690, 1.274988993531161e-16
649, 2.274154304649528e-16
1189, 1.885482297075420e-16
3, 1.798581727797276e-16
650, 1.408049897310259e-16
1272, 1.067936801726292e-16
2680, 2.736596815379250e-16
70, 9.838918871984868e-17
1523, 2.022356652397876e-16
3870, 8.396366656262015e-17
3119, 2.010268558712747e-16
2699, 1.247587374650071e-16
3659, 2.773797432529673e-16
127, 1.997954853451840e-16
94, 2.760375391797280e-16
1480, 8.513870212449253e-17
3712, 6.997211853650805e-17
367, 7.472114887065012e-17
517, 8.089687937915450e-17
117, 1.213708798349623e-16
3049, 2.693400393522877e-16
1812, 1.400941899517822e-16
2091, 6.248377316093544e-17
2989, 2.664220793641464e-16
1891, 7.219888217613055e-17
1266, 1.162670787554111e-16
129, 6.056656447710968e-17
3122, 9.306010547236525e-17
73, 1.829315964164395e-16
1502, 9.880254595990924e-17
521, 1.436749211829220e-16
891, 6.125694887031462e-17
1820, 2.020654544308957e-16
1969, 1.919597921451399e-16
2729, 7.842196289589630e-17
2481, 5.879433338955636e-17
34, 8.946398313975934e-17
1428, 1.117546950754477e-16
2599, 7.211553873270966e-17
3651, 8.529664703410191e-17
2637, 9.430061206833972e-17
3251, 7.165947971494801e-17
87, 7.954757155048593e-17
3248, 1.371323621922859e-16
3638, 3.582316486291883e-17
586, 8.692676318433408e-17
2652, 7.830069073338357e-17
258, 5.122110931467462e-17
3379, 5.380928152289069e-17
468, 7.552655131054007e-17
781, 5.544069316774561e-17
112, 5.439679992861672e-17
2731, 6.996193696554676e-17
910, 4.745078195402096e-17
1687, 6.033718373163103e-17
1559, 7.490866538339780e-17
3113, 2.577841101301597e-17
46, 4.803970108090788e-17
2208, 3.644799872389564e-17
3772, 4.010330631541459e-17
2384, 4.357110913411252e-17
388, 4.717976722834622e-17
671, 3.062782975104716e-17
1194, 2.842840813876908e-17
1437, 7.567111168049980e-17
2994, 3.290555924800816e-17
3386, 3.406779912484248e-17
2211, 2.316027646499124e-17
3768, 2.628970751018138e-17
1298, 3.563460113303709e-17
1306, 3.811971134261144e-17
1564, 2.509537016712758e-17
2027, 3.594358343418300e-17
