448, 2.134948450810399e-14
408, 3.094933153830602e-14
466, 2.506677073697858e-14
418, 2.755241079062405e-14
435, 5.106134427712910e-14
402, 3.572494632368439e-14
390, 3.201951314155167e-14
452, 5.064514870641944e-14
398, 2.364627494750398e-14
471, 5.054299268331089e-14
439, 3.989411383373278e-14
420, 2.647538857754696e-14
430, 5.748158922562120e-14
482, 2.561335467192890e-14
456, 5.288219243222244e-14
393, 3.045945691995608e-14
427, 3.923395572423267e-14
405, 7.149636167595377e-14
396, 3.605573907367610e-14
411, 3.392989454888099e-14
460, 2.577626667062780e-14
1663, 1.567192584930794e-14
424, 3.161847663461725e-14
514, 3.429552139867154e-14
446, 3.125632898163275e-14
1625, 2.311797243960285e-14
519, 2.632514342663872e-14
1058, 1.686685833788331e-14
1579, 1.883757572103817e-14
1677, 1.669344502512417e-14
1099, 2.646283581875969e-14
1667, 1.667666723931230e-14
1127, 2.062490591078581e-14
1570, 2.351551290810249e-14
1152, 1.872173388903810e-14
1660, 1.873859274632746e-14
1567, 2.938804203839953e-14
1621, 2.371410377479772e-14
493, 2.105393895639274e-14
1607, 2.587386127102028e-14
1092, 1.773802141653932e-14
1612, 1.864994179947989e-14
1132, 2.657076323907630e-14
1044, 2.045963800865817e-14
509, 7.607238237002954e-15
1654, 1.795807176590888e-14
1076, 1.961419608990626e-14
1112, 2.520854699104315e-14
1585, 1.132928283062609e-14
1139, 4.402078381193967e-14
498, 9.830136120258576e-15
1169, 2.659517414135699e-14
443, 7.218658682335200e-15
1149, 1.863770921437806e-14
1096, 3.173034376349658e-14
1146, 2.843407253599979e-14
1616, 2.289767398177021e-14
476, 1.538762979679398e-14
504, 9.171403331803795e-15
1562, 1.317845703166805e-14
490, 6.597449102605508e-15
1166, 2.843800037016011e-14
1135, 2.355600067658813e-14
1582, 1.615749943828917e-14
485, 8.009587509191899e-15
496, 1.201290494357371e-14
1602, 2.104666398538323e-14
479, 1.320317689958440e-14
469, 1.029376870913436e-14
1647, 1.404702823246193e-14
1637, 2.011955049734517e-14
1087, 2.159324681261344e-14
1633, 1.611619002861853e-14
501, 9.556054728661574e-15
1657, 2.289694225227804e-14
1679, 1.794013521381830e-14
1642, 2.465316858959853e-14
511, 8.009491971234770e-15
1651, 1.415375365819270e-14
1071, 2.344037715912787e-14
1084, 3.356718711730980e-14
1589, 8.744317346284676e-15
1573, 1.628529809683974e-14
1687, 1.475591847681693e-14
292, 4.371115630508133e-15
1670, 1.140824942429434e-14
1596, 1.560128864157819e-14
1683, 1.773948900542517e-14
433, 5.802530988839288e-15
358, 5.621464043649350e-15
1629, 1.566477902458125e-14
1605, 7.509995498528768e-15
517, 8.787785870179222e-15
275, 6.105300728140170e-15
1639, 1.241794250968856e-14
1576, 9.040126789859672e-15
311, 7.800487027371345e-15
1592, 9.819464340002191e-15
1162, 1.972817637778863e-14
322, 5.653120069465573e-15
463, 1.287797033907663e-14
284, 4.723796742586878e-15
415, 5.050033720982507e-15
1599, 2.742717168242411e-14
1159, 1.569157176522313e-14
346, 6.350090405534912e-15
1123, 7.621183176410304e-15
302, 7.084902753422984e-15
267, 8.984826884945107e-15
1674, 1.781151933771972e-14
340, 1.013725014685501e-14
317, 7.196671577721326e-15
297, 5.079902592278022e-15
389, 6.371232275851543e-15
877, 1.549493985545446e-15
279, 1.047204196506290e-14
334, 9.167274533810500e-15
1063, 7.953878040660760e-15
263, 7.128851870798952e-15
307, 1.178946643374976e-14
1627, 7.626800195363028e-15
288, 8.428025420653785e-15
381, 6.772892219495882e-15
1107, 8.600034906584561e-15
350, 6.953644319762685e-15
271, 9.486519465631310e-15
391, 4.235589848096037e-15
1116, 6.609395804041393e-15
314, 1.313251549711760e-14
325, 1.026347182510608e-14
299, 9.730100515977812e-15
375, 7.006407542351732e-15
1564, 8.447837578533123e-15
281, 8.367719924914086e-15
331, 5.811485689872526e-15
269, 5.418408103614240e-15
294, 1.020189012071672e-14
356, 8.267115434398085e-15
1067, 7.158287555127146e-15
1080, 8.320295758762074e-15
1610, 6.871465131120693e-15
1050, 8.796343262546050e-15
1645, 6.517106969163270e-15
792, 1.308142741677117e-15
804, 1.755317629410259e-15
1047, 4.708068417188989e-15
1685, 6.812719727752494e-15
487, 2.238887828025300e-15
868, 1.356139090086495e-15
1119, 6.907514751922819e-15
820, 1.560335874532093e-15
857, 2.730399906097673e-15
1054, 6.008369943822307e-15
1143, 4.365100069068541e-15
872, 1.234044891659122e-15
353, 5.540804421005535e-15
798, 1.700381093256279e-15
908, 2.163461388154512e-15
853, 2.159660270414622e-15
810, 2.161848442399504e-15
865, 1.932780648425898e-15
846, 1.048791158728743e-16
1103, 2.801349832950396e-15
1157, 9.027879135640777e-15
817, 2.752727621434855e-15
1060, 6.848109329668959e-15
1030, 1.420772240613163e-15
898, 2.677207924973514e-15
1074, 3.646197489332794e-15
783, 2.722016128037069e-15
787, 2.309253767482514e-15
163, 9.132483784364976e-17
903, 1.736570079077436e-15
2045, 1.024049371881243e-16
838, 2.337992123208510e-15
1560, 4.764490686740122e-15
1966, 1.158219249795238e-16
1090, 3.589958223110330e-15
1129, 6.728816174407945e-15
1333, 1.872545594594311e-16
795, 2.082224050086804e-15
1531, 7.416646655593477e-17
789, 1.413971431508570e-15
1689, 1.209266420208160e-16
874, 1.472889739428290e-15
320, 2.278856183104737e-15
1016, 9.863049898634908e-17
1168, 2.495719146590548e-15
1040, 4.336670226477370e-15
885, 1.984381525190920e-15
880, 2.212055600383389e-15
1355, 2.126412084517004e-16
371, 2.470824402061546e-15
363, 2.154186313593270e-15
343, 1.676909695776200e-16
827, 1.740109749980609e-15
931, 7.335151467505484e-16
1414, 1.255271540557718e-16
1300, 1.535365774331253e-16
830, 1.767250261571636e-15
518, 2.091271064078269e-15
861, 1.068590583532657e-15
2092, 4.032697505117780e-16
2128, 1.105495873493203e-16
2079, 2.248847104266774e-16
813, 2.583544712786579e-16
1690, 1.299066829532515e-16
367, 2.685962117557406e-15
2302, 1.257707457792256e-16
894, 2.157267474385731e-15
385, 1.516153655960307e-16
996, 1.213797815072477e-16
378, 2.571494274030231e-15
1154, 1.281812532796802e-15
916, 2.169970131000736e-16
2200, 9.895555259459873e-17
260, 3.944592010487197e-15
1759, 1.845507596068582e-16
1712, 1.495063672057731e-16
835, 1.995413747331010e-16
242, 1.360360851443535e-16
250, 1.294143352788320e-16
964, 1.882369352161964e-16
925, 1.233419647332227e-15
841, 1.523499918973854e-15
1305, 1.264823034971889e-16
1342, 1.239677960552697e-16
1319, 3.484731830594573e-16
2010, 1.642240130555626e-16
1733, 1.654523636008840e-16
1110, 2.703909765425904e-15
1425, 2.529096915553278e-16
1311, 3.200249910504753e-16
948, 1.146903067082990e-16
337, 1.387525588972460e-15
365, 2.907676089320305e-15
2056, 2.212092714177190e-16
1420, 1.539514295945244e-16
1052, 1.750163107580646e-15
1469, 1.378889225284998e-16
2022, 1.814856731144887e-16
1196, 1.719420786877406e-16
1727, 1.799467484083702e-16
1957, 1.114354085070678e-16
1387, 1.792273696638952e-16
2109, 2.475942342418864e-16
2072, 3.340104242989438e-16
1775, 1.331630521943296e-16
2006, 2.189040120004355e-16
387, 1.490607388923756e-16
1525, 4.013142322320363e-16
2038, 4.209957471791985e-16
824, 1.441165789691873e-15
1180, 1.141055258981500e-16
921, 1.225655441857864e-16
1377, 3.746553424930314e-16
849, 1.310743517859756e-15
1953, 1.421843980992985e-16
328, 2.225653985576206e-16
2168, 2.496628253009273e-16
1010, 1.709542235941450e-15
1974, 4.273086423528007e-16
891, 2.217462653514520e-16
1381, 2.220148652333624e-16
1766, 1.776085328782899e-16
889, 8.813686032730412e-16
1000, 1.650524306657597e-16
1042, 1.677925062813723e-15
1994, 2.442656198130457e-16
2032, 1.669780564161861e-16
1748, 1.249858072344926e-16
1698, 2.035299090556025e-16
1982, 3.213572612542576e-16
1348, 1.860304679227375e-16
1293, 5.355246103236462e-16
1394, 2.090372605417338e-16
1800, 1.130422996761088e-15
1360, 2.485454283967496e-16
1324, 3.462456842988729e-16
801, 2.941800767773144e-16
2186, 3.300968367214866e-16
940, 1.598605740710916e-16
1365, 1.741253220233704e-16
1693, 2.206340373524028e-16
1314, 2.222036215533370e-16
1477, 2.035151148371042e-16
1271, 1.871599462101735e-16
2274, 1.291210791215065e-15
2114, 2.852724914899166e-16
843, 1.981204024435288e-16
1618, 4.343091734761510e-16
1403, 2.494180384250852e-16
1039, 5.340206341176995e-16
1351, 3.327221927859259e-16
1998, 2.147852015238516e-16
1987, 2.806796913508137e-16
2067, 1.521437527570276e-16
1805, 3.158617220810105e-16
1723, 3.008935166934132e-16
2245, 1.869223451674561e-15
1917, 1.661860186757678e-16
2062, 2.501750802281736e-16
1345, 2.324274990422094e-16
1813, 1.486699102861225e-16
2015, 3.611612825437925e-16
1977, 2.642467375127333e-16
1784, 2.511448336555931e-16
2075, 1.247392849053088e-15
204, 4.610376853254484e-16
807, 1.628914925469069e-15
774, 2.073631247286713e-16
1410, 1.988752927988861e-16
1875, 3.373980711883676e-16
1337, 4.264698563264626e-16
2148, 1.074989361034366e-16
1023, 2.715789609627960e-16
971, 1.307602671227138e-16
1428, 2.660083535772752e-16
1741, 2.484853798738689e-16
883, 6.636024689124824e-16
2051, 2.941403108739239e-16
1708, 2.001809524820714e-16
959, 2.293174511967642e-16
1554, 1.589009771787993e-16
1417, 3.955991163385083e-16
955, 2.790889615153565e-16
832, 8.660202999000470e-16
715, 2.680239346431697e-16
2142, 2.698520116475522e-16
1329, 3.286805553333114e-16
2002, 1.704632368018959e-16
909, 8.256761312322311e-16
983, 2.378168889330661e-16
1399, 3.140521038205876e-16
1970, 2.624311160124276e-16
780, 2.013295620142321e-16
1769, 3.345715403385997e-16
1373, 3.307144366029888e-16
1962, 2.911097467342187e-16
1277, 3.045079004967050e-16
1510, 2.304050814363877e-16
170, 2.139488738994566e-16
1391, 1.414470284721870e-16
2042, 2.846859124369334e-16
1991, 3.784009106123147e-16
1034, 2.044268450179462e-16
1006, 5.730405920563921e-16
2177, 1.654505439965176e-16
2318, 6.789330636193067e-16
1794, 2.811923209144173e-16
153, 3.233850028828939e-16
951, 3.987943026103349e-16
1170, 3.873134931545661e-16
2025, 2.171450936457539e-16
184, 2.202033440570062e-16
1756, 2.588710031165205e-16
1738, 1.095026609860622e-16
2019, 1.597591755792540e-16
1237, 2.431509603572612e-16
209, 2.737250060945467e-16
1498, 3.438989987952135e-16
1191, 1.160454760595918e-16
138, 4.057478470143176e-16
1950, 1.377808897446222e-16
2123, 4.285993846404511e-16
2028, 2.228306265685479e-16
1368, 2.113586554870100e-16
238, 1.645351757855313e-16
2180, 3.085756066246536e-16
1339, 3.346581498476337e-16
2190, 3.084045357246534e-16
259, 1.192221852288541e-16
961, 2.120518852079950e-16
180, 1.229597307735648e-16
2158, 2.423760012191180e-16
2103, 3.776758806390654e-16
1241, 1.702124691399799e-16
1308, 2.512007615741475e-16
2256, 2.285184139335818e-16
2119, 1.691181768837787e-16
758, 2.370541773598110e-16
1819, 2.897370272674176e-16
934, 2.025101754151152e-16
2054, 2.326246906706153e-16
245, 3.135578723596772e-16
1763, 3.533516114328947e-16
156, 3.149952397236423e-16
1224, 2.024548398338388e-16
901, 5.585113702215199e-16
1985, 2.515347490110546e-16
1407, 4.464496777735587e-16
742, 4.613299995542796e-16
1854, 3.848906704563152e-16
993, 1.363232789906615e-16
2012, 1.297033721979316e-16
659, 3.076191436419928e-16
174, 2.571199520097651e-16
2048, 2.693821872172894e-16
160, 4.426986175119166e-16
2105, 2.929748142533321e-16
255, 2.446285132146129e-16
261, 4.734526351554960e-16
134, 7.082567282626306e-16
2197, 1.636246088251370e-16
2162, 3.329032407521135e-16
1216, 3.041668842185752e-16
1816, 5.007486561169330e-16
655, 1.517787067745860e-16
1321, 3.270683243500637e-16
1701, 5.010474041216426e-16
1715, 2.695128985572501e-16
1384, 3.556723647037930e-16
2204, 3.519676730859401e-16
2100, 4.271456085375605e-16
2035, 1.461590144685214e-16
224, 1.383849542649866e-16
968, 4.054122958990182e-16
1233, 3.388358888240762e-16
2286, 1.770417947407241e-16
2085, 3.060071644149905e-16
627, 1.640277445483548e-16
937, 2.080906584251662e-16
726, 2.461737096229503e-16
2297, 3.063865527350045e-16
229, 2.583671124969351e-16
1826, 1.960283538799502e-16
2060, 2.067993316928625e-16
2266, 3.148537076138352e-16
2080, 2.050166472543847e-16
248, 4.226375577920123e-16
1175, 1.022031339474275e-16
1432, 2.539695543580625e-16
1205, 3.641116636811972e-16
1932, 4.640333317770394e-16
1302, 3.028949283181505e-16
2193, 3.254557956413719e-16
1960, 3.036278621645695e-16
1397, 3.604709641382551e-16
2331, 2.655077280503042e-16
1358, 2.364500640895292e-16
2173, 1.236146453707257e-16
1779, 1.858232563261493e-16
1266, 1.470452863261248e-16
216, 2.049733790683651e-16
2152, 2.994975496904075e-16
2096, 3.390271249107592e-16
2280, 4.602997960765755e-16
2239, 2.409630901925906e-16
663, 2.710993989052268e-16
1871, 2.458920095826996e-16
2133, 2.409627572828371e-16
1521, 2.169725147012873e-16
1808, 4.243739191508107e-16
2269, 1.687537048430745e-16
1551, 1.128910984786278e-16
2283, 3.057021518219397e-16
2224, 3.604125486492894e-16
189, 2.540041559929939e-16
233, 1.977279174556700e-16
220, 2.272168113190304e-16
1845, 2.142229438107955e-16
911, 1.920101495376418e-16
1101, 3.559418151522200e-16
2135, 1.765937284484245e-16
1422, 3.189154485455477e-16
1851, 2.729363455184293e-16
2213, 3.011049222578640e-16
621, 3.349553051562579e-16
2069, 2.350451846807980e-16
1229, 2.314970215159976e-16
1882, 1.924282047166826e-16
2229, 2.575533330534923e-16
779, 2.496730232069893e-16
1752, 2.571771856625186e-16
1250, 2.267238372340229e-16
645, 2.900432341734235e-16
1561, 4.245728626911685e-16
200, 3.602349180971518e-16
186, 2.620183645423923e-16
166, 1.258208328131474e-16
1920, 1.672140477878403e-16
1841, 3.420045448357907e-16
2338, 2.160410569076106e-16
1254, 2.455358678067079e-16
945, 1.716543807846652e-16
2249, 1.163440502783394e-16
1744, 1.001839271272094e-16
142, 3.694367064967355e-16
2236, 2.398407881756618e-16
1488, 1.991026164952385e-16
1027, 3.855679248464740e-16
1371, 1.724335167837133e-16
562, 2.923380744681352e-16
2083, 1.675761620963261e-16
2309, 2.007538455716767e-16
739, 2.286943053922194e-16
1446, 2.254161125609905e-16
1443, 2.794959613936153e-16
2334, 1.594615035108870e-16
2216, 1.782963848418528e-16
669, 4.020176004415657e-16
586, 3.049120818121820e-16
691, 1.934580205510536e-16
1491, 2.948664009887139e-16
1772, 2.051735526133257e-16
649, 3.707737409325510e-16
193, 2.304881035160139e-16
980, 2.781818295692090e-16
1534, 1.039894611285714e-16
1788, 2.484392879742953e-16
1979, 2.296443235582261e-16
975, 2.264445529571527e-16
1893, 2.141580529457779e-16
213, 5.808158891103149e-16
1327, 2.375599155418695e-16
2293, 3.705497727401135e-16
1260, 3.021583619479480e-16
1220, 3.276505724103043e-16
454, 4.066513403840246e-16
1791, 1.969684501491957e-16
1899, 1.888283238064836e-16
730, 2.378172421573231e-16
197, 2.616304709721139e-16
1244, 2.168592571169056e-16
1481, 1.392039820222262e-16
557, 2.237455866823890e-16
1514, 2.720208280728369e-16
1247, 2.574965497279238e-16
1452, 1.918033253322674e-16
1720, 1.078834978688826e-16
150, 2.251687999949773e-16
1829, 2.781018816784811e-16
177, 2.458185736267379e-16
2089, 3.335285656866951e-16
1187, 3.235694432469544e-16
2263, 2.317787633193390e-16
525, 1.460491269944223e-16
1036, 2.172334297328328e-16
2207, 4.247990553180619e-16
1797, 2.071157032938292e-16
2253, 2.189689472511181e-16
146, 3.154633182414893e-16
547, 2.891974743577478e-16
1949, 3.187614747237644e-16
1465, 4.004552080483799e-16
541, 2.037820871472208e-16
711, 2.962274193098780e-16
2171, 2.313120534653030e-16
1507, 1.928688767112929e-16
699, 1.487929954742846e-16
1937, 2.443429262899766e-16
533, 1.912472974313597e-16
383, 2.569086172306477e-16
130, 4.309344505869173e-16
679, 5.152267660363545e-16
1458, 1.510240367551105e-16
1199, 3.801602424063901e-16
2315, 2.228580177583503e-16
695, 2.825915300578492e-16
2300, 2.561475920763213e-16
1211, 2.495572558072618e-16
2183, 2.385840220840319e-16
2210, 1.739939313997725e-16
1704, 1.944364396742664e-16
2226, 1.741986440079375e-16
1298, 2.953058632216967e-16
1018, 1.146469151854302e-16
1927, 3.963767788232476e-16
749, 1.621561418145805e-16
1781, 1.318172938927693e-16
582, 1.292442883269723e-16
2324, 2.628803762531403e-16
602, 2.114247064279903e-16
753, 3.158729684601133e-16
1810, 2.085886780301560e-16
1848, 1.805296798913019e-16
1857, 2.371198063908034e-16
253, 4.017592062580188e-16
1905, 3.302329343757016e-16
1730, 3.375763908853160e-16
594, 1.806801990326107e-16
781, 2.215918332103739e-16
2289, 4.175523284962017e-16
1287, 1.634303247371514e-16
988, 2.846630665182571e-16
1472, 4.742075459988591e-16
1437, 3.402644653576335e-16
226, 3.294273623624928e-16
943, 1.359380364366245e-16
49, 2.347908417053993e-16
1013, 1.583832161566599e-16
1495, 3.070467420588340e-16
611, 2.591817574386689e-16
1696, 2.584221083247503e-16
1838, 1.577858927162140e-16
554, 2.122107529634724e-16
2260, 2.025705860253439e-16
2321, 3.163563725030814e-16
2145, 3.264170132555505e-16
630, 1.970262995059986e-16
1911, 3.753473237801826e-16
1866, 2.416070216172534e-16
682, 1.785142603651177e-16
577, 2.095470350389585e-16
2312, 1.584659500806082e-16
1172, 1.658580778846365e-16
636, 2.175257848984362e-16
206, 2.697243640282051e-16
2165, 2.112245028933495e-16
2139, 5.013638703143155e-16
1193, 1.736733706472264e-16
705, 2.392522455595868e-16
1003, 2.444393112040017e-16
2233, 1.579029664895715e-16
2328, 5.772223484167705e-16
529, 3.105453936759263e-16
523, 1.728652698870868e-16
2112, 2.605957841427905e-16
2000, 1.496639996481549e-16
2077, 1.741123329038580e-16
928, 4.697297928390073e-16
2155, 3.149594339033461e-16
2277, 2.210804953035517e-16
1281, 3.006204784719276e-16
1943, 2.848876100488595e-16
235, 3.222285870710271e-16
1940, 3.268270724345599e-16
1890, 2.082830209466327e-16
723, 3.090878529449013e-16
57, 1.191709401904724e-16
597, 2.464470556218545e-16
1502, 2.301381573221633e-16
761, 2.256076026116110e-16
1528, 1.716473296864229e-16
708, 2.658091984297333e-16
2220, 2.186339901142650e-16
666, 3.015691300541460e-16
1539, 2.306481616895005e-16
2126, 2.220427842346343e-16
2306, 1.404954427015015e-16
675, 2.619614648041188e-16
1878, 2.563566757815258e-16
1833, 2.893778329161217e-16
1543, 5.280089687922536e-16
1823, 1.977772565907009e-16
736, 4.411307801211625e-16
591, 1.801020388156405e-16
2209, 1.755469200945168e-16
568, 2.654662335612686e-16
650, 2.433421677482903e-16
977, 2.572023665355069e-16
672, 1.874524032930633e-16
608, 2.835286192802487e-16
1517, 4.634867847081346e-16
747, 2.031191706246928e-16
1934, 1.296970910082309e-16
763, 2.134958353715396e-16
2242, 1.892614708088202e-16
31, 2.664026992030287e-16
551, 1.853149545570912e-16
1820, 2.080250599704270e-16
1021, 3.672986939101826e-16
520, 2.116231079869743e-16
685, 2.581596466822394e-16
1184, 1.407954690164226e-16
1902, 2.299369542529152e-16
720, 4.287022210767123e-16
1284, 1.373361415455448e-16
144, 1.493151328066384e-16
1202, 3.777303348636828e-16
624, 1.107924773718570e-16
574, 2.496636939832227e-16
1908, 1.873900128134005e-16
1547, 3.000165588921876e-16
1485, 2.673580332543215e-16
1736, 2.032680427107005e-16
1290, 2.501875087777882e-16
913, 1.686464429325204e-16
168, 1.197638887325274e-16
1914, 2.068103334755499e-16
1213, 2.127215422806953e-16
1208, 1.614406621396002e-16
1461, 1.717482599960507e-16
1440, 2.648175108888798e-16
39, 1.635918341075389e-16
132, 1.245956022409894e-16
640, 1.517942685269879e-16
733, 2.562811081449129e-16
536, 4.534946825454805e-16
1717, 2.590353050673462e-16
990, 1.529155402708066e-16
1862, 3.096909902861303e-16
1923, 2.017228567253529e-16
1275, 1.555383257037386e-16
1860, 8.600550448628215e-17
616, 1.860385055769733e-16
767, 2.366850790534868e-16
1257, 2.298580177803265e-16
539, 1.924736505740317e-16
776, 1.817860098615333e-16
580, 1.388859931116851e-16
770, 1.177408968407775e-16
1296, 2.362692455289718e-16
2271, 2.375209178918542e-16
95, 1.698687534065710e-16
1226, 2.075332184352675e-16
1559, 1.235548064653352e-16
633, 1.737830687014367e-16
1885, 2.216346503276547e-16
688, 2.300726533414752e-16
69, 2.899593405667153e-16
8, 2.725410045482776e-16
92, 1.211128450535270e-16
1537, 2.165812601745626e-16
702, 1.590493359352782e-16
571, 1.930324805487015e-16
544, 2.026796498299986e-16
1504, 2.091910892308384e-16
1455, 2.701303965578208e-16
1449, 2.697114784566861e-16
1869, 1.349547685162176e-16
54, 2.485491173829240e-16
1263, 1.712776317586936e-16
2117, 8.312623386242838e-17
653, 1.709622805611001e-16
1269, 1.695018555402609e-16
642, 3.335626164240416e-16
1429, 2.518236749763392e-16
0, 1.509299326562408e-16
88, 1.941385921043166e-16
43, 2.067934965091785e-16
77, 1.479349271889027e-16
755, 1.047242026345742e-16
1557, 1.344867101280575e-16
85, 1.866572085348826e-16
4, 1.081696259840343e-16
1946, 1.980810763851521e-16
604, 2.687142772810494e-16
717, 2.701017882151080e-16
1178, 8.614563801718489e-17
21, 9.508225012082407e-17
1896, 1.389363075937085e-16
15, 2.579521029104844e-16
560, 2.640508288760435e-16
614, 1.726458975804101e-16
79, 1.737230333406316e-16
2218, 1.304032442925002e-16
127, 1.354524359008868e-16
104, 2.547336212596649e-16
2202, 1.049515292569286e-16
1434, 9.196535650985145e-17
73, 3.210058464897916e-16
60, 3.077928761738268e-16
18, 1.382505627420185e-16
1475, 1.589795921969232e-16
589, 2.151520062587845e-16
121, 1.370044101629893e-16
1430, 1.788064514775596e-16
101, 9.449146978618708e-17
124, 1.792088611232073e-16
115, 1.406762873413072e-16
64, 1.569282538988670e-16
28, 1.575834179528641e-16
110, 1.639855000895567e-16
82, 1.597141441561236e-16
2339, 1.489959241971294e-16
24, 1.004505232870104e-16
906, 1.959266586704210e-16
36, 7.258081521340555e-17
129, 1.147418182248184e-16
11, 7.480629704988959e-17
107, 2.160125402950606e-16
1835, 1.856284876637537e-16
98, 1.445949032979837e-16
919, 1.213073804625876e-16
1164, 6.784527591791264e-17
46, 2.733468965738520e-16
1951, 9.161312464306378e-17
1519, 1.297153561970507e-16
1754, 1.359570514610025e-16
51, 6.470033206765855e-17
1929, 8.952351948342673e-17
1405, 1.902397586203967e-16
118, 1.684197734670159e-16
647, 2.337548172977007e-17
265, 2.959390802033548e-17
257, 1.182915617905715e-16
910, 9.943278706751859e-17
67, 5.220772027842262e-17
2, 3.377058348231117e-17
661, 1.966847556293746e-16
1299, 3.486603394406177e-17
2081, 9.371867597612040e-17
2336, 7.432703784054855e-17
33, 9.728784771224124e-17
1688, 5.935937528137229e-17
400, 7.425399788902554e-17
1549, 4.863249169150218e-17
1818, 2.043004087016638e-17
1041, 9.945596609050050e-17
1691, 2.233335025497640e-17
527, 3.873499298058006e-17
1821, 3.393564437735044e-17
1316, 2.770934957088856e-17
1038, 2.161544037074780e-17
651, 2.027756314752325e-17
859, 1.645559879395430e-17
2094, 2.431115494131757e-17
1948, 1.683431162269783e-17
373, 1.646000267266358e-17
113, 3.594539537451667e-17
507, 2.367682391032753e-17
1968, 2.475311946959228e-17
1137, 1.732355162043222e-17
778, 1.812268395363092e-17
1235, 1.240587644942834e-17
2065, 9.535771013122130e-18
1587, 1.178218546801214e-17
218, 1.143038338421942e-17
2211, 1.693151677996934e-17
565, 1.210813073741587e-17
458, 9.503407325197529e-27
