11, 1.173312000000000e+08
11, 2.661120000000000e+07
11, 4.838400000000000e+07
11, 6.410880000000000e+07
11, 1.330560000000000e+07
11, 7.378560000000000e+07
11, 1.463616000000000e+08
11, 1.548288000000000e+08
11, 1.512000000000000e+08
11, 1.076544000000000e+08
11, 4.354560000000000e+07
11, 8.709120000000000e+07
11, 1.572480000000000e+07
11, 9.676800000000000e+06
11, 1.282176000000000e+08
11, 5.443200000000000e+07
11, 3.749760000000000e+07
11, 3.144960000000000e+07
11, 6.773760000000000e+07
11, 9.192960000000000e+07
11, 1.209600000000000e+08
11, 1.028160000000000e+08
11, 6.048000000000000e+07
11, 3.386880000000000e+07
11, 1.935360000000000e+07
11, 8.346240000000000e+07
11, 1.366848000000000e+08
11, 3.628800000000000e+06
11, 9.797760000000000e+07
11, 1.318464000000000e+08
11, 1.112832000000000e+08
11, 1.415232000000000e+08
11, 5.080320000000000e+07
11, 5.806080000000000e+07
7, 1.354752000000000e+08
7, 1.536192000000000e+08
11, 1.245888000000000e+08
7, 4.959360000000000e+07
23, 1.233792000000000e+08
11, 0.000000000000000e+00
23, 1.693440000000000e+07
21, 5.443200000000000e+07
7, 8.467200000000000e+07
7, 3.144960000000000e+07
23, 8.346240000000000e+07
0, 2.177280000000000e+07
7, 9.192960000000000e+07
7, 5.564160000000000e+07
23, 1.451520000000000e+08
23, 4.354560000000000e+07
7, 7.257600000000000e+07
0, 1.221696000000000e+08
7, 1.270080000000000e+08
11, 7.983360000000000e+07
23, 1.124928000000000e+08
7, 2.298240000000000e+07
7, 4.354560000000000e+07
7, 7.257600000000000e+06
23, 5.806080000000000e+07
7, 1.935360000000000e+07
23, 1.209600000000000e+07
23, 1.088640000000000e+08
23, 7.983360000000000e+07
23, 6.168960000000000e+07
21, 1.427328000000000e+08
23, 2.177280000000000e+07
14, 4.959360000000000e+07
23, 9.918720000000000e+07
23, 7.499520000000000e+07
13, 5.443200000000000e+07
23, 3.024000000000000e+07
23, 4.717440000000000e+07
23, 3.991680000000000e+07
0, 1.524096000000000e+08
23, 6.531840000000000e+07
23, 3.628800000000000e+06
7, 1.415232000000000e+08
23, 8.830080000000000e+07
11, 7.620480000000000e+07
7, 3.870720000000000e+07
4, 9.072000000000000e+07
0, 5.443200000000000e+07
23, 1.209600000000000e+08
23, 1.487808000000000e+08
23, 2.540160000000000e+07
23, 5.201280000000000e+07
21, 3.749760000000000e+07
21, 1.330560000000000e+08
7, 5.927040000000000e+07
11, 1.391040000000000e+08
23, 7.015680000000000e+07
0, 1.451520000000000e+07
23, 5.443200000000000e+07
0, 9.072000000000000e+07
7, 6.531840000000000e+07
7, 1.112832000000000e+08
23, 1.536192000000000e+08
23, 1.294272000000000e+08
21, 1.209600000000000e+08
23, 3.265920000000000e+07
0, 1.294272000000000e+08
7, 1.221696000000000e+08
0, 8.588160000000000e+07
21, 3.144960000000000e+07
23, 1.052352000000000e+08
0, 1.016064000000000e+08
7, 6.894720000000000e+07
13, 1.451520000000000e+07
13, 1.512000000000000e+08
0, 7.862400000000000e+07
21, 8.709120000000000e+07
21, 4.717440000000000e+07
21, 6.773760000000000e+07
21, 9.434880000000000e+07
23, 7.257600000000000e+06
23, 1.173312000000000e+08
4, 1.245888000000000e+08
14, 2.298240000000000e+07
7, 1.330560000000000e+07
21, 1.366848000000000e+08
4, 6.410880000000000e+07
7, 1.318464000000000e+08
13, 8.346240000000000e+07
23, 7.741440000000000e+07
0, 1.475712000000000e+08
21, 1.088640000000000e+07
14, 1.197504000000000e+08
4, 2.903040000000000e+07
21, 1.112832000000000e+08
0, 1.149120000000000e+08
7, 7.983360000000000e+07
0, 6.048000000000000e+07
0, 9.555840000000000e+07
0, 1.064448000000000e+08
18, 3.386880000000000e+07
13, 9.918720000000000e+07
0, 6.894720000000000e+07
13, 1.221696000000000e+08
4, 5.443200000000000e+07
7, 4.717440000000000e+07
21, 1.003968000000000e+08
0, 5.080320000000000e+07
4, 7.741440000000000e+07
21, 1.161216000000000e+08
7, 2.661120000000000e+07
0, 3.628800000000000e+06
14, 3.507840000000000e+07
4, 1.378944000000000e+08
4, 1.548288000000000e+08
21, 7.983360000000000e+07
14, 1.003968000000000e+08
7, 1.391040000000000e+08
13, 7.499520000000000e+07
11, 1.560384000000000e+08
7, 1.076544000000000e+08
4, 1.475712000000000e+08
4, 1.088640000000000e+08
21, 3.628800000000000e+06
0, 6.531840000000000e+07
4, 1.209600000000000e+07
14, 2.903040000000000e+07
11, 9.434880000000000e+07
13, 2.298240000000000e+07
13, 3.265920000000000e+07
4, 3.749760000000000e+07
7, 3.628800000000000e+06
0, 1.112832000000000e+08
7, 0.000000000000000e+00
4, 1.294272000000000e+08
18, 1.088640000000000e+08
7, 1.463616000000000e+08
4, 2.177280000000000e+07
23, 9.434880000000000e+07
14, 1.282176000000000e+08
18, 1.088640000000000e+07
14, 9.676800000000000e+06
13, 9.072000000000000e+07
21, 7.620480000000000e+07
23, 1.378944000000000e+08
21, 6.410880000000000e+07
7, 1.572480000000000e+07
7, 1.149120000000000e+08
14, 5.806080000000000e+07
0, 1.088640000000000e+07
4, 1.137024000000000e+08
21, 5.927040000000000e+07
21, 1.052352000000000e+08
13, 3.991680000000000e+07
14, 1.693440000000000e+07
23, 1.415232000000000e+08
4, 1.016064000000000e+08
21, 7.257600000000000e+07
14, 1.318464000000000e+08
0, 7.620480000000000e+07
7, 1.185408000000000e+08
13, 6.652800000000000e+07
23, 1.270080000000000e+08
4, 6.048000000000000e+07
14, 4.233600000000000e+07
7, 9.918720000000000e+07
4, 4.959360000000000e+07
23, 3.628800000000000e+07
13, 4.596480000000000e+07
11, 1.137024000000000e+08
18, 1.209600000000000e+08
7, 3.507840000000000e+07
14, 1.487808000000000e+08
13, 8.709120000000000e+07
21, 1.463616000000000e+08
13, 2.903040000000000e+07
13, 6.289920000000000e+07
18, 2.540160000000000e+07
5, 4.112640000000000e+07
14, 2.661120000000000e+07
4, 1.415232000000000e+08
13, 5.080320000000000e+07
4, 1.209600000000000e+08
14, 1.149120000000000e+08
4, 9.555840000000000e+07
5, 6.652800000000000e+07
0, 9.918720000000000e+07
7, 8.830080000000000e+07
13, 1.935360000000000e+07
13, 1.257984000000000e+08
21, 9.072000000000000e+07
23, 1.342656000000000e+08
13, 1.028160000000000e+08
13, 1.173312000000000e+08
13, 7.257600000000000e+06
14, 4.838400000000000e+06
13, 1.088640000000000e+07
21, 2.540160000000000e+07
14, 4.475520000000000e+07
0, 2.419200000000000e+07
13, 2.661120000000000e+07
5, 2.177280000000000e+07
7, 7.620480000000000e+07
14, 6.289920000000000e+07
18, 1.016064000000000e+08
14, 9.676800000000000e+07
4, 4.475520000000000e+07
13, 1.560384000000000e+08
14, 1.935360000000000e+07
13, 9.434880000000000e+07
18, 1.245888000000000e+08
21, 1.451520000000000e+07
21, 1.270080000000000e+08
0, 7.257600000000000e+07
0, 8.225280000000000e+07
5, 1.306368000000000e+08
18, 1.499904000000000e+08
7, 9.555840000000000e+07
13, 1.088640000000000e+08
4, 8.225280000000000e+07
13, 1.451520000000000e+08
18, 2.177280000000000e+07
5, 5.322240000000000e+07
18, 4.233600000000000e+07
5, 1.197504000000000e+08
16, 1.161216000000000e+08
23, 0.000000000000000e+00
14, 2.419200000000000e+06
21, 1.076544000000000e+08
4, 7.136640000000000e+07
14, 8.467200000000000e+07
14, 1.076544000000000e+08
18, 1.572480000000000e+07
18, 5.927040000000000e+07
13, 7.015680000000000e+07
14, 1.112832000000000e+08
14, 8.951040000000000e+07
7, 1.499904000000000e+08
5, 4.717440000000000e+07
18, 2.903040000000000e+07
7, 1.560384000000000e+08
13, 1.294272000000000e+08
18, 1.548288000000000e+08
4, 1.052352000000000e+08
14, 1.391040000000000e+08
13, 5.806080000000000e+07
23, 1.560384000000000e+08
5, 3.265920000000000e+07
4, 8.709120000000000e+07
16, 5.443200000000000e+07
4, 1.173312000000000e+08
4, 1.342656000000000e+08
5, 6.168960000000000e+07
21, 1.524096000000000e+08
4, 9.797760000000000e+07
4, 1.814400000000000e+07
18, 1.052352000000000e+08
18, 1.124928000000000e+08
0, 1.560384000000000e+08
4, 3.265920000000000e+07
4, 4.112640000000000e+07
5, 1.245888000000000e+08
18, 1.814400000000000e+07
5, 2.782080000000000e+07
14, 1.040256000000000e+08
18, 2.419200000000000e+06
18, 7.257600000000000e+06
4, 6.773760000000000e+07
7, 1.040256000000000e+08
5, 1.330560000000000e+07
0, 7.257600000000000e+06
14, 1.439424000000000e+08
13, 0.000000000000000e+00
0, 2.903040000000000e+07
14, 7.378560000000000e+07
13, 3.749760000000000e+07
4, 7.499520000000000e+07
5, 3.628800000000000e+07
21, 2.056320000000000e+07
4, 8.467200000000000e+06
21, 9.797760000000000e+07
16, 1.330560000000000e+08
5, 1.560384000000000e+08
5, 5.080320000000000e+07
5, 1.693440000000000e+07
0, 1.814400000000000e+07
21, 1.294272000000000e+08
14, 7.741440000000000e+07
14, 3.870720000000000e+07
18, 3.749760000000000e+07
11, 2.298240000000000e+07
4, 2.540160000000000e+07
21, 8.346240000000000e+07
7, 6.168960000000000e+07
14, 6.652800000000000e+07
14, 1.524096000000000e+08
13, 7.862400000000000e+07
4, 1.499904000000000e+08
0, 4.233600000000000e+07
13, 1.064448000000000e+08
9, 8.467200000000000e+06
16, 6.289920000000000e+07
21, 4.475520000000000e+07
5, 1.403136000000000e+08
5, 1.451520000000000e+08
5, 8.467200000000000e+06
13, 1.318464000000000e+08
5, 9.797760000000000e+07
14, 1.233792000000000e+08
4, 1.572480000000000e+07
16, 1.245888000000000e+08
14, 1.330560000000000e+07
5, 9.072000000000000e+07
13, 1.137024000000000e+08
14, 1.560384000000000e+08
5, 6.048000000000000e+06
0, 1.257984000000000e+08
5, 9.434880000000000e+07
11, 6.048000000000000e+06
16, 1.040256000000000e+08
18, 1.463616000000000e+08
0, 3.386880000000000e+07
16, 9.313920000000000e+07
14, 7.015680000000000e+07
16, 8.951040000000000e+07
21, 0.000000000000000e+00
5, 7.257600000000000e+07
5, 2.419200000000000e+06
23, 9.676800000000000e+06
21, 1.814400000000000e+07
21, 1.560384000000000e+08
14, 0.000000000000000e+00
16, 1.003968000000000e+08
5, 1.524096000000000e+08
18, 1.294272000000000e+08
23, 9.192960000000000e+07
18, 1.330560000000000e+08
0, 4.717440000000000e+07
9, 8.588160000000000e+07
16, 1.088640000000000e+08
9, 1.439424000000000e+08
13, 1.354752000000000e+08
16, 1.209600000000000e+08
21, 1.403136000000000e+08
4, 4.838400000000000e+06
5, 2.540160000000000e+07
5, 5.806080000000000e+07
16, 5.806080000000000e+07
13, 4.354560000000000e+07
14, 8.104320000000000e+07
16, 6.652800000000000e+07
14, 5.443200000000000e+07
16, 1.294272000000000e+08
4, 5.685120000000000e+07
16, 3.749760000000000e+07
5, 8.588160000000000e+07
5, 7.741440000000000e+07
0, 1.342656000000000e+08
9, 1.560384000000000e+08
4, 1.560384000000000e+08
0, 1.185408000000000e+08
9, 2.661120000000000e+07
5, 0.000000000000000e+00
3, 5.927040000000000e+07
0, 3.870720000000000e+07
16, 4.112640000000000e+07
9, 1.052352000000000e+08
21, 7.257600000000000e+06
14, 1.463616000000000e+08
4, 0.000000000000000e+00
9, 5.201280000000000e+07
3, 1.233792000000000e+08
5, 1.487808000000000e+08
9, 1.233792000000000e+08
21, 4.112640000000000e+07
5, 1.076544000000000e+08
9, 6.048000000000000e+07
3, 1.016064000000000e+08
5, 4.354560000000000e+07
7, 9.676800000000000e+06
14, 1.354752000000000e+08
13, 3.628800000000000e+06
9, 1.003968000000000e+08
18, 7.378560000000000e+07
14, 9.313920000000000e+07
18, 1.161216000000000e+08
0, 5.806080000000000e+07
5, 7.015680000000000e+07
9, 6.773760000000000e+07
9, 1.088640000000000e+08
16, 1.560384000000000e+08
16, 2.661120000000000e+07
8, 3.870720000000000e+07
0, 0.000000000000000e+00
9, 9.555840000000000e+07
3, 1.814400000000000e+07
5, 1.161216000000000e+08
9, 1.282176000000000e+08
18, 1.403136000000000e+08
5, 1.052352000000000e+08
9, 1.935360000000000e+07
9, 8.951040000000000e+07
5, 1.330560000000000e+08
9, 0.000000000000000e+00
13, 1.403136000000000e+08
3, 3.749760000000000e+07
21, 5.080320000000000e+07
16, 1.524096000000000e+08
1, 6.289920000000000e+07
18, 8.830080000000000e+07
5, 1.270080000000000e+08
0, 1.391040000000000e+08
9, 4.596480000000000e+07
18, 6.289920000000000e+07
9, 1.330560000000000e+08
5, 1.016064000000000e+08
9, 1.124928000000000e+08
9, 7.620480000000000e+07
21, 1.499904000000000e+08
3, 4.838400000000000e+07
4, 1.439424000000000e+08
3, 6.894720000000000e+07
9, 3.024000000000000e+07
21, 2.903040000000000e+07
8, 7.741440000000000e+07
18, 5.322240000000000e+07
13, 1.487808000000000e+08
0, 1.499904000000000e+08
18, 0.000000000000000e+00
9, 1.512000000000000e+08
3, 3.024000000000000e+07
18, 7.015680000000000e+07
3, 8.588160000000000e+07
7, 1.209600000000000e+06
8, 1.560384000000000e+08
3, 7.257600000000000e+06
5, 8.225280000000000e+07
0, 1.415232000000000e+08
16, 1.403136000000000e+08
18, 7.862400000000000e+07
16, 1.475712000000000e+08
18, 1.439424000000000e+08
3, 1.354752000000000e+08
9, 7.983360000000000e+07
9, 1.088640000000000e+07
1, 1.439424000000000e+08
3, 1.536192000000000e+08
18, 9.555840000000000e+07
23, 1.512000000000000e+08
12, 1.137024000000000e+08
3, 5.564160000000000e+07
9, 2.298240000000000e+07
18, 8.225280000000000e+07
8, 5.685120000000000e+07
9, 5.685120000000000e+07
3, 2.419200000000000e+07
16, 2.298240000000000e+07
9, 4.233600000000000e+07
12, 1.088640000000000e+08
8, 8.830080000000000e+07
5, 1.124928000000000e+08
16, 3.024000000000000e+07
5, 1.366848000000000e+08
16, 1.088640000000000e+07
9, 6.410880000000000e+07
3, 4.354560000000000e+07
3, 1.463616000000000e+08
18, 5.080320000000000e+07
18, 4.596480000000000e+07
8, 6.894720000000000e+07
18, 6.652800000000000e+07
1, 5.443200000000000e+07
8, 1.257984000000000e+08
16, 0.000000000000000e+00
3, 7.741440000000000e+07
8, 1.088640000000000e+08
16, 1.693440000000000e+07
18, 1.366848000000000e+08
1, 7.983360000000000e+07
1, 1.548288000000000e+08
9, 3.386880000000000e+07
16, 1.439424000000000e+08
3, 1.294272000000000e+08
9, 7.136640000000000e+07
9, 1.197504000000000e+08
3, 1.088640000000000e+07
20, 1.451520000000000e+08
9, 4.959360000000000e+07
16, 1.124928000000000e+08
8, 9.555840000000000e+07
9, 1.415232000000000e+08
8, 1.693440000000000e+07
8, 1.415232000000000e+08
3, 9.192960000000000e+07
1, 7.257600000000000e+07
9, 3.749760000000000e+07
8, 4.959360000000000e+07
9, 1.572480000000000e+07
15, 8.104320000000000e+07
3, 3.386880000000000e+07
9, 9.313920000000000e+07
16, 1.366848000000000e+08
16, 7.257600000000000e+06
1, 2.177280000000000e+07
20, 4.838400000000000e+07
3, 8.225280000000000e+07
8, 1.487808000000000e+08
1, 4.354560000000000e+07
3, 7.257600000000000e+07
3, 4.112640000000000e+07
1, 9.676800000000000e+07
1, 1.052352000000000e+08
16, 7.499520000000000e+07
1, 4.959360000000000e+07
16, 7.136640000000000e+07
10, 2.540160000000000e+07
9, 1.354752000000000e+08
1, 1.088640000000000e+07
15, 2.661120000000000e+07
0, 1.439424000000000e+08
8, 6.289920000000000e+07
16, 3.386880000000000e+07
1, 1.124928000000000e+08
16, 7.983360000000000e+07
10, 1.330560000000000e+07
10, 1.560384000000000e+08
8, 2.298240000000000e+07
3, 3.628800000000000e+06
1, 3.749760000000000e+07
3, 5.201280000000000e+07
8, 1.197504000000000e+08
1, 1.209600000000000e+08
22, 0.000000000000000e+00
1, 6.652800000000000e+07
15, 5.322240000000000e+07
8, 4.475520000000000e+07
1, 7.620480000000000e+07
16, 4.596480000000000e+07
8, 1.137024000000000e+08
9, 1.161216000000000e+08
15, 3.991680000000000e+07
13, 1.536192000000000e+08
8, 7.378560000000000e+07
22, 1.270080000000000e+08
3, 6.410880000000000e+07
1, 3.144960000000000e+07
0, 1.209600000000000e+06
16, 4.959360000000000e+07
3, 1.451520000000000e+07
8, 1.318464000000000e+08
1, 1.003968000000000e+08
16, 9.676800000000000e+07
15, 1.197504000000000e+08
18, 8.467200000000000e+07
8, 1.378944000000000e+08
8, 5.322240000000000e+07
16, 1.451520000000000e+07
1, 1.270080000000000e+08
8, 7.257600000000000e+06
1, 0.000000000000000e+00
9, 3.628800000000000e+06
1, 8.951040000000000e+07
8, 2.903040000000000e+07
8, 8.225280000000000e+07
10, 3.628800000000000e+07
3, 1.052352000000000e+08
10, 6.652800000000000e+07
3, 1.185408000000000e+08
22, 1.439424000000000e+08
8, 9.192960000000000e+07
20, 2.298240000000000e+07
10, 4.475520000000000e+07
8, 3.628800000000000e+06
9, 1.475712000000000e+08
22, 9.313920000000000e+07
3, 1.124928000000000e+08
1, 1.572480000000000e+07
1, 8.346240000000000e+07
1, 4.838400000000000e+06
20, 1.330560000000000e+07
8, 3.386880000000000e+07
8, 9.918720000000000e+07
16, 3.628800000000000e+06
10, 6.048000000000000e+07
12, 5.564160000000000e+07
8, 1.040256000000000e+08
2, 3.628800000000000e+07
8, 1.330560000000000e+07
2, 4.838400000000000e+06
10, 1.270080000000000e+08
10, 3.991680000000000e+07
15, 9.555840000000000e+07
10, 3.024000000000000e+07
12, 2.419200000000000e+07
1, 1.366848000000000e+08
2, 7.983360000000000e+07
15, 4.959360000000000e+07
1, 1.499904000000000e+08
3, 1.499904000000000e+08
22, 6.773760000000000e+07
9, 8.225280000000000e+07
12, 4.717440000000000e+07
1, 2.540160000000000e+07
16, 8.346240000000000e+07
22, 1.064448000000000e+08
15, 1.076544000000000e+08
1, 1.330560000000000e+08
8, 1.233792000000000e+08
15, 3.024000000000000e+07
4, 2.419200000000000e+06
10, 0.000000000000000e+00
15, 6.289920000000000e+07
2, 1.548288000000000e+08
2, 1.693440000000000e+07
12, 6.410880000000000e+07
10, 1.016064000000000e+08
1, 5.806080000000000e+07
16, 8.588160000000000e+07
3, 1.088640000000000e+08
18, 9.797760000000000e+07
20, 7.257600000000000e+07
15, 0.000000000000000e+00
12, 3.144960000000000e+07
10, 7.257600000000000e+07
12, 9.555840000000000e+07
8, 6.048000000000000e+07
10, 7.257600000000000e+06
10, 1.487808000000000e+08
10, 1.366848000000000e+08
15, 5.806080000000000e+07
1, 8.467200000000000e+06
10, 7.862400000000000e+07
12, 1.451520000000000e+07
10, 9.555840000000000e+07
22, 6.289920000000000e+07
3, 1.391040000000000e+08
15, 9.072000000000000e+07
10, 8.225280000000000e+07
22, 1.112832000000000e+08
15, 1.257984000000000e+08
5, 1.548288000000000e+08
2, 7.620480000000000e+07
10, 1.306368000000000e+08
1, 1.294272000000000e+08
12, 1.185408000000000e+08
12, 1.463616000000000e+08
22, 1.403136000000000e+08
17, 1.185408000000000e+08
8, 1.524096000000000e+08
1, 4.717440000000000e+07
15, 1.137024000000000e+08
15, 1.403136000000000e+08
2, 6.652800000000000e+07
20, 1.076544000000000e+08
12, 4.233600000000000e+07
2, 5.322240000000000e+07
15, 1.330560000000000e+07
16, 1.499904000000000e+08
10, 6.894720000000000e+07
8, 0.000000000000000e+00
1, 1.814400000000000e+07
2, 0.000000000000000e+00
14, 1.548288000000000e+08
2, 1.209600000000000e+07
1, 9.313920000000000e+07
0, 3.144960000000000e+07
10, 1.173312000000000e+08
20, 6.168960000000000e+07
20, 8.467200000000000e+07
15, 7.620480000000000e+07
15, 1.536192000000000e+08
2, 4.959360000000000e+07
15, 3.507840000000000e+07
1, 1.161216000000000e+08
20, 7.862400000000000e+07
22, 8.467200000000000e+06
22, 2.661120000000000e+07
10, 1.935360000000000e+07
10, 1.403136000000000e+08
22, 1.572480000000000e+07
15, 1.306368000000000e+08
20, 1.415232000000000e+08
2, 1.451520000000000e+08
20, 1.814400000000000e+07
19, 6.168960000000000e+07
1, 1.088640000000000e+08
10, 5.201280000000000e+07
15, 6.894720000000000e+07
10, 9.676800000000000e+06
15, 4.354560000000000e+07
12, 8.951040000000000e+07
8, 1.451520000000000e+08
15, 1.451520000000000e+08
18, 5.685120000000000e+07
22, 1.161216000000000e+08
19, 1.173312000000000e+08
22, 3.507840000000000e+07
2, 1.245888000000000e+08
20, 3.749760000000000e+07
18, 1.560384000000000e+08
22, 1.209600000000000e+08
20, 1.330560000000000e+08
15, 1.935360000000000e+07
1, 3.386880000000000e+07
10, 1.233792000000000e+08
17, 7.257600000000000e+07
2, 1.003968000000000e+08
20, 1.112832000000000e+08
12, 8.104320000000000e+07
1, 1.475712000000000e+08
17, 3.386880000000000e+07
15, 1.173312000000000e+08
22, 1.318464000000000e+08
10, 1.088640000000000e+08
3, 1.318464000000000e+08
17, 4.112640000000000e+07
20, 6.531840000000000e+07
10, 2.298240000000000e+07
10, 8.588160000000000e+07
20, 3.144960000000000e+07
17, 9.072000000000000e+07
20, 2.782080000000000e+07
15, 7.257600000000000e+07
20, 3.628800000000000e+06
1, 1.403136000000000e+08
17, 6.168960000000000e+07
17, 1.100736000000000e+08
20, 1.221696000000000e+08
15, 8.467200000000000e+06
14, 5.201280000000000e+07
2, 2.661120000000000e+07
10, 9.192960000000000e+07
12, 1.560384000000000e+08
20, 5.685120000000000e+07
22, 2.177280000000000e+07
8, 2.056320000000000e+07
15, 2.298240000000000e+07
2, 1.209600000000000e+08
1, 6.894720000000000e+07
20, 0.000000000000000e+00
10, 1.342656000000000e+08
12, 1.233792000000000e+08
2, 1.378944000000000e+08
15, 8.709120000000000e+07
11, 1.487808000000000e+08
10, 3.628800000000000e+06
10, 5.685120000000000e+07
19, 4.596480000000000e+07
20, 4.233600000000000e+07
3, 0.000000000000000e+00
20, 8.830080000000000e+07
12, 8.467200000000000e+07
20, 9.918720000000000e+07
12, 1.403136000000000e+08
12, 6.048000000000000e+06
15, 1.003968000000000e+08
10, 1.439424000000000e+08
10, 1.124928000000000e+08
10, 1.052352000000000e+08
22, 9.797760000000000e+07
10, 3.386880000000000e+07
12, 1.354752000000000e+08
20, 5.322240000000000e+07
20, 7.257600000000000e+06
17, 2.782080000000000e+07
10, 1.524096000000000e+08
12, 2.782080000000000e+07
12, 5.080320000000000e+07
12, 9.676800000000000e+06
12, 1.318464000000000e+08
20, 1.149120000000000e+08
15, 1.354752000000000e+08
20, 1.028160000000000e+08
17, 1.439424000000000e+08
17, 1.330560000000000e+07
15, 4.717440000000000e+07
15, 6.531840000000000e+07
2, 8.346240000000000e+07
12, 7.015680000000000e+07
17, 5.564160000000000e+07
12, 1.512000000000000e+08
17, 1.366848000000000e+08
15, 3.628800000000000e+06
15, 1.487808000000000e+08
2, 1.512000000000000e+08
8, 4.112640000000000e+07
8, 1.161216000000000e+08
23, 1.209600000000000e+06
3, 2.661120000000000e+07
17, 8.104320000000000e+07
17, 9.676800000000000e+07
18, 4.838400000000000e+06
22, 4.959360000000000e+07
2, 5.806080000000000e+07
22, 7.983360000000000e+07
17, 2.177280000000000e+07
22, 7.257600000000000e+07
10, 4.838400000000000e+07
19, 7.378560000000000e+07
6, 3.144960000000000e+07
22, 3.144960000000000e+07
12, 3.870720000000000e+07
15, 1.560384000000000e+08
20, 3.386880000000000e+07
20, 1.378944000000000e+08
6, 3.749760000000000e+07
12, 1.935360000000000e+07
15, 1.040256000000000e+08
22, 4.838400000000000e+06
3, 8.830080000000000e+07
12, 2.419200000000000e+06
22, 1.499904000000000e+08
2, 4.596480000000000e+07
3, 1.560384000000000e+08
2, 7.257600000000000e+07
2, 1.173312000000000e+08
22, 1.209600000000000e+07
20, 1.257984000000000e+08
2, 1.306368000000000e+08
2, 3.024000000000000e+07
12, 6.048000000000000e+07
2, 9.555840000000000e+07
17, 1.693440000000000e+07
17, 3.628800000000000e+06
22, 7.620480000000000e+07
12, 7.741440000000000e+07
17, 6.531840000000000e+07
3, 9.676800000000000e+07
17, 1.536192000000000e+08
20, 1.560384000000000e+08
20, 6.894720000000000e+07
8, 8.467200000000000e+07
19, 1.088640000000000e+07
17, 1.233792000000000e+08
19, 9.072000000000000e+07
10, 8.951040000000000e+07
6, 4.475520000000000e+07
17, 1.318464000000000e+08
20, 1.487808000000000e+08
1, 1.560384000000000e+08
16, 5.201280000000000e+07
22, 1.016064000000000e+08
22, 4.354560000000000e+07
9, 1.536192000000000e+08
12, 3.507840000000000e+07
22, 3.870720000000000e+07
17, 8.467200000000000e+07
15, 1.572480000000000e+07
12, 1.282176000000000e+08
15, 1.378944000000000e+08
19, 7.862400000000000e+07
15, 1.100736000000000e+08
20, 9.434880000000000e+07
20, 1.294272000000000e+08
15, 8.346240000000000e+07
20, 1.185408000000000e+08
20, 7.620480000000000e+07
17, 1.475712000000000e+08
6, 5.564160000000000e+07
12, 1.052352000000000e+08
17, 5.201280000000000e+07
20, 4.475520000000000e+07
17, 1.040256000000000e+08
22, 8.346240000000000e+07
19, 1.451520000000000e+07
19, 5.443200000000000e+07
19, 4.112640000000000e+07
22, 6.048000000000000e+07
17, 4.838400000000000e+07
2, 1.124928000000000e+08
22, 1.560384000000000e+08
19, 5.806080000000000e+07
19, 2.298240000000000e+07
2, 1.342656000000000e+08
5, 1.088640000000000e+07
6, 9.434880000000000e+07
2, 8.951040000000000e+07
12, 0.000000000000000e+00
19, 1.318464000000000e+08
17, 7.499520000000000e+07
19, 6.652800000000000e+07
12, 1.427328000000000e+08
17, 4.475520000000000e+07
10, 1.197504000000000e+08
6, 1.342656000000000e+08
8, 1.342656000000000e+08
20, 1.088640000000000e+07
19, 3.386880000000000e+07
11, 1.209600000000000e+06
19, 1.257984000000000e+08
12, 7.378560000000000e+07
17, 9.313920000000000e+07
19, 1.391040000000000e+08
8, 2.661120000000000e+07
19, 1.499904000000000e+08
17, 1.403136000000000e+08
22, 1.524096000000000e+08
17, 1.149120000000000e+08
6, 2.661120000000000e+07
22, 8.709120000000000e+07
6, 1.197504000000000e+08
17, 0.000000000000000e+00
6, 1.088640000000000e+08
7, 1.294272000000000e+08
17, 3.749760000000000e+07
22, 1.245888000000000e+08
20, 1.524096000000000e+08
19, 3.024000000000000e+07
22, 9.072000000000000e+07
19, 4.959360000000000e+07
6, 1.560384000000000e+08
2, 6.289920000000000e+07
19, 1.052352000000000e+08
2, 1.100736000000000e+08
6, 8.588160000000000e+07
12, 1.161216000000000e+08
13, 1.209600000000000e+06
6, 6.894720000000000e+07
1, 8.709120000000000e+07
17, 1.282176000000000e+08
6, 1.052352000000000e+08
2, 1.415232000000000e+08
3, 1.161216000000000e+08
6, 1.499904000000000e+08
22, 1.366848000000000e+08
6, 5.927040000000000e+07
19, 8.225280000000000e+07
19, 1.354752000000000e+08
19, 2.661120000000000e+07
20, 9.192960000000000e+07
2, 6.894720000000000e+07
6, 2.056320000000000e+07
12, 9.313920000000000e+07
22, 1.935360000000000e+07
2, 2.177280000000000e+07
6, 8.467200000000000e+06
2, 1.028160000000000e+08
6, 4.838400000000000e+07
19, 1.536192000000000e+08
17, 7.257600000000000e+06
6, 1.233792000000000e+08
19, 7.015680000000000e+07
19, 3.628800000000000e+06
12, 1.016064000000000e+08
19, 1.124928000000000e+08
17, 1.003968000000000e+08
6, 5.201280000000000e+07
19, 0.000000000000000e+00
17, 5.927040000000000e+07
1, 2.419200000000000e+06
19, 1.088640000000000e+08
19, 1.935360000000000e+07
6, 8.951040000000000e+07
6, 1.270080000000000e+08
2, 1.064448000000000e+08
8, 9.676800000000000e+06
19, 3.749760000000000e+07
19, 1.463616000000000e+08
17, 1.088640000000000e+07
16, 1.209600000000000e+06
6, 7.741440000000000e+07
2, 9.676800000000000e+06
2, 4.354560000000000e+07
3, 1.427328000000000e+08
17, 1.512000000000000e+08
6, 1.016064000000000e+08
6, 1.378944000000000e+08
17, 1.560384000000000e+08
19, 1.427328000000000e+08
22, 5.685120000000000e+07
19, 9.434880000000000e+07
17, 6.894720000000000e+07
6, 7.257600000000000e+07
19, 8.588160000000000e+07
19, 1.221696000000000e+08
19, 7.257600000000000e+06
22, 4.596480000000000e+07
6, 1.572480000000000e+07
2, 1.935360000000000e+07
15, 6.048000000000000e+06
19, 9.918720000000000e+07
2, 9.192960000000000e+07
6, 1.463616000000000e+08
17, 2.540160000000000e+07
10, 6.289920000000000e+07
6, 4.112640000000000e+07
6, 6.289920000000000e+07
22, 5.322240000000000e+07
7, 1.548288000000000e+08
6, 1.124928000000000e+08
2, 1.487808000000000e+08
6, 1.209600000000000e+07
2, 3.991680000000000e+07
6, 1.306368000000000e+08
6, 3.628800000000000e+06
22, 1.463616000000000e+08
9, 1.209600000000000e+06
12, 6.652800000000000e+07
19, 1.560384000000000e+08
6, 1.415232000000000e+08
12, 1.693440000000000e+07
6, 1.161216000000000e+08
4, 1.270080000000000e+08
6, 6.652800000000000e+07
3, 6.652800000000000e+07
6, 2.419200000000000e+07
6, 9.797760000000000e+07
21, 1.209600000000000e+06
6, 8.104320000000000e+07
17, 1.076544000000000e+08
18, 1.524096000000000e+08
2, 2.419200000000000e+06
20, 2.056320000000000e+07
13, 1.427328000000000e+08
19, 1.282176000000000e+08
0, 1.548288000000000e+08
10, 1.209600000000000e+06
6, 0.000000000000000e+00
19, 1.016064000000000e+08
12, 1.487808000000000e+08
22, 2.419200000000000e+06
8, 1.548288000000000e+08
15, 1.512000000000000e+08
22, 1.137024000000000e+08
2, 1.560384000000000e+08
11, 4.112640000000000e+07
5, 7.983360000000000e+07
6, 1.536192000000000e+08
10, 1.548288000000000e+08
3, 1.209600000000000e+06
23, 1.016064000000000e+08
4, 1.524096000000000e+08
6, 6.048000000000000e+06
20, 1.548288000000000e+08
16, 1.548288000000000e+08
19, 5.201280000000000e+07
12, 1.548288000000000e+08
14, 7.257600000000000e+06
13, 7.257600000000000e+07
6, 3.386880000000000e+07
9, 1.378944000000000e+08
1, 1.233792000000000e+08
21, 1.548288000000000e+08
20, 1.209600000000000e+06
18, 9.192960000000000e+07
14, 1.257984000000000e+08
0, 1.088640000000000e+08
16, 2.056320000000000e+07
23, 1.548288000000000e+08
11, 1.536192000000000e+08
7, 2.903040000000000e+07
3, 1.257984000000000e+08
19, 1.209600000000000e+06
17, 1.209600000000000e+06
23, 1.935360000000000e+07
